Barium
 1.000E-03 1.94E+03 1.57E+00 1.95E+06 0.00E+00 0.00E+00 1.95E+06 1.95E+06 
 1.031E-03 1.94E+03 1.62E+00 1.82E+06 0.00E+00 0.00E+00 1.82E+06 1.82E+06 
 1.062E-03 1.93E+03 1.69E+00 1.70E+06 0.00E+00 0.00E+00 1.70E+06 1.70E+06 
 1.062E-03 1.93E+03 1.69E+00 1.95E+06 0.00E+00 0.00E+00 1.95E+06 1.95E+06 
 1.099E-03 1.92E+03 1.76E+00 1.81E+06 0.00E+00 0.00E+00 1.81E+06 1.81E+06 
 1.137E-03 1.91E+03 1.83E+00 1.69E+06 0.00E+00 0.00E+00 1.69E+06 1.69E+06 
 1.137E-03 1.91E+03 1.83E+00 1.78E+06 0.00E+00 0.00E+00 1.79E+06 1.79E+06 
 1.212E-03 1.90E+03 1.97E+00 1.56E+06 0.00E+00 0.00E+00 1.56E+06 1.56E+06 
 1.293E-03 1.88E+03 2.11E+00 1.36E+06 0.00E+00 0.00E+00 1.37E+06 1.36E+06 
 1.293E-03 1.88E+03 2.11E+00 1.42E+06 0.00E+00 0.00E+00 1.43E+06 1.43E+06 
 1.500E-03 1.83E+03 2.49E+00 1.02E+06 0.00E+00 0.00E+00 1.03E+06 1.02E+06 
 2.000E-03 1.71E+03 3.40E+00 5.27E+05 0.00E+00 0.00E+00 5.29E+05 5.27E+05 
 3.000E-03 1.50E+03 5.13E+00 1.97E+05 0.00E+00 0.00E+00 1.98E+05 1.97E+05 
 4.000E-03 1.31E+03 6.74E+00 9.55E+04 0.00E+00 0.00E+00 9.68E+04 9.55E+04 
 5.000E-03 1.15E+03 8.16E+00 5.39E+04 0.00E+00 0.00E+00 5.50E+04 5.39E+04 
 5.247E-03 1.11E+03 8.48E+00 4.76E+04 0.00E+00 0.00E+00 4.87E+04 4.76E+04 
 5.247E-03 1.11E+03 8.48E+00 1.38E+05 0.00E+00 0.00E+00 1.39E+05 1.38E+05 
 5.432E-03 1.09E+03 8.72E+00 1.27E+05 0.00E+00 0.00E+00 1.28E+05 1.27E+05 
 5.624E-03 1.06E+03 8.95E+00 1.17E+05 0.00E+00 0.00E+00 1.18E+05 1.17E+05 
 5.624E-03 1.06E+03 8.95E+00 1.59E+05 0.00E+00 0.00E+00 1.60E+05 1.59E+05 
 5.803E-03 1.04E+03 9.17E+00 1.47E+05 0.00E+00 0.00E+00 1.48E+05 1.47E+05 
 5.989E-03 1.02E+03 9.39E+00 1.36E+05 0.00E+00 0.00E+00 1.37E+05 1.36E+05 
 5.989E-03 1.02E+03 9.39E+00 1.57E+05 0.00E+00 0.00E+00 1.58E+05 1.57E+05 
 6.000E-03 1.02E+03 9.40E+00 1.56E+05 0.00E+00 0.00E+00 1.57E+05 1.56E+05 
 8.000E-03 8.11E+02 1.15E+01 7.52E+04 0.00E+00 0.00E+00 7.60E+04 7.52E+04 
 1.000E-02 6.61E+02 1.33E+01 4.17E+04 0.00E+00 0.00E+00 4.24E+04 4.18E+04 
 1.500E-02 4.34E+02 1.67E+01 1.40E+04 0.00E+00 0.00E+00 1.45E+04 1.40E+04 
 2.000E-02 3.12E+02 1.91E+01 6.37E+03 0.00E+00 0.00E+00 6.70E+03 6.39E+03 
 3.000E-02 1.79E+02 2.19E+01 2.06E+03 0.00E+00 0.00E+00 2.26E+03 2.08E+03 
 3.744E-02 1.29E+02 2.30E+01 1.10E+03 0.00E+00 0.00E+00 1.25E+03 1.13E+03 
 3.744E-02 1.29E+02 2.30E+01 6.50E+03 0.00E+00 0.00E+00 6.66E+03 6.53E+03 
 4.000E-02 1.17E+02 2.34E+01 5.46E+03 0.00E+00 0.00E+00 5.60E+03 5.49E+03 
 5.000E-02 8.31E+01 2.41E+01 3.04E+03 0.00E+00 0.00E+00 3.14E+03 3.06E+03 
 6.000E-02 6.22E+01 2.45E+01 1.85E+03 0.00E+00 0.00E+00 1.94E+03 1.88E+03 
 8.000E-02 3.85E+01 2.47E+01 8.41E+02 0.00E+00 0.00E+00 9.04E+02 8.65E+02 
 1.000E-01 2.61E+01 2.44E+01 4.50E+02 0.00E+00 0.00E+00 5.01E+02 4.75E+02 
 1.500E-01 1.27E+01 2.30E+01 1.43E+02 0.00E+00 0.00E+00 1.78E+02 1.66E+02 
 2.000E-01 7.52E+00 2.16E+01 6.32E+01 0.00E+00 0.00E+00 9.23E+01 8.47E+01 
 3.000E-01 3.52E+00 1.92E+01 2.04E+01 0.00E+00 0.00E+00 4.31E+01 3.96E+01 
 4.000E-01 2.03E+00 1.74E+01 9.46E+00 0.00E+00 0.00E+00 2.89E+01 2.68E+01 
 5.000E-01 1.32E+00 1.60E+01 5.35E+00 0.00E+00 0.00E+00 2.26E+01 2.13E+01 
 6.000E-01 9.24E-01 1.48E+01 3.43E+00 0.00E+00 0.00E+00 1.92E+01 1.83E+01 
 8.000E-01 5.25E-01 1.31E+01 1.78E+00 0.00E+00 0.00E+00 1.54E+01 1.49E+01 
 1.000E+00 3.38E-01 1.18E+01 1.11E+00 0.00E+00 0.00E+00 1.32E+01 1.29E+01 
 1.022E+00 3.24E-01 1.16E+01 1.07E+00 0.00E+00 0.00E+00 1.30E+01 1.27E+01 
 1.250E+00 2.18E-01 1.06E+01 7.19E-01 4.61E-02 0.00E+00 1.15E+01 1.13E+01 
 1.500E+00 1.51E-01 9.59E+00 5.14E-01 2.13E-01 0.00E+00 1.05E+01 1.03E+01 
 2.000E+00 8.53E-02 8.19E+00 3.13E-01 7.08E-01 0.00E+00 9.30E+00 9.21E+00 
 2.044E+00 8.17E-02 8.09E+00 3.02E-01 7.55E-01 0.00E+00 9.23E+00 9.15E+00 
 3.000E+00 3.80E-02 6.45E+00 1.66E-01 1.76E+00 2.26E-03 8.42E+00 8.38E+00 
 4.000E+00 2.14E-02 5.38E+00 1.09E-01 2.68E+00 9.20E-03 8.20E+00 8.18E+00 
 5.000E+00 1.37E-02 4.65E+00 8.09E-02 3.47E+00 1.83E-02 8.24E+00 8.22E+00 
 6.000E+00 9.51E-03 4.11E+00 6.38E-02 4.16E+00 2.81E-02 8.37E+00 8.36E+00 
 7.000E+00 6.99E-03 3.69E+00 5.25E-02 4.76E+00 3.78E-02 8.55E+00 8.55E+00 
 8.000E+00 5.35E-03 3.36E+00 4.45E-02 5.30E+00 4.72E-02 8.77E+00 8.76E+00 
 9.000E+00 4.23E-03 3.09E+00 3.86E-02 5.80E+00 5.62E-02 8.99E+00 8.98E+00 
 1.000E+01 3.43E-03 2.86E+00 3.40E-02 6.25E+00 6.48E-02 9.22E+00 9.21E+00 
 1.100E+01 2.83E-03 2.67E+00 3.04E-02 6.67E+00 7.29E-02 9.45E+00 9.45E+00 
 1.200E+01 2.38E-03 2.51E+00 2.75E-02 7.06E+00 8.05E-02 9.67E+00 9.67E+00 
 1.300E+01 2.03E-03 2.36E+00 2.51E-02 7.42E+00 8.77E-02 9.89E+00 9.89E+00 
 1.400E+01 1.75E-03 2.23E+00 2.30E-02 7.75E+00 9.45E-02 1.01E+01 1.01E+01 
 1.500E+01 1.52E-03 2.12E+00 2.13E-02 8.06E+00 1.01E-01 1.03E+01 1.03E+01 
 1.600E+01 1.34E-03 2.02E+00 1.98E-02 8.35E+00 1.07E-01 1.05E+01 1.05E+01 
 1.800E+01 1.06E-03 1.85E+00 1.74E-02 8.87E+00 1.18E-01 1.08E+01 1.08E+01 
 2.000E+01 8.56E-04 1.70E+00 1.55E-02 9.33E+00 1.29E-01 1.12E+01 1.12E+01 
 2.200E+01 7.08E-04 1.58E+00 1.39E-02 9.75E+00 1.38E-01 1.15E+01 1.15E+01 
 2.400E+01 5.95E-04 1.48E+00 1.27E-02 1.01E+01 1.47E-01 1.18E+01 1.18E+01 
 2.600E+01 5.07E-04 1.39E+00 1.16E-02 1.05E+01 1.55E-01 1.20E+01 1.20E+01 
 2.800E+01 4.37E-04 1.31E+00 1.07E-02 1.08E+01 1.62E-01 1.23E+01 1.23E+01 
 3.000E+01 3.81E-04 1.24E+00 9.98E-03 1.11E+01 1.69E-01 1.25E+01 1.25E+01 
 4.000E+01 2.14E-04 9.84E-01 7.36E-03 1.23E+01 1.98E-01 1.35E+01 1.35E+01 
 5.000E+01 1.37E-04 8.22E-01 5.83E-03 1.32E+01 2.19E-01 1.42E+01 1.42E+01 
 6.000E+01 9.52E-05 7.08E-01 4.82E-03 1.39E+01 2.36E-01 1.48E+01 1.48E+01 
 8.000E+01 5.35E-05 5.58E-01 3.59E-03 1.49E+01 2.62E-01 1.57E+01 1.57E+01 
 1.000E+02 3.43E-05 4.63E-01 2.85E-03 1.56E+01 2.81E-01 1.64E+01 1.64E+01 
 1.500E+02 1.52E-05 3.30E-01 1.89E-03 1.68E+01 3.12E-01 1.74E+01 1.74E+01 
 2.000E+02 8.56E-06 2.59E-01 1.41E-03 1.75E+01 3.31E-01 1.81E+01 1.81E+01 
 3.000E+02 3.81E-06 1.83E-01 9.38E-04 1.83E+01 3.55E-01 1.88E+01 1.88E+01 
 4.000E+02 2.14E-06 1.44E-01 7.02E-04 1.88E+01 3.69E-01 1.93E+01 1.93E+01 
 5.000E+02 1.37E-06 1.19E-01 5.61E-04 1.91E+01 3.79E-01 1.96E+01 1.96E+01 
 6.000E+02 9.52E-07 1.02E-01 4.67E-04 1.93E+01 3.86E-01 1.98E+01 1.98E+01 
 8.000E+02 5.35E-07 7.95E-02 3.50E-04 1.96E+01 3.96E-01 2.01E+01 2.01E+01 
 1.000E+03 3.43E-07 6.54E-02 2.80E-04 1.98E+01 4.03E-01 2.02E+01 2.02E+01 
 1.500E+03 1.52E-07 4.57E-02 1.86E-04 2.00E+01 4.13E-01 2.05E+01 2.05E+01 
 2.000E+03 8.56E-08 3.54E-02 1.40E-04 2.02E+01 4.19E-01 2.06E+01 2.06E+01 
 3.000E+03 3.81E-08 2.46E-02 9.32E-05 2.04E+01 4.25E-01 2.08E+01 2.08E+01 
 4.000E+03 2.14E-08 1.90E-02 6.99E-05 2.04E+01 4.29E-01 2.09E+01 2.09E+01 
 5.000E+03 1.37E-08 1.55E-02 5.59E-05 2.05E+01 4.31E-01 2.09E+01 2.09E+01 
 6.000E+03 9.52E-09 1.32E-02 4.66E-05 2.05E+01 4.33E-01 2.10E+01 2.10E+01 
 8.000E+03 5.35E-09 1.01E-02 3.49E-05 2.06E+01 4.35E-01 2.10E+01 2.10E+01 
 1.000E+04 3.43E-09 8.28E-03 2.79E-05 2.06E+01 4.37E-01 2.11E+01 2.11E+01 
 1.500E+04 1.52E-09 5.72E-03 1.86E-05 2.07E+01 4.38E-01 2.11E+01 2.11E+01 
 2.000E+04 8.56E-10 4.40E-03 1.40E-05 2.07E+01 4.40E-01 2.11E+01 2.11E+01 
 3.000E+04 3.81E-10 3.03E-03 9.31E-06 2.07E+01 4.40E-01 2.11E+01 2.11E+01 
 4.000E+04 2.14E-10 2.33E-03 6.98E-06 2.07E+01 4.41E-01 2.12E+01 2.12E+01 
 5.000E+04 1.37E-10 1.90E-03 5.59E-06 2.07E+01 4.42E-01 2.12E+01 2.12E+01 
 6.000E+04 9.52E-11 1.60E-03 4.66E-06 2.07E+01 4.42E-01 2.12E+01 2.12E+01 
 8.000E+04 5.35E-11 1.23E-03 3.49E-06 2.07E+01 4.42E-01 2.12E+01 2.12E+01 
 1.000E+05 3.43E-11 1.00E-03 2.79E-06 2.07E+01 4.42E-01 2.12E+01 2.12E+01 
