Boron
 1.000E-03 1.45E+01 2.89E-01 2.20E+04 0.00E+00 0.00E+00 2.21E+04 2.20E+04 
 1.500E-03 1.25E+01 5.54E-01 6.75E+03 0.00E+00 0.00E+00 6.76E+03 6.75E+03 
 2.000E-03 1.05E+01 8.20E-01 2.86E+03 0.00E+00 0.00E+00 2.87E+03 2.86E+03 
 3.000E-03 7.55E+00 1.26E+00 8.29E+02 0.00E+00 0.00E+00 8.38E+02 8.30E+02 
 4.000E-03 5.68E+00 1.57E+00 3.39E+02 0.00E+00 0.00E+00 3.46E+02 3.40E+02 
 5.000E-03 4.52E+00 1.77E+00 1.68E+02 0.00E+00 0.00E+00 1.74E+02 1.69E+02 
 6.000E-03 3.76E+00 1.92E+00 9.38E+01 0.00E+00 0.00E+00 9.94E+01 9.57E+01 
 8.000E-03 2.81E+00 2.15E+00 3.72E+01 0.00E+00 0.00E+00 4.21E+01 3.93E+01 
 1.000E-02 2.20E+00 2.31E+00 1.80E+01 0.00E+00 0.00E+00 2.25E+01 2.03E+01 
 1.500E-02 1.32E+00 2.58E+00 4.77E+00 0.00E+00 0.00E+00 8.66E+00 7.35E+00 
 2.000E-02 8.56E-01 2.71E+00 1.84E+00 0.00E+00 0.00E+00 5.41E+00 4.55E+00 
 3.000E-02 4.38E-01 2.79E+00 4.77E-01 0.00E+00 0.00E+00 3.70E+00 3.27E+00 
 4.000E-02 2.64E-01 2.77E+00 1.82E-01 0.00E+00 0.00E+00 3.22E+00 2.96E+00 
 5.000E-02 1.76E-01 2.73E+00 8.61E-02 0.00E+00 0.00E+00 2.99E+00 2.81E+00 
 6.000E-02 1.25E-01 2.67E+00 4.66E-02 0.00E+00 0.00E+00 2.84E+00 2.72E+00 
 8.000E-02 7.24E-02 2.55E+00 1.78E-02 0.00E+00 0.00E+00 2.64E+00 2.57E+00 
 1.000E-01 4.70E-02 2.44E+00 8.43E-03 0.00E+00 0.00E+00 2.50E+00 2.45E+00 
 1.500E-01 2.12E-02 2.21E+00 2.20E-03 0.00E+00 0.00E+00 2.23E+00 2.21E+00 
 2.000E-01 1.20E-02 2.03E+00 8.61E-04 0.00E+00 0.00E+00 2.04E+00 2.03E+00 
 3.000E-01 5.34E-03 1.76E+00 2.40E-04 0.00E+00 0.00E+00 1.77E+00 1.77E+00 
 4.000E-01 3.01E-03 1.58E+00 1.02E-04 0.00E+00 0.00E+00 1.59E+00 1.58E+00 
 5.000E-01 1.93E-03 1.45E+00 5.50E-05 0.00E+00 0.00E+00 1.45E+00 1.45E+00 
 6.000E-01 1.34E-03 1.34E+00 3.42E-05 0.00E+00 0.00E+00 1.34E+00 1.34E+00 
 8.000E-01 7.53E-04 1.17E+00 1.72E-05 0.00E+00 0.00E+00 1.18E+00 1.18E+00 
 1.000E+00 4.82E-04 1.06E+00 1.07E-05 0.00E+00 0.00E+00 1.06E+00 1.06E+00 
 1.022E+00 4.62E-04 1.05E+00 9.79E-06 0.00E+00 0.00E+00 1.05E+00 1.05E+00 
 1.250E+00 3.09E-04 9.45E-01 6.65E-06 1.98E-04 0.00E+00 9.46E-01 9.45E-01 
 1.500E+00 2.14E-04 8.59E-01 4.83E-06 1.10E-03 0.00E+00 8.60E-01 8.60E-01 
 2.000E+00 1.21E-04 7.33E-01 3.06E-06 4.41E-03 0.00E+00 7.38E-01 7.37E-01 
 2.044E+00 1.15E-04 7.24E-01 2.96E-06 4.75E-03 0.00E+00 7.29E-01 7.29E-01 
 3.000E+00 5.36E-05 5.77E-01 1.72E-06 1.26E-02 2.02E-04 5.90E-01 5.90E-01 
 4.000E+00 3.01E-05 4.81E-01 1.18E-06 2.05E-02 8.24E-04 5.02E-01 5.02E-01 
 5.000E+00 1.93E-05 4.15E-01 9.01E-07 2.75E-02 1.64E-03 4.45E-01 4.45E-01 
 6.000E+00 1.34E-05 3.67E-01 7.26E-07 3.39E-02 2.52E-03 4.04E-01 4.04E-01 
 7.000E+00 9.84E-06 3.30E-01 6.07E-07 3.95E-02 3.40E-03 3.73E-01 3.73E-01 
 8.000E+00 7.53E-06 3.00E-01 5.21E-07 4.46E-02 4.25E-03 3.49E-01 3.49E-01 
 9.000E+00 5.95E-06 2.76E-01 4.57E-07 4.92E-02 5.07E-03 3.30E-01 3.30E-01 
 1.000E+01 4.82E-06 2.56E-01 4.07E-07 5.34E-02 5.85E-03 3.15E-01 3.15E-01 
 1.100E+01 3.99E-06 2.39E-01 3.66E-07 5.72E-02 6.59E-03 3.02E-01 3.02E-01 
 1.200E+01 3.35E-06 2.24E-01 3.33E-07 6.07E-02 7.29E-03 2.92E-01 2.92E-01 
 1.300E+01 2.85E-06 2.11E-01 3.05E-07 6.40E-02 7.95E-03 2.83E-01 2.83E-01 
 1.400E+01 2.46E-06 1.99E-01 2.82E-07 6.71E-02 8.58E-03 2.75E-01 2.75E-01 
 1.500E+01 2.14E-06 1.89E-01 2.62E-07 6.99E-02 9.18E-03 2.68E-01 2.68E-01 
 1.600E+01 1.88E-06 1.80E-01 2.45E-07 7.26E-02 9.75E-03 2.63E-01 2.63E-01 
 1.800E+01 1.49E-06 1.65E-01 2.16E-07 7.75E-02 1.08E-02 2.53E-01 2.53E-01 
 2.000E+01 1.21E-06 1.52E-01 1.93E-07 8.19E-02 1.18E-02 2.46E-01 2.46E-01 
 2.200E+01 9.96E-07 1.41E-01 1.75E-07 8.59E-02 1.27E-02 2.40E-01 2.40E-01 
 2.400E+01 8.37E-07 1.32E-01 1.60E-07 8.96E-02 1.35E-02 2.35E-01 2.35E-01 
 2.600E+01 7.13E-07 1.24E-01 1.47E-07 9.30E-02 1.43E-02 2.31E-01 2.31E-01 
 2.800E+01 6.15E-07 1.17E-01 1.36E-07 9.60E-02 1.50E-02 2.28E-01 2.28E-01 
 3.000E+01 5.36E-07 1.11E-01 1.26E-07 9.89E-02 1.57E-02 2.25E-01 2.25E-01 
 4.000E+01 3.01E-07 8.79E-02 9.40E-08 1.11E-01 1.85E-02 2.17E-01 2.17E-01 
 5.000E+01 1.93E-07 7.34E-02 7.48E-08 1.20E-01 2.08E-02 2.14E-01 2.14E-01 
 6.000E+01 1.34E-07 6.32E-02 6.21E-08 1.27E-01 2.26E-02 2.13E-01 2.13E-01 
 8.000E+01 7.53E-08 4.99E-02 4.64E-08 1.37E-01 2.54E-02 2.13E-01 2.13E-01 
 1.000E+02 4.82E-08 4.14E-02 3.70E-08 1.45E-01 2.75E-02 2.14E-01 2.14E-01 
 1.500E+02 2.14E-08 2.95E-02 2.46E-08 1.58E-01 3.12E-02 2.19E-01 2.19E-01 
 2.000E+02 1.21E-08 2.31E-02 1.84E-08 1.67E-01 3.37E-02 2.23E-01 2.23E-01 
 3.000E+02 5.36E-09 1.64E-02 1.22E-08 1.77E-01 3.69E-02 2.30E-01 2.30E-01 
 4.000E+02 3.01E-09 1.28E-02 9.18E-09 1.83E-01 3.89E-02 2.34E-01 2.34E-01 
 5.000E+02 1.93E-09 1.06E-02 7.34E-09 1.87E-01 4.04E-02 2.38E-01 2.38E-01 
 6.000E+02 1.34E-09 9.09E-03 6.11E-09 1.90E-01 4.14E-02 2.40E-01 2.40E-01 
 8.000E+02 7.53E-10 7.10E-03 4.58E-09 1.94E-01 4.29E-02 2.44E-01 2.44E-01 
 1.000E+03 4.82E-10 5.84E-03 3.66E-09 1.97E-01 4.40E-02 2.46E-01 2.46E-01 
 1.500E+03 2.14E-10 4.08E-03 2.44E-09 2.00E-01 4.55E-02 2.50E-01 2.50E-01 
 2.000E+03 1.20E-10 3.16E-03 1.83E-09 2.03E-01 4.64E-02 2.52E-01 2.52E-01 
 3.000E+03 5.36E-11 2.19E-03 1.22E-09 2.05E-01 4.74E-02 2.55E-01 2.55E-01 
 4.000E+03 3.01E-11 1.69E-03 9.15E-10 2.06E-01 4.80E-02 2.56E-01 2.56E-01 
 5.000E+03 1.93E-11 1.38E-03 7.32E-10 2.07E-01 4.84E-02 2.57E-01 2.57E-01 
 6.000E+03 1.34E-11 1.17E-03 6.10E-10 2.08E-01 4.87E-02 2.58E-01 2.58E-01 
 8.000E+03 7.53E-12 9.05E-04 4.58E-10 2.08E-01 4.90E-02 2.58E-01 2.58E-01 
 1.000E+04 4.82E-12 7.39E-04 3.66E-10 2.09E-01 4.92E-02 2.59E-01 2.59E-01 
 1.500E+04 2.14E-12 5.11E-04 2.44E-10 2.10E-01 4.95E-02 2.60E-01 2.60E-01 
 2.000E+04 1.20E-12 3.93E-04 1.83E-10 2.10E-01 4.97E-02 2.60E-01 2.60E-01 
 3.000E+04 5.36E-13 2.71E-04 1.22E-10 2.10E-01 4.99E-02 2.61E-01 2.61E-01 
 4.000E+04 3.01E-13 2.08E-04 9.15E-11 2.11E-01 5.00E-02 2.61E-01 2.61E-01 
 5.000E+04 1.93E-13 1.69E-04 7.32E-11 2.11E-01 5.00E-02 2.61E-01 2.61E-01 
 6.000E+04 1.34E-13 1.43E-04 6.10E-11 2.11E-01 5.01E-02 2.61E-01 2.61E-01 
 8.000E+04 7.53E-14 1.10E-04 4.58E-11 2.11E-01 5.01E-02 2.61E-01 2.61E-01 
 1.000E+05 4.82E-14 8.93E-05 3.66E-11 2.11E-01 5.02E-02 2.61E-01 2.61E-01 