Carbon
1.000E-02 2.014E+01 3.150E-03 2.014E+01 2.820E-04 8.665E-05 1.920E-03 
1.250E-02 1.694E+01 3.161E-03 1.695E+01 4.179E-04 1.036E-04 2.481E-03 
1.500E-02 1.471E+01 3.168E-03 1.471E+01 5.767E-04 1.199E-04 3.073E-03 
1.750E-02 1.305E+01 3.172E-03 1.305E+01 7.575E-04 1.355E-04 3.695E-03 
2.000E-02 1.177E+01 3.176E-03 1.177E+01 9.595E-04 1.506E-04 4.347E-03 
2.500E-02 9.913E+00 3.184E-03 9.916E+00 1.424E-03 1.796E-04 5.736E-03 
3.000E-02 8.626E+00 3.194E-03 8.629E+00 1.966E-03 2.073E-04 7.237E-03 
3.500E-02 7.679E+00 3.204E-03 7.682E+00 2.582E-03 2.340E-04 8.843E-03 
4.000E-02 6.950E+00 3.215E-03 6.953E+00 3.267E-03 2.597E-04 1.055E-02 
4.500E-02 6.372E+00 3.228E-03 6.375E+00 4.019E-03 2.847E-04 1.236E-02 
5.000E-02 5.901E+00 3.241E-03 5.904E+00 4.835E-03 3.090E-04 1.425E-02 
5.500E-02 5.510E+00 3.255E-03 5.513E+00 5.712E-03 3.327E-04 1.624E-02 
6.000E-02 5.179E+00 3.270E-03 5.183E+00 6.648E-03 3.559E-04 1.832E-02 
7.000E-02 4.652E+00 3.303E-03 4.655E+00 8.688E-03 4.008E-04 2.271E-02 
8.000E-02 4.249E+00 3.337E-03 4.252E+00 1.094E-02 4.441E-04 2.740E-02 
9.000E-02 3.931E+00 3.375E-03 3.935E+00 1.339E-02 4.860E-04 3.237E-02 
1.000E-01 3.674E+00 3.414E-03 3.677E+00 1.602E-02 5.268E-04 3.760E-02 
1.250E-01 3.204E+00 3.523E-03 3.207E+00 2.333E-02 6.243E-04 5.166E-02 
1.500E-01 2.886E+00 3.640E-03 2.890E+00 3.156E-02 7.168E-04 6.694E-02 
1.750E-01 2.657E+00 3.764E-03 2.661E+00 4.059E-02 8.055E-04 8.320E-02 
2.000E-01 2.485E+00 3.896E-03 2.489E+00 5.032E-02 8.911E-04 1.003E-01 
2.500E-01 2.245E+00 4.179E-03 2.249E+00 7.152E-02 1.055E-03 1.363E-01 
3.000E-01 2.087E+00 4.489E-03 2.092E+00 9.462E-02 1.213E-03 1.740E-01 
3.500E-01 1.977E+00 4.820E-03 1.981E+00 1.192E-01 1.367E-03 2.129E-01 
4.000E-01 1.896E+00 5.173E-03 1.901E+00 1.450E-01 1.518E-03 2.524E-01 
4.500E-01 1.835E+00 5.545E-03 1.841E+00 1.718E-01 1.668E-03 2.922E-01 
5.000E-01 1.788E+00 5.935E-03 1.794E+00 1.993E-01 1.817E-03 3.321E-01 
5.500E-01 1.751E+00 6.340E-03 1.758E+00 2.274E-01 1.966E-03 3.719E-01 
6.000E-01 1.722E+00 6.759E-03 1.729E+00 2.561E-01 2.115E-03 4.114E-01 
7.000E-01 1.679E+00 7.637E-03 1.687E+00 3.147E-01 2.416E-03 4.891E-01 
8.000E-01 1.650E+00 8.559E-03 1.659E+00 3.746E-01 2.719E-03 5.648E-01 
9.000E-01 1.631E+00 9.523E-03 1.640E+00 4.352E-01 3.026E-03 6.382E-01 
1.000E+00 1.617E+00 1.053E-02 1.627E+00 4.964E-01 3.337E-03 7.091E-01 
1.250E+00 1.599E+00 1.318E-02 1.612E+00 6.509E-01 4.133E-03 8.756E-01 
1.500E+00 1.593E+00 1.602E-02 1.609E+00 8.062E-01 4.954E-03 1.028E+00 
1.750E+00 1.594E+00 1.901E-02 1.613E+00 9.614E-01 5.799E-03 1.167E+00 
2.000E+00 1.597E+00 2.213E-02 1.619E+00 1.116E+00 6.665E-03 1.295E+00 
2.500E+00 1.608E+00 2.870E-02 1.637E+00 1.423E+00 8.450E-03 1.522E+00 
3.000E+00 1.621E+00 3.561E-02 1.657E+00 1.727E+00 1.029E-02 1.720E+00 
3.500E+00 1.634E+00 4.281E-02 1.677E+00 2.027E+00 1.218E-02 1.894E+00 
4.000E+00 1.647E+00 5.026E-02 1.697E+00 2.323E+00 1.410E-02 2.051E+00 
4.500E+00 1.658E+00 5.792E-02 1.716E+00 2.616E+00 1.606E-02 2.193E+00 
5.000E+00 1.669E+00 6.576E-02 1.735E+00 2.906E+00 1.803E-02 2.323E+00 
5.500E+00 1.679E+00 7.378E-02 1.753E+00 3.193E+00 2.003E-02 2.443E+00 
6.000E+00 1.689E+00 8.193E-02 1.771E+00 3.476E+00 2.204E-02 2.555E+00 
7.000E+00 1.706E+00 9.865E-02 1.804E+00 4.036E+00 2.610E-02 2.758E+00 
8.000E+00 1.720E+00 1.158E-01 1.836E+00 4.585E+00 3.020E-02 2.939E+00 
9.000E+00 1.733E+00 1.334E-01 1.867E+00 5.125E+00 3.432E-02 3.104E+00 
1.000E+01 1.745E+00 1.513E-01 1.896E+00 5.657E+00 3.845E-02 3.256E+00 
1.250E+01 1.769E+00 1.971E-01 1.966E+00 6.952E+00 4.877E-02 3.591E+00 
1.500E+01 1.787E+00 2.444E-01 2.032E+00 8.202E+00 5.903E-02 3.879E+00 
1.750E+01 1.803E+00 2.927E-01 2.095E+00 9.414E+00 6.918E-02 4.133E+00 
2.000E+01 1.816E+00 3.417E-01 2.157E+00 1.059E+01 7.917E-02 4.361E+00 
2.500E+01 1.836E+00 4.417E-01 2.278E+00 1.284E+01 9.861E-02 4.755E+00 
3.000E+01 1.852E+00 5.435E-01 2.396E+00 1.498E+01 1.173E-01 5.088E+00 
3.500E+01 1.865E+00 6.466E-01 2.512E+00 1.702E+01 1.351E-01 5.376E+00 
4.000E+01 1.877E+00 7.508E-01 2.627E+00 1.897E+01 1.522E-01 5.628E+00 
4.500E+01 1.886E+00 8.559E-01 2.742E+00 2.083E+01 1.685E-01 5.854E+00 
5.000E+01 1.895E+00 9.617E-01 2.857E+00 2.262E+01 1.841E-01 6.057E+00 
5.500E+01 1.903E+00 1.068E+00 2.971E+00 2.433E+01 1.991E-01 6.241E+00 
6.000E+01 1.910E+00 1.175E+00 3.085E+00 2.598E+01 2.133E-01 6.411E+00 
7.000E+01 1.922E+00 1.391E+00 3.313E+00 2.911E+01 2.401E-01 6.712E+00 
8.000E+01 1.932E+00 1.608E+00 3.541E+00 3.203E+01 2.648E-01 6.974E+00 
9.000E+01 1.942E+00 1.827E+00 3.768E+00 3.477E+01 2.875E-01 7.206E+00 
1.000E+02 1.950E+00 2.046E+00 3.996E+00 3.735E+01 3.087E-01 7.415E+00 
1.250E+02 1.967E+00 2.598E+00 4.566E+00 4.319E+01 3.553E-01 7.857E+00 
1.500E+02 1.982E+00 3.155E+00 5.136E+00 4.835E+01 3.948E-01 8.219E+00 
1.750E+02 1.993E+00 3.714E+00 5.708E+00 5.297E+01 4.288E-01 8.525E+00 
2.000E+02 2.004E+00 4.276E+00 6.280E+00 5.714E+01 4.585E-01 8.791E+00 
2.500E+02 2.021E+00 5.405E+00 7.426E+00 6.446E+01 5.080E-01 9.236E+00 
3.000E+02 2.035E+00 6.540E+00 8.575E+00 7.072E+01 5.476E-01 9.599E+00 
3.500E+02 2.047E+00 7.678E+00 9.725E+00 7.619E+01 5.804E-01 9.907E+00 
4.000E+02 2.057E+00 8.820E+00 1.088E+01 8.105E+01 6.079E-01 1.017E+01 
4.500E+02 2.066E+00 9.964E+00 1.203E+01 8.542E+01 6.314E-01 1.041E+01 
5.000E+02 2.074E+00 1.111E+01 1.318E+01 8.939E+01 6.519E-01 1.062E+01 
5.500E+02 2.082E+00 1.226E+01 1.434E+01 9.302E+01 6.698E-01 1.081E+01 
6.000E+02 2.088E+00 1.340E+01 1.549E+01 9.637E+01 6.856E-01 1.098E+01 
7.000E+02 2.100E+00 1.570E+01 1.780E+01 1.024E+02 7.125E-01 1.129E+01 
8.000E+02 2.110E+00 1.801E+01 2.012E+01 1.077E+02 7.346E-01 1.156E+01 
9.000E+02 2.119E+00 2.031E+01 2.243E+01 1.124E+02 7.530E-01 1.179E+01 
1.000E+03 2.128E+00 2.262E+01 2.475E+01 1.166E+02 7.687E-01 1.200E+01 