Molybdenum
       1.000E-03 1.11E+03 1.02E+00 7.86E+05 0.00E+00 0.00E+00 7.87E+05 7.86E+05
       1.500E-03 1.04E+03 1.79E+00 3.06E+05 0.00E+00 0.00E+00 3.07E+05 3.06E+05
       2.000E-03 9.73E+02 2.52E+00 1.52E+05 0.00E+00 0.00E+00 1.53E+05 1.52E+05
       2.520E-03 9.03E+02 3.26E+00 8.54E+04 0.00E+00 0.00E+00 8.63E+04 8.54E+04
       2.520E-03 9.03E+02 3.26E+00 3.14E+05 0.00E+00 0.00E+00 3.15E+05 3.14E+05
       2.572E-03 8.96E+02 3.33E+00 2.96E+05 0.00E+00 0.00E+00 2.96E+05 2.96E+05
       2.625E-03 8.89E+02 3.40E+00 2.78E+05 0.00E+00 0.00E+00 2.79E+05 2.78E+05
       2.625E-03 8.89E+02 3.40E+00 3.87E+05 0.00E+00 0.00E+00 3.88E+05 3.87E+05
       2.743E-03 8.73E+02 3.56E+00 3.47E+05 0.00E+00 0.00E+00 3.48E+05 3.47E+05
       2.866E-03 8.57E+02 3.73E+00 3.12E+05 0.00E+00 0.00E+00 3.12E+05 3.12E+05
       2.866E-03 8.57E+02 3.73E+00 3.56E+05 0.00E+00 0.00E+00 3.57E+05 3.56E+05
       3.000E-03 8.40E+02 3.91E+00 3.20E+05 0.00E+00 0.00E+00 3.20E+05 3.20E+05
       4.000E-03 7.26E+02 5.18E+00 1.54E+05 0.00E+00 0.00E+00 1.55E+05 1.54E+05
       5.000E-03 6.32E+02 6.34E+00 8.62E+04 0.00E+00 0.00E+00 8.68E+04 8.62E+04
       6.000E-03 5.55E+02 7.41E+00 5.32E+04 0.00E+00 0.00E+00 5.37E+04 5.32E+04
       8.000E-03 4.42E+02 9.25E+00 2.45E+04 0.00E+00 0.00E+00 2.49E+04 2.45E+04
       1.000E-02 3.61E+02 1.07E+01 1.33E+04 0.00E+00 0.00E+00 1.37E+04 1.33E+04
       1.500E-02 2.31E+02 1.33E+01 4.30E+03 0.00E+00 0.00E+00 4.55E+03 4.32E+03
       2.000E-02 1.58E+02 1.51E+01 1.91E+03 0.00E+00 0.00E+00 2.08E+03 1.93E+03
       2.000E-02 1.58E+02 1.51E+01 1.25E+04 0.00E+00 0.00E+00 1.27E+04 1.25E+04
       2.000E-02 1.58E+02 1.51E+01 1.25E+04 0.00E+00 0.00E+00 1.27E+04 1.25E+04
       3.000E-02 8.89E+01 1.73E+01 4.37E+03 0.00E+00 0.00E+00 4.48E+03 4.39E+03
       4.000E-02 5.79E+01 1.84E+01 1.98E+03 0.00E+00 0.00E+00 2.06E+03 2.00E+03
       5.000E-02 4.05E+01 1.90E+01 1.06E+03 0.00E+00 0.00E+00 1.12E+03 1.08E+03
       6.000E-02 2.99E+01 1.92E+01 6.32E+02 0.00E+00 0.00E+00 6.81E+02 6.51E+02
       8.000E-02 1.82E+01 1.91E+01 2.75E+02 0.00E+00 0.00E+00 3.13E+02 2.94E+02
       1.000E-01 1.23E+01 1.88E+01 1.44E+02 0.00E+00 0.00E+00 1.75E+02 1.62E+02
       1.500E-01 5.96E+00 1.75E+01 4.35E+01 0.00E+00 0.00E+00 6.70E+01 6.11E+01
       2.000E-01 3.49E+00 1.64E+01 1.87E+01 0.00E+00 0.00E+00 3.86E+01 3.51E+01
       3.000E-01 1.62E+00 1.45E+01 5.84E+00 0.00E+00 0.00E+00 2.20E+01 2.03E+01
       4.000E-01 9.27E-01 1.31E+01 2.65E+00 0.00E+00 0.00E+00 1.67E+01 1.58E+01
       5.000E-01 6.00E-01 1.20E+01 1.48E+00 0.00E+00 0.00E+00 1.41E+01 1.35E+01
       6.000E-01 4.19E-01 1.11E+01 9.39E-01 0.00E+00 0.00E+00 1.25E+01 1.21E+01
       8.000E-01 2.38E-01 9.82E+00 4.83E-01 0.00E+00 0.00E+00 1.05E+01 1.03E+01
       1.000E+00 1.53E-01 8.85E+00 3.01E-01 0.00E+00 0.00E+00 9.30E+00 9.15E+00
       1.022E+00 1.46E-01 8.75E+00 2.86E-01 0.00E+00 0.00E+00 9.19E+00 9.04E+00
       1.250E+00 9.80E-02 7.92E+00 1.93E-01 2.14E-02 0.00E+00 8.23E+00 8.13E+00
       1.500E+00 6.81E-02 7.20E+00 1.39E-01 1.01E-01 0.00E+00 7.51E+00 7.44E+00
       2.000E+00 3.84E-02 6.15E+00 8.47E-02 3.60E-01 0.00E+00 6.63E+00 6.59E+00
       2.044E+00 3.67E-02 6.07E+00 8.18E-02 3.86E-01 0.00E+00 6.58E+00 6.54E+00
       3.000E+00 1.71E-02 4.84E+00 4.53E-02 9.51E-01 1.69E-03 5.85E+00 5.84E+00
       4.000E+00 9.61E-03 4.04E+00 3.02E-02 1.48E+00 6.91E-03 5.57E+00 5.56E+00
       5.000E+00 6.15E-03 3.49E+00 2.24E-02 1.95E+00 1.38E-02 5.48E+00 5.47E+00
       6.000E+00 4.27E-03 3.08E+00 1.77E-02 2.35E+00 2.11E-02 5.48E+00 5.48E+00
       7.000E+00 3.14E-03 2.77E+00 1.46E-02 2.72E+00 2.84E-02 5.53E+00 5.53E+00
       8.000E+00 2.40E-03 2.52E+00 1.25E-02 3.04E+00 3.55E-02 5.61E+00 5.61E+00
       9.000E+00 1.90E-03 2.32E+00 1.08E-02 3.34E+00 4.23E-02 5.71E+00 5.71E+00
       1.000E+01 1.54E-03 2.15E+00 9.56E-03 3.61E+00 4.88E-02 5.81E+00 5.81E+00
       1.100E+01 1.27E-03 2.00E+00 8.56E-03 3.85E+00 5.49E-02 5.92E+00 5.92E+00
       1.200E+01 1.07E-03 1.88E+00 7.75E-03 4.08E+00 6.06E-02 6.03E+00 6.03E+00
       1.300E+01 9.10E-04 1.77E+00 7.07E-03 4.29E+00 6.61E-02 6.14E+00 6.14E+00
       1.400E+01 7.85E-04 1.67E+00 6.50E-03 4.49E+00 7.12E-02 6.24E+00 6.24E+00
       1.500E+01 6.84E-04 1.59E+00 6.02E-03 4.66E+00 7.62E-02 6.34E+00 6.34E+00
       1.600E+01 6.01E-04 1.51E+00 5.61E-03 4.83E+00 8.08E-02 6.43E+00 6.43E+00
       1.800E+01 4.75E-04 1.38E+00 4.92E-03 5.14E+00 8.94E-02 6.62E+00 6.62E+00
       2.000E+01 3.85E-04 1.28E+00 4.39E-03 5.41E+00 9.73E-02 6.79E+00 6.79E+00
       2.200E+01 3.18E-04 1.18E+00 3.96E-03 5.67E+00 1.04E-01 6.96E+00 6.96E+00
       2.400E+01 2.67E-04 1.11E+00 3.60E-03 5.89E+00 1.11E-01 7.12E+00 7.12E+00
       2.600E+01 2.28E-04 1.04E+00 3.31E-03 6.10E+00 1.17E-01 7.26E+00 7.26E+00
       2.800E+01 1.96E-04 9.81E-01 3.05E-03 6.29E+00 1.23E-01 7.40E+00 7.40E+00
       3.000E+01 1.71E-04 9.29E-01 2.84E-03 6.47E+00 1.28E-01 7.53E+00 7.53E+00
       4.000E+01 9.61E-05 7.38E-01 2.10E-03 7.18E+00 1.50E-01 8.07E+00 8.07E+00
       5.000E+01 6.15E-05 6.16E-01 1.66E-03 7.70E+00 1.67E-01 8.49E+00 8.49E+00
       6.000E+01 4.27E-05 5.31E-01 1.38E-03 8.12E+00 1.80E-01 8.83E+00 8.83E+00
       8.000E+01 2.40E-05 4.19E-01 1.02E-03 8.72E+00 1.99E-01 9.34E+00 9.34E+00
       1.000E+02 1.54E-05 3.48E-01 8.16E-04 9.15E+00 2.14E-01 9.72E+00 9.72E+00
       1.500E+02 6.84E-06 2.48E-01 5.40E-04 9.84E+00 2.38E-01 1.03E+01 1.03E+01
       2.000E+02 3.85E-06 1.94E-01 4.04E-04 1.02E+01 2.53E-01 1.07E+01 1.07E+01
       3.000E+02 1.71E-06 1.38E-01 2.69E-04 1.07E+01 2.72E-01 1.11E+01 1.11E+01
       4.000E+02 9.61E-07 1.08E-01 2.01E-04 1.10E+01 2.83E-01 1.14E+01 1.14E+01
       5.000E+02 6.15E-07 8.92E-02 1.61E-04 1.12E+01 2.91E-01 1.16E+01 1.16E+01
       6.000E+02 4.27E-07 7.64E-02 1.34E-04 1.13E+01 2.96E-01 1.17E+01 1.17E+01
       8.000E+02 2.40E-07 5.96E-02 1.00E-04 1.15E+01 3.04E-01 1.19E+01 1.19E+01
       1.000E+03 1.54E-07 4.91E-02 8.02E-05 1.16E+01 3.09E-01 1.20E+01 1.20E+01
       1.500E+03 6.84E-08 3.43E-02 5.34E-05 1.18E+01 3.17E-01 1.21E+01 1.21E+01
       2.000E+03 3.85E-08 2.65E-02 4.01E-05 1.19E+01 3.22E-01 1.22E+01 1.22E+01
       3.000E+03 1.71E-08 1.84E-02 2.67E-05 1.19E+01 3.26E-01 1.23E+01 1.23E+01
       4.000E+03 9.61E-09 1.42E-02 2.00E-05 1.20E+01 3.29E-01 1.23E+01 1.23E+01
       5.000E+03 6.15E-09 1.16E-02 1.60E-05 1.20E+01 3.31E-01 1.24E+01 1.24E+01
       6.000E+03 4.27E-09 9.87E-03 1.33E-05 1.21E+01 3.32E-01 1.24E+01 1.24E+01
       8.000E+03 2.40E-09 7.60E-03 1.00E-05 1.21E+01 3.34E-01 1.24E+01 1.24E+01
       1.000E+04 1.54E-09 6.21E-03 8.01E-06 1.21E+01 3.35E-01 1.24E+01 1.24E+01
       1.500E+04 6.84E-10 4.29E-03 5.34E-06 1.21E+01 3.36E-01 1.25E+01 1.25E+01
       2.000E+04 3.85E-10 3.30E-03 4.00E-06 1.21E+01 3.37E-01 1.25E+01 1.25E+01
       3.000E+04 1.71E-10 2.28E-03 2.67E-06 1.22E+01 3.38E-01 1.25E+01 1.25E+01
       4.000E+04 9.61E-11 1.75E-03 2.00E-06 1.22E+01 3.38E-01 1.25E+01 1.25E+01
       5.000E+04 6.15E-11 1.42E-03 1.60E-06 1.22E+01 3.38E-01 1.25E+01 1.25E+01
       6.000E+04 4.27E-11 1.20E-03 1.33E-06 1.22E+01 3.39E-01 1.25E+01 1.25E+01
       8.000E+04 2.40E-11 9.22E-04 1.00E-06 1.22E+01 3.39E-01 1.25E+01 1.25E+01
       1.000E+05 1.54E-11 7.50E-04 8.00E-07 1.22E+01 3.39E-01 1.25E+01 1.25E+01
