Neon
 1.000E-03 6.37E+01 1.84E-01 2.48E+05 0.00E+00 0.00E+00 2.48E+05 2.48E+05 
 1.500E-03 6.04E+01 3.90E-01 8.93E+04 0.00E+00 0.00E+00 8.93E+04 8.93E+04 
 2.000E-03 5.64E+01 6.45E-01 4.16E+04 0.00E+00 0.00E+00 4.16E+04 4.16E+04 
 3.000E-03 4.74E+01 1.22E+00 1.35E+04 0.00E+00 0.00E+00 1.36E+04 1.35E+04 
 4.000E-03 3.89E+01 1.80E+00 5.94E+03 0.00E+00 0.00E+00 5.98E+03 5.94E+03 
 5.000E-03 3.16E+01 2.32E+00 3.10E+03 0.00E+00 0.00E+00 3.13E+03 3.10E+03 
 6.000E-03 2.59E+01 2.77E+00 1.80E+03 0.00E+00 0.00E+00 1.83E+03 1.81E+03 
 8.000E-03 1.81E+01 3.47E+00 7.59E+02 0.00E+00 0.00E+00 7.80E+02 7.62E+02 
 1.000E-02 1.34E+01 3.95E+00 3.84E+02 0.00E+00 0.00E+00 4.01E+02 3.88E+02 
 1.500E-02 7.46E+00 4.60E+00 1.09E+02 0.00E+00 0.00E+00 1.21E+02 1.14E+02 
 2.000E-02 4.88E+00 4.93E+00 4.40E+01 0.00E+00 0.00E+00 5.38E+01 4.89E+01 
 3.000E-02 2.59E+00 5.21E+00 1.20E+01 0.00E+00 0.00E+00 1.98E+01 1.73E+01 
 4.000E-02 1.60E+00 5.29E+00 4.75E+00 0.00E+00 0.00E+00 1.16E+01 1.00E+01 
 5.000E-02 1.08E+00 5.26E+00 2.30E+00 0.00E+00 0.00E+00 8.64E+00 7.57E+00 
 6.000E-02 7.75E-01 5.20E+00 1.27E+00 0.00E+00 0.00E+00 7.24E+00 6.47E+00 
 8.000E-02 4.56E-01 5.02E+00 4.95E-01 0.00E+00 0.00E+00 5.97E+00 5.51E+00 
 1.000E-01 3.00E-01 4.82E+00 2.39E-01 0.00E+00 0.00E+00 5.36E+00 5.06E+00 
 1.500E-01 1.38E-01 4.39E+00 6.38E-02 0.00E+00 0.00E+00 4.59E+00 4.45E+00 
 2.000E-01 7.84E-02 4.04E+00 2.54E-02 0.00E+00 0.00E+00 4.14E+00 4.06E+00 
 3.000E-01 3.52E-02 3.52E+00 7.20E-03 0.00E+00 0.00E+00 3.57E+00 3.53E+00 
 4.000E-01 1.99E-02 3.16E+00 3.10E-03 0.00E+00 0.00E+00 3.18E+00 3.16E+00 
 5.000E-01 1.27E-02 2.89E+00 1.67E-03 0.00E+00 0.00E+00 2.90E+00 2.89E+00 
 6.000E-01 8.85E-03 2.67E+00 1.04E-03 0.00E+00 0.00E+00 2.68E+00 2.67E+00 
 8.000E-01 4.99E-03 2.35E+00 5.27E-04 0.00E+00 0.00E+00 2.36E+00 2.35E+00 
 1.000E+00 3.19E-03 2.11E+00 3.28E-04 0.00E+00 0.00E+00 2.12E+00 2.11E+00 
 1.022E+00 3.06E-03 2.09E+00 3.07E-04 0.00E+00 0.00E+00 2.09E+00 2.09E+00 
 1.250E+00 2.04E-03 1.89E+00 2.09E-04 8.09E-04 0.00E+00 1.89E+00 1.89E+00 
 1.500E+00 1.42E-03 1.72E+00 1.51E-04 4.46E-03 0.00E+00 1.72E+00 1.72E+00 
 2.000E+00 7.98E-04 1.47E+00 9.48E-05 1.78E-02 0.00E+00 1.48E+00 1.48E+00 
 2.044E+00 7.64E-04 1.45E+00 9.17E-05 1.91E-02 0.00E+00 1.47E+00 1.47E+00 
 3.000E+00 3.55E-04 1.15E+00 5.27E-05 5.07E-02 4.03E-04 1.20E+00 1.20E+00 
 4.000E+00 2.00E-04 9.62E-01 3.61E-05 8.21E-02 1.65E-03 1.05E+00 1.05E+00 
 5.000E+00 1.28E-04 8.31E-01 2.73E-05 1.10E-01 3.28E-03 9.44E-01 9.44E-01 
 6.000E+00 8.87E-05 7.34E-01 2.19E-05 1.35E-01 5.04E-03 8.75E-01 8.75E-01 
 7.000E+00 6.52E-05 6.60E-01 1.83E-05 1.58E-01 6.80E-03 8.24E-01 8.24E-01 
 8.000E+00 4.99E-05 6.01E-01 1.57E-05 1.78E-01 8.50E-03 7.87E-01 7.87E-01 
 9.000E+00 3.94E-05 5.52E-01 1.37E-05 1.96E-01 1.01E-02 7.58E-01 7.58E-01 
 1.000E+01 3.19E-05 5.12E-01 1.22E-05 2.13E-01 1.17E-02 7.36E-01 7.36E-01 
 1.100E+01 2.64E-05 4.77E-01 1.10E-05 2.28E-01 1.32E-02 7.18E-01 7.18E-01 
 1.200E+01 2.22E-05 4.47E-01 9.99E-06 2.42E-01 1.46E-02 7.04E-01 7.04E-01 
 1.300E+01 1.89E-05 4.22E-01 9.15E-06 2.54E-01 1.59E-02 6.92E-01 6.92E-01 
 1.400E+01 1.63E-05 3.99E-01 8.44E-06 2.66E-01 1.71E-02 6.82E-01 6.82E-01 
 1.500E+01 1.42E-05 3.79E-01 7.84E-06 2.78E-01 1.83E-02 6.74E-01 6.74E-01 
 1.600E+01 1.25E-05 3.61E-01 7.31E-06 2.88E-01 1.95E-02 6.68E-01 6.68E-01 
 1.800E+01 9.86E-06 3.29E-01 6.45E-06 3.07E-01 2.16E-02 6.58E-01 6.58E-01 
 2.000E+01 7.98E-06 3.04E-01 5.76E-06 3.24E-01 2.36E-02 6.52E-01 6.52E-01 
 2.200E+01 6.60E-06 2.82E-01 5.21E-06 3.40E-01 2.53E-02 6.48E-01 6.48E-01 
 2.400E+01 5.55E-06 2.64E-01 4.76E-06 3.54E-01 2.70E-02 6.45E-01 6.45E-01 
 2.600E+01 4.73E-06 2.48E-01 4.37E-06 3.67E-01 2.85E-02 6.44E-01 6.44E-01 
 2.800E+01 4.07E-06 2.34E-01 4.05E-06 3.79E-01 2.99E-02 6.43E-01 6.43E-01 
 3.000E+01 3.55E-06 2.21E-01 3.77E-06 3.90E-01 3.13E-02 6.43E-01 6.43E-01 
 4.000E+01 2.00E-06 1.76E-01 2.80E-06 4.36E-01 3.69E-02 6.49E-01 6.49E-01 
 5.000E+01 1.28E-06 1.47E-01 2.22E-06 4.70E-01 4.12E-02 6.58E-01 6.58E-01 
 6.000E+01 8.87E-07 1.26E-01 1.85E-06 4.98E-01 4.48E-02 6.69E-01 6.69E-01 
 8.000E+01 4.99E-07 9.97E-02 1.38E-06 5.39E-01 5.02E-02 6.89E-01 6.89E-01 
 1.000E+02 3.19E-07 8.28E-02 1.10E-06 5.69E-01 5.43E-02 7.06E-01 7.06E-01 
 1.500E+02 1.42E-07 5.89E-02 7.30E-07 6.18E-01 6.12E-02 7.38E-01 7.38E-01 
 2.000E+02 7.98E-08 4.62E-02 5.46E-07 6.47E-01 6.57E-02 7.59E-01 7.59E-01 
 3.000E+02 3.55E-08 3.27E-02 3.63E-07 6.82E-01 7.12E-02 7.86E-01 7.86E-01 
 4.000E+02 2.00E-08 2.57E-02 2.72E-07 7.02E-01 7.46E-02 8.02E-01 8.02E-01 
 5.000E+02 1.28E-08 2.12E-02 2.18E-07 7.15E-01 7.69E-02 8.14E-01 8.14E-01 
 6.000E+02 8.87E-09 1.82E-02 1.81E-07 7.25E-01 7.86E-02 8.22E-01 8.22E-01 
 8.000E+02 4.99E-09 1.42E-02 1.36E-07 7.38E-01 8.09E-02 8.33E-01 8.33E-01 
 1.000E+03 3.19E-09 1.17E-02 1.09E-07 7.46E-01 8.25E-02 8.40E-01 8.40E-01 
 1.500E+03 1.42E-09 8.16E-03 7.24E-08 7.58E-01 8.48E-02 8.51E-01 8.51E-01 
 2.000E+03 7.98E-10 6.31E-03 5.43E-08 7.64E-01 8.61E-02 8.57E-01 8.57E-01 
 3.000E+03 3.55E-10 4.39E-03 3.62E-08 7.71E-01 8.75E-02 8.63E-01 8.63E-01 
 4.000E+03 2.00E-10 3.39E-03 2.71E-08 7.75E-01 8.83E-02 8.67E-01 8.67E-01 
 5.000E+03 1.28E-10 2.77E-03 2.17E-08 7.78E-01 8.88E-02 8.69E-01 8.69E-01 
 6.000E+03 8.87E-11 2.35E-03 1.81E-08 7.79E-01 8.92E-02 8.71E-01 8.71E-01 
 8.000E+03 4.99E-11 1.81E-03 1.36E-08 7.81E-01 8.97E-02 8.73E-01 8.73E-01 
 1.000E+04 3.19E-11 1.48E-03 1.09E-08 7.83E-01 9.00E-02 8.74E-01 8.74E-01 
 1.500E+04 1.42E-11 1.02E-03 7.24E-09 7.85E-01 9.04E-02 8.76E-01 8.76E-01 
 2.000E+04 7.98E-12 7.85E-04 5.43E-09 7.86E-01 9.06E-02 8.77E-01 8.77E-01 
 3.000E+04 3.55E-12 5.42E-04 3.62E-09 7.87E-01 9.08E-02 8.78E-01 8.78E-01 
 4.000E+04 2.00E-12 4.16E-04 2.72E-09 7.87E-01 9.10E-02 8.79E-01 8.79E-01 
 5.000E+04 1.28E-12 3.39E-04 2.17E-09 7.88E-01 9.11E-02 8.79E-01 8.79E-01 
 6.000E+04 8.87E-13 2.86E-04 1.81E-09 7.88E-01 9.11E-02 8.79E-01 8.79E-01 
 8.000E+04 4.99E-13 2.19E-04 1.36E-09 7.88E-01 9.12E-02 8.80E-01 8.80E-01 
 1.000E+05 3.19E-13 1.79E-04 1.09E-09 7.89E-01 9.12E-02 8.80E-01 8.80E-01