Nitrogen
 1.000E-03 3.00E+01 2.56E-01 7.70E+04 0.00E+00 0.00E+00 7.70E+04 7.70E+04 
 1.500E-03 2.73E+01 5.20E-01 2.52E+04 0.00E+00 0.00E+00 2.52E+04 2.52E+04 
 2.000E-03 2.43E+01 8.17E-01 1.11E+04 0.00E+00 0.00E+00 1.11E+04 1.11E+04 
 3.000E-03 1.86E+01 1.39E+00 3.37E+03 0.00E+00 0.00E+00 3.39E+03 3.37E+03 
 4.000E-03 1.42E+01 1.87E+00 1.42E+03 0.00E+00 0.00E+00 1.43E+03 1.42E+03 
 5.000E-03 1.11E+01 2.22E+00 7.18E+02 0.00E+00 0.00E+00 7.31E+02 7.20E+02 
 6.000E-03 8.93E+00 2.49E+00 4.09E+02 0.00E+00 0.00E+00 4.21E+02 4.12E+02 
 8.000E-03 6.25E+00 2.86E+00 1.67E+02 0.00E+00 0.00E+00 1.76E+02 1.70E+02 
 1.000E-02 4.72E+00 3.09E+00 8.24E+01 0.00E+00 0.00E+00 9.02E+01 8.55E+01 
 1.500E-02 2.81E+00 3.45E+00 2.25E+01 0.00E+00 0.00E+00 2.88E+01 2.59E+01 
 2.000E-02 1.87E+00 3.64E+00 8.86E+00 0.00E+00 0.00E+00 1.44E+01 1.25E+01 
 3.000E-02 9.84E-01 3.80E+00 2.35E+00 0.00E+00 0.00E+00 7.13E+00 6.15E+00 
 4.000E-02 6.01E-01 3.81E+00 9.09E-01 0.00E+00 0.00E+00 5.32E+00 4.72E+00 
 5.000E-02 4.04E-01 3.77E+00 4.34E-01 0.00E+00 0.00E+00 4.60E+00 4.20E+00 
 6.000E-02 2.90E-01 3.70E+00 2.37E-01 0.00E+00 0.00E+00 4.23E+00 3.94E+00 
 8.000E-02 1.70E-01 3.55E+00 9.11E-02 0.00E+00 0.00E+00 3.81E+00 3.64E+00 
 1.000E-01 1.11E-01 3.40E+00 4.35E-02 0.00E+00 0.00E+00 3.56E+00 3.45E+00 
 1.500E-01 5.05E-02 3.09E+00 1.14E-02 0.00E+00 0.00E+00 3.15E+00 3.10E+00 
 2.000E-01 2.86E-02 2.83E+00 4.52E-03 0.00E+00 0.00E+00 2.87E+00 2.84E+00 
 3.000E-01 1.28E-02 2.47E+00 1.27E-03 0.00E+00 0.00E+00 2.48E+00 2.47E+00 
 4.000E-01 7.22E-03 2.21E+00 5.43E-04 0.00E+00 0.00E+00 2.22E+00 2.22E+00 
 5.000E-01 4.63E-03 2.02E+00 2.92E-04 0.00E+00 0.00E+00 2.03E+00 2.02E+00 
 6.000E-01 3.22E-03 1.87E+00 1.82E-04 0.00E+00 0.00E+00 1.88E+00 1.87E+00 
 8.000E-01 1.81E-03 1.64E+00 9.18E-05 0.00E+00 0.00E+00 1.65E+00 1.65E+00 
 1.000E+00 1.16E-03 1.48E+00 5.70E-05 0.00E+00 0.00E+00 1.48E+00 1.48E+00 
 1.022E+00 1.11E-03 1.46E+00 5.29E-05 0.00E+00 0.00E+00 1.47E+00 1.46E+00 
 1.250E+00 7.41E-04 1.32E+00 3.59E-05 3.93E-04 0.00E+00 1.32E+00 1.32E+00 
 1.500E+00 5.15E-04 1.20E+00 2.61E-05 2.18E-03 0.00E+00 1.20E+00 1.20E+00 
 2.000E+00 2.90E-04 1.03E+00 1.64E-05 8.67E-03 0.00E+00 1.03E+00 1.03E+00 
 2.044E+00 2.77E-04 1.01E+00 1.59E-05 9.34E-03 0.00E+00 1.02E+00 1.02E+00 
 3.000E+00 1.29E-04 8.07E-01 9.20E-06 2.48E-02 2.82E-04 8.33E-01 8.32E-01 
 4.000E+00 7.24E-05 6.73E-01 6.32E-06 4.02E-02 1.15E-03 7.15E-01 7.15E-01 
 5.000E+00 4.64E-05 5.81E-01 4.80E-06 5.40E-02 2.30E-03 6.38E-01 6.38E-01 
 6.000E+00 3.22E-05 5.14E-01 3.86E-06 6.64E-02 3.53E-03 5.84E-01 5.84E-01 
 7.000E+00 2.37E-05 4.62E-01 3.23E-06 7.74E-02 4.76E-03 5.44E-01 5.44E-01 
 8.000E+00 1.81E-05 4.21E-01 2.77E-06 8.73E-02 5.95E-03 5.14E-01 5.14E-01 
 9.000E+00 1.43E-05 3.87E-01 2.43E-06 9.63E-02 7.10E-03 4.90E-01 4.90E-01 
 1.000E+01 1.16E-05 3.58E-01 2.16E-06 1.05E-01 8.19E-03 4.71E-01 4.71E-01 
 1.100E+01 9.58E-06 3.34E-01 1.94E-06 1.12E-01 9.22E-03 4.55E-01 4.55E-01 
 1.200E+01 8.05E-06 3.13E-01 1.77E-06 1.19E-01 1.02E-02 4.42E-01 4.42E-01 
 1.300E+01 6.86E-06 2.95E-01 1.62E-06 1.25E-01 1.11E-02 4.31E-01 4.31E-01 
 1.400E+01 5.91E-06 2.79E-01 1.49E-06 1.31E-01 1.20E-02 4.22E-01 4.22E-01 
 1.500E+01 5.15E-06 2.65E-01 1.39E-06 1.37E-01 1.28E-02 4.15E-01 4.15E-01 
 1.600E+01 4.53E-06 2.52E-01 1.29E-06 1.42E-01 1.37E-02 4.08E-01 4.08E-01 
 1.800E+01 3.58E-06 2.31E-01 1.14E-06 1.51E-01 1.51E-02 3.97E-01 3.97E-01 
 2.000E+01 2.90E-06 2.13E-01 1.02E-06 1.60E-01 1.65E-02 3.89E-01 3.89E-01 
 2.200E+01 2.39E-06 1.98E-01 9.24E-07 1.68E-01 1.78E-02 3.83E-01 3.83E-01 
 2.400E+01 2.01E-06 1.85E-01 8.44E-07 1.75E-01 1.89E-02 3.78E-01 3.78E-01 
 2.600E+01 1.71E-06 1.73E-01 7.76E-07 1.81E-01 2.00E-02 3.75E-01 3.75E-01 
 2.800E+01 1.48E-06 1.64E-01 7.18E-07 1.87E-01 2.10E-02 3.72E-01 3.72E-01 
 3.000E+01 1.29E-06 1.55E-01 6.69E-07 1.93E-01 2.20E-02 3.69E-01 3.69E-01 
 4.000E+01 7.24E-07 1.23E-01 4.97E-07 2.15E-01 2.59E-02 3.64E-01 3.64E-01 
 5.000E+01 4.63E-07 1.03E-01 3.95E-07 2.33E-01 2.90E-02 3.64E-01 3.64E-01 
 6.000E+01 3.22E-07 8.85E-02 3.28E-07 2.46E-01 3.15E-02 3.66E-01 3.66E-01 
 8.000E+01 1.81E-07 6.98E-02 2.45E-07 2.67E-01 3.54E-02 3.72E-01 3.72E-01 
 1.000E+02 1.16E-07 5.79E-02 1.95E-07 2.82E-01 3.83E-02 3.78E-01 3.78E-01 
 1.500E+02 5.15E-08 4.13E-02 1.30E-07 3.07E-01 4.34E-02 3.92E-01 3.92E-01 
 2.000E+02 2.90E-08 3.23E-02 9.72E-08 3.23E-01 4.68E-02 4.02E-01 4.02E-01 
 3.000E+02 1.29E-08 2.29E-02 6.47E-08 3.42E-01 5.10E-02 4.16E-01 4.16E-01 
 4.000E+02 7.24E-09 1.80E-02 4.84E-08 3.53E-01 5.37E-02 4.25E-01 4.25E-01 
 5.000E+02 4.63E-09 1.49E-02 3.87E-08 3.61E-01 5.55E-02 4.31E-01 4.31E-01 
 6.000E+02 3.22E-09 1.27E-02 3.23E-08 3.66E-01 5.69E-02 4.36E-01 4.36E-01 
 8.000E+02 1.81E-09 9.94E-03 2.42E-08 3.73E-01 5.88E-02 4.42E-01 4.42E-01 
 1.000E+03 1.16E-09 8.18E-03 1.93E-08 3.78E-01 6.01E-02 4.46E-01 4.46E-01 
 1.500E+03 5.15E-10 5.71E-03 1.29E-08 3.85E-01 6.21E-02 4.53E-01 4.53E-01 
 2.000E+03 2.90E-10 4.42E-03 9.67E-09 3.89E-01 6.32E-02 4.56E-01 4.56E-01 
 3.000E+03 1.29E-10 3.07E-03 6.44E-09 3.93E-01 6.44E-02 4.60E-01 4.60E-01 
 4.000E+03 7.24E-11 2.37E-03 4.83E-09 3.95E-01 6.52E-02 4.63E-01 4.63E-01 
 5.000E+03 4.63E-11 1.94E-03 3.86E-09 3.96E-01 6.56E-02 4.64E-01 4.64E-01 
 6.000E+03 3.22E-11 1.64E-03 3.22E-09 3.98E-01 6.59E-02 4.65E-01 4.65E-01 
 8.000E+03 1.81E-11 1.27E-03 2.41E-09 3.99E-01 6.63E-02 4.66E-01 4.66E-01 
 1.000E+04 1.16E-11 1.03E-03 1.93E-09 4.00E-01 6.66E-02 4.67E-01 4.67E-01 
 1.500E+04 5.15E-12 7.15E-04 1.29E-09 4.01E-01 6.69E-02 4.68E-01 4.68E-01 
 2.000E+04 2.90E-12 5.50E-04 9.66E-10 4.01E-01 6.71E-02 4.69E-01 4.69E-01 
 3.000E+04 1.29E-12 3.79E-04 6.44E-10 4.02E-01 6.74E-02 4.70E-01 4.70E-01 
 4.000E+04 7.24E-13 2.91E-04 4.83E-10 4.02E-01 6.75E-02 4.70E-01 4.70E-01 
 5.000E+04 4.63E-13 2.37E-04 3.86E-10 4.03E-01 6.76E-02 4.70E-01 4.70E-01 
 6.000E+04 3.22E-13 2.00E-04 3.22E-10 4.03E-01 6.76E-02 4.71E-01 4.71E-01 
 8.000E+04 1.81E-13 1.54E-04 2.41E-10 4.03E-01 6.77E-02 4.71E-01 4.71E-01 
 1.000E+05 1.16E-13 1.25E-04 1.93E-10 4.03E-01 6.77E-02 4.71E-01 4.71E-01