Oxygen
1.000E-02 1.937E+01 4.267E-03 1.937E+01 2.950E-04 1.207E-04 0.000E+00 
1.250E-02 1.632E+01 4.298E-03 1.633E+01 4.362E-04 1.449E-04 0.000E+00 
1.500E-02 1.419E+01 4.316E-03 1.419E+01 6.009E-04 1.681E-04 0.000E+00 
1.750E-02 1.260E+01 4.328E-03 1.261E+01 7.882E-04 1.903E-04 0.000E+00 
2.000E-02 1.138E+01 4.336E-03 1.138E+01 9.973E-04 2.118E-04 0.000E+00 
2.500E-02 9.595E+00 4.347E-03 9.600E+00 1.478E-03 2.529E-04 0.000E+00 
3.000E-02 8.359E+00 4.356E-03 8.363E+00 2.037E-03 2.919E-04 0.000E+00 
3.500E-02 7.447E+00 4.365E-03 7.452E+00 2.672E-03 3.293E-04 0.000E+00 
4.000E-02 6.746E+00 4.376E-03 6.750E+00 3.378E-03 3.653E-04 0.000E+00 
4.500E-02 6.189E+00 4.388E-03 6.193E+00 4.153E-03 4.001E-04 0.000E+00 
5.000E-02 5.735E+00 4.402E-03 5.739E+00 4.992E-03 4.339E-04 0.000E+00 
5.500E-02 5.358E+00 4.417E-03 5.362E+00 5.894E-03 4.668E-04 0.000E+00 
6.000E-02 5.039E+00 4.434E-03 5.044E+00 6.856E-03 4.988E-04 0.000E+00 
7.000E-02 4.530E+00 4.471E-03 4.535E+00 8.951E-03 5.608E-04 0.000E+00 
8.000E-02 4.142E+00 4.512E-03 4.146E+00 1.126E-02 6.204E-04 0.000E+00 
9.000E-02 3.835E+00 4.558E-03 3.839E+00 1.377E-02 6.779E-04 0.000E+00 
1.000E-01 3.586E+00 4.607E-03 3.591E+00 1.647E-02 7.337E-04 0.000E+00 
1.250E-01 3.133E+00 4.741E-03 3.137E+00 2.394E-02 8.666E-04 0.000E+00 
1.500E-01 2.826E+00 4.889E-03 2.831E+00 3.235E-02 9.922E-04 0.000E+00 
1.750E-01 2.606E+00 5.048E-03 2.611E+00 4.157E-02 1.112E-03 0.000E+00 
2.000E-01 2.441E+00 5.215E-03 2.446E+00 5.147E-02 1.227E-03 0.000E+00 
2.500E-01 2.211E+00 5.578E-03 2.217E+00 7.302E-02 1.447E-03 0.000E+00 
3.000E-01 2.061E+00 5.975E-03 2.067E+00 9.642E-02 1.656E-03 0.000E+00 
3.500E-01 1.957E+00 6.402E-03 1.963E+00 1.213E-01 1.859E-03 0.000E+00 
4.000E-01 1.882E+00 6.856E-03 1.889E+00 1.473E-01 2.057E-03 0.000E+00 
4.500E-01 1.826E+00 7.335E-03 1.833E+00 1.742E-01 2.253E-03 0.000E+00 
5.000E-01 1.784E+00 7.838E-03 1.791E+00 2.018E-01 2.446E-03 0.000E+00 
5.500E-01 1.751E+00 8.362E-03 1.759E+00 2.299E-01 2.639E-03 0.000E+00 
6.000E-01 1.725E+00 8.904E-03 1.734E+00 2.586E-01 2.831E-03 0.000E+00 
7.000E-01 1.690E+00 1.004E-02 1.700E+00 3.169E-01 3.215E-03 0.000E+00 
8.000E-01 1.667E+00 1.122E-02 1.679E+00 3.761E-01 3.600E-03 0.000E+00 
9.000E-01 1.654E+00 1.247E-02 1.666E+00 4.359E-01 3.987E-03 0.000E+00 
1.000E+00 1.646E+00 1.376E-02 1.659E+00 4.961E-01 4.377E-03 0.000E+00 
1.250E+00 1.641E+00 1.718E-02 1.658E+00 6.469E-01 5.366E-03 0.000E+00 
1.500E+00 1.647E+00 2.084E-02 1.667E+00 7.973E-01 6.376E-03 0.000E+00 
1.750E+00 1.658E+00 2.468E-02 1.682E+00 9.466E-01 7.405E-03 0.000E+00 
2.000E+00 1.671E+00 2.869E-02 1.699E+00 1.094E+00 8.452E-03 0.000E+00 
2.500E+00 1.699E+00 3.711E-02 1.736E+00 1.386E+00 1.059E-02 0.000E+00 
3.000E+00 1.727E+00 4.598E-02 1.773E+00 1.671E+00 1.276E-02 0.000E+00 
3.500E+00 1.753E+00 5.519E-02 1.808E+00 1.950E+00 1.497E-02 0.000E+00 
4.000E+00 1.777E+00 6.471E-02 1.842E+00 2.224E+00 1.721E-02 0.000E+00 
4.500E+00 1.799E+00 7.448E-02 1.874E+00 2.493E+00 1.945E-02 0.000E+00 
5.000E+00 1.820E+00 8.449E-02 1.905E+00 2.758E+00 2.171E-02 0.000E+00 
5.500E+00 1.839E+00 9.470E-02 1.934E+00 3.018E+00 2.398E-02 0.000E+00 
6.000E+00 1.857E+00 1.051E-01 1.962E+00 3.275E+00 2.626E-02 0.000E+00 
7.000E+00 1.889E+00 1.264E-01 2.016E+00 3.777E+00 3.081E-02 0.000E+00 
8.000E+00 1.918E+00 1.482E-01 2.066E+00 4.267E+00 3.536E-02 0.000E+00 
9.000E+00 1.944E+00 1.705E-01 2.114E+00 4.746E+00 3.990E-02 0.000E+00 
1.000E+01 1.967E+00 1.932E-01 2.160E+00 5.214E+00 4.441E-02 0.000E+00 
1.250E+01 2.016E+00 2.514E-01 2.267E+00 6.343E+00 5.558E-02 0.000E+00 
1.500E+01 2.057E+00 3.112E-01 2.368E+00 7.421E+00 6.652E-02 0.000E+00 
1.750E+01 2.092E+00 3.723E-01 2.464E+00 8.456E+00 7.720E-02 0.000E+00 
2.000E+01 2.122E+00 4.343E-01 2.556E+00 9.452E+00 8.762E-02 0.000E+00 
2.500E+01 2.173E+00 5.606E-01 2.733E+00 1.134E+01 1.076E-01 0.000E+00 
3.000E+01 2.214E+00 6.890E-01 2.903E+00 1.312E+01 1.266E-01 2.990E-03 
3.500E+01 2.246E+00 8.189E-01 3.065E+00 1.479E+01 1.446E-01 4.426E-02 
4.000E+01 2.272E+00 9.502E-01 3.222E+00 1.638E+01 1.617E-01 1.129E-01 
4.500E+01 2.292E+00 1.083E+00 3.375E+00 1.790E+01 1.779E-01 1.940E-01 
5.000E+01 2.310E+00 1.216E+00 3.526E+00 1.935E+01 1.934E-01 2.804E-01 
5.500E+01 2.325E+00 1.350E+00 3.675E+00 2.074E+01 2.082E-01 3.682E-01 
6.000E+01 2.338E+00 1.484E+00 3.823E+00 2.207E+01 2.224E-01 4.554E-01 
7.000E+01 2.361E+00 1.755E+00 4.116E+00 2.459E+01 2.488E-01 6.239E-01 
8.000E+01 2.379E+00 2.028E+00 4.407E+00 2.694E+01 2.732E-01 7.819E-01 
9.000E+01 2.395E+00 2.302E+00 4.697E+00 2.914E+01 2.957E-01 9.288E-01 
1.000E+02 2.409E+00 2.577E+00 4.986E+00 3.120E+01 3.165E-01 1.065E+00 
1.250E+02 2.437E+00 3.270E+00 5.707E+00 3.589E+01 3.624E-01 1.366E+00 
1.500E+02 2.460E+00 3.967E+00 6.427E+00 4.001E+01 4.013E-01 1.622E+00 
1.750E+02 2.478E+00 4.668E+00 7.146E+00 4.370E+01 4.348E-01 1.843E+00 
2.000E+02 2.494E+00 5.371E+00 7.865E+00 4.703E+01 4.640E-01 2.038E+00 
2.500E+02 2.520E+00 6.784E+00 9.303E+00 5.287E+01 5.127E-01 2.369E+00 
3.000E+02 2.541E+00 8.202E+00 1.074E+01 5.787E+01 5.517E-01 2.644E+00 
3.500E+02 2.558E+00 9.625E+00 1.218E+01 6.223E+01 5.840E-01 2.879E+00 
4.000E+02 2.573E+00 1.105E+01 1.362E+01 6.611E+01 6.111E-01 3.086E+00 
4.500E+02 2.586E+00 1.248E+01 1.507E+01 6.960E+01 6.343E-01 3.271E+00 
5.000E+02 2.597E+00 1.391E+01 1.651E+01 7.277E+01 6.544E-01 3.438E+00 
5.500E+02 2.608E+00 1.534E+01 1.795E+01 7.568E+01 6.721E-01 3.592E+00 
6.000E+02 2.617E+00 1.678E+01 1.939E+01 7.835E+01 6.878E-01 3.733E+00 
7.000E+02 2.633E+00 1.965E+01 2.228E+01 8.316E+01 7.144E-01 3.989E+00 
8.000E+02 2.646E+00 2.252E+01 2.517E+01 8.738E+01 7.361E-01 4.215E+00 
9.000E+02 2.657E+00 2.540E+01 2.805E+01 9.114E+01 7.544E-01 4.418E+00 
1.000E+03 2.668E+00 2.827E+01 3.094E+01 9.454E+01 7.699E-01 4.603E+00