Radium
 1.000E-03 4.89E+03 1.80E+00 2.32E+06 0.00E+00 0.00E+00 2.33E+06 2.32E+06 
 1.028E-03 4.88E+03 1.86E+00 2.21E+06 0.00E+00 0.00E+00 2.21E+06 2.21E+06 
 1.058E-03 4.86E+03 1.93E+00 2.10E+06 0.00E+00 0.00E+00 2.10E+06 2.10E+06 
 1.058E-03 4.86E+03 1.93E+00 2.13E+06 0.00E+00 0.00E+00 2.13E+06 2.13E+06 
 1.130E-03 4.83E+03 2.09E+00 1.88E+06 0.00E+00 0.00E+00 1.88E+06 1.88E+06 
 1.208E-03 4.80E+03 2.26E+00 1.66E+06 0.00E+00 0.00E+00 1.66E+06 1.66E+06 
 1.208E-03 4.80E+03 2.26E+00 1.69E+06 0.00E+00 0.00E+00 1.70E+06 1.69E+06 
 1.500E-03 4.66E+03 2.89E+00 1.10E+06 0.00E+00 0.00E+00 1.11E+06 1.10E+06 
 2.000E-03 4.43E+03 3.99E+00 6.04E+05 0.00E+00 0.00E+00 6.08E+05 6.04E+05 
 3.000E-03 3.98E+03 6.12E+00 2.46E+05 0.00E+00 0.00E+00 2.50E+05 2.46E+05 
 3.105E-03 3.93E+03 6.34E+00 2.28E+05 0.00E+00 0.00E+00 2.32E+05 2.28E+05 
 3.105E-03 3.93E+03 6.34E+00 6.40E+05 0.00E+00 0.00E+00 6.43E+05 6.40E+05 
 3.176E-03 3.90E+03 6.49E+00 5.72E+05 0.00E+00 0.00E+00 5.76E+05 5.72E+05 
 3.248E-03 3.87E+03 6.64E+00 5.12E+05 0.00E+00 0.00E+00 5.16E+05 5.12E+05 
 3.248E-03 3.87E+03 6.64E+00 7.61E+05 0.00E+00 0.00E+00 7.65E+05 7.61E+05 
 3.510E-03 3.76E+03 7.17E+00 6.17E+05 0.00E+00 0.00E+00 6.21E+05 6.17E+05 
 3.792E-03 3.64E+03 7.72E+00 5.00E+05 0.00E+00 0.00E+00 5.04E+05 5.00E+05 
 3.792E-03 3.64E+03 7.72E+00 5.81E+05 0.00E+00 0.00E+00 5.85E+05 5.81E+05 
 4.000E-03 3.56E+03 8.12E+00 5.09E+05 0.00E+00 0.00E+00 5.13E+05 5.09E+05 
 4.490E-03 3.38E+03 9.01E+00 3.81E+05 0.00E+00 0.00E+00 3.84E+05 3.81E+05 
 4.490E-03 3.38E+03 9.01E+00 4.04E+05 0.00E+00 0.00E+00 4.08E+05 4.04E+05 
 4.653E-03 3.32E+03 9.30E+00 3.70E+05 0.00E+00 0.00E+00 3.74E+05 3.70E+05 
 4.822E-03 3.26E+03 9.59E+00 3.39E+05 0.00E+00 0.00E+00 3.43E+05 3.39E+05 
 4.822E-03 3.26E+03 9.59E+00 3.54E+05 0.00E+00 0.00E+00 3.57E+05 3.54E+05 
 5.000E-03 3.20E+03 9.89E+00 3.25E+05 0.00E+00 0.00E+00 3.28E+05 3.25E+05 
 6.000E-03 2.88E+03 1.15E+01 2.08E+05 0.00E+00 0.00E+00 2.11E+05 2.08E+05 
 8.000E-03 2.37E+03 1.43E+01 1.02E+05 0.00E+00 0.00E+00 1.04E+05 1.02E+05 
 1.000E-02 1.98E+03 1.68E+01 5.76E+04 0.00E+00 0.00E+00 5.96E+04 5.77E+04 
 1.500E-02 1.34E+03 2.18E+01 2.03E+04 0.00E+00 0.00E+00 2.16E+04 2.03E+04 
 1.544E-02 1.29E+03 2.21E+01 1.88E+04 0.00E+00 0.00E+00 2.01E+04 1.88E+04 
 1.544E-02 1.29E+03 2.21E+01 4.57E+04 0.00E+00 0.00E+00 4.70E+04 4.57E+04 
 1.690E-02 1.17E+03 2.32E+01 3.58E+04 0.00E+00 0.00E+00 3.70E+04 3.58E+04 
 1.848E-02 1.05E+03 2.43E+01 2.81E+04 0.00E+00 0.00E+00 2.91E+04 2.81E+04 
 1.848E-02 1.05E+03 2.43E+01 3.95E+04 0.00E+00 0.00E+00 4.06E+04 3.95E+04 
 1.886E-02 1.03E+03 2.45E+01 3.76E+04 0.00E+00 0.00E+00 3.86E+04 3.76E+04 
 1.924E-02 1.00E+03 2.48E+01 3.58E+04 0.00E+00 0.00E+00 3.68E+04 3.58E+04 
 1.924E-02 1.00E+03 2.48E+01 4.13E+04 0.00E+00 0.00E+00 4.23E+04 4.13E+04 
 2.000E-02 9.55E+02 2.52E+01 3.74E+04 0.00E+00 0.00E+00 3.84E+04 3.74E+04 
 3.000E-02 5.62E+02 2.99E+01 1.32E+04 0.00E+00 0.00E+00 1.38E+04 1.32E+04 
 4.000E-02 3.77E+02 3.28E+01 6.16E+03 0.00E+00 0.00E+00 6.57E+03 6.19E+03 
 5.000E-02 2.71E+02 3.45E+01 3.39E+03 0.00E+00 0.00E+00 3.70E+03 3.43E+03 
 6.000E-02 2.03E+02 3.55E+01 2.08E+03 0.00E+00 0.00E+00 2.31E+03 2.11E+03 
 8.000E-02 1.28E+02 3.62E+01 9.51E+02 0.00E+00 0.00E+00 1.12E+03 9.88E+02 
 1.000E-01 8.84E+01 3.62E+01 5.18E+02 0.00E+00 0.00E+00 6.42E+02 5.54E+02 
 1.039E-01 8.29E+01 3.61E+01 4.66E+02 0.00E+00 0.00E+00 5.86E+02 5.03E+02 
 1.039E-01 8.29E+01 3.61E+01 2.07E+03 0.00E+00 0.00E+00 2.19E+03 2.10E+03 
 1.500E-01 4.40E+01 3.48E+01 8.05E+02 0.00E+00 0.00E+00 8.84E+02 8.40E+02 
 2.000E-01 2.63E+01 3.29E+01 3.80E+02 0.00E+00 0.00E+00 4.40E+02 4.13E+02 
 3.000E-01 1.26E+01 2.96E+01 1.34E+02 0.00E+00 0.00E+00 1.76E+02 1.64E+02 
 4.000E-01 7.39E+00 2.69E+01 6.56E+01 0.00E+00 0.00E+00 9.99E+01 9.25E+01 
 5.000E-01 4.85E+00 2.48E+01 3.85E+01 0.00E+00 0.00E+00 6.82E+01 6.34E+01 
 6.000E-01 3.43E+00 2.31E+01 2.54E+01 0.00E+00 0.00E+00 5.19E+01 4.85E+01 
 8.000E-01 1.97E+00 2.04E+01 1.36E+01 0.00E+00 0.00E+00 3.59E+01 3.40E+01 
 1.000E+00 1.28E+00 1.84E+01 8.57E+00 0.00E+00 0.00E+00 2.83E+01 2.70E+01 
 1.022E+00 1.22E+00 1.82E+01 8.21E+00 0.00E+00 0.00E+00 2.77E+01 2.64E+01 
 1.250E+00 8.25E-01 1.65E+01 5.55E+00 1.57E-01 0.00E+00 2.30E+01 2.22E+01 
 1.500E+00 5.77E-01 1.50E+01 3.94E+00 7.64E-01 0.00E+00 2.03E+01 1.97E+01 
 2.000E+00 3.27E-01 1.29E+01 2.38E+00 2.26E+00 0.00E+00 1.78E+01 1.75E+01 
 2.044E+00 3.13E-01 1.27E+01 2.30E+00 2.39E+00 0.00E+00 1.77E+01 1.74E+01 
 3.000E+00 1.46E-01 1.01E+01 1.24E+00 4.80E+00 3.54E-03 1.63E+01 1.62E+01 
 4.000E+00 8.24E-02 8.45E+00 8.12E-01 6.79E+00 1.44E-02 1.62E+01 1.61E+01 
 5.000E+00 5.28E-02 7.30E+00 5.95E-01 8.45E+00 2.87E-02 1.64E+01 1.64E+01 
 6.000E+00 3.67E-02 6.46E+00 4.65E-01 9.89E+00 4.39E-02 1.69E+01 1.69E+01 
 7.000E+00 2.70E-02 5.80E+00 3.81E-01 1.11E+01 5.91E-02 1.74E+01 1.74E+01 
 8.000E+00 2.06E-02 5.28E+00 3.21E-01 1.23E+01 7.38E-02 1.80E+01 1.80E+01 
 9.000E+00 1.63E-02 4.86E+00 2.78E-01 1.33E+01 8.78E-02 1.86E+01 1.86E+01 
 1.000E+01 1.32E-02 4.50E+00 2.44E-01 1.43E+01 1.01E-01 1.91E+01 1.91E+01 
 1.100E+01 1.09E-02 4.20E+00 2.18E-01 1.52E+01 1.13E-01 1.97E+01 1.97E+01 
 1.200E+01 9.18E-03 3.94E+00 1.96E-01 1.60E+01 1.25E-01 2.03E+01 2.03E+01 
 1.300E+01 7.83E-03 3.71E+00 1.78E-01 1.68E+01 1.36E-01 2.08E+01 2.08E+01 
 1.400E+01 6.75E-03 3.51E+00 1.64E-01 1.75E+01 1.47E-01 2.13E+01 2.13E+01 
 1.500E+01 5.88E-03 3.33E+00 1.51E-01 1.82E+01 1.57E-01 2.18E+01 2.18E+01 
 1.600E+01 5.17E-03 3.17E+00 1.40E-01 1.88E+01 1.66E-01 2.23E+01 2.23E+01 
 1.800E+01 4.08E-03 2.90E+00 1.23E-01 2.00E+01 1.84E-01 2.32E+01 2.32E+01 
 2.000E+01 3.31E-03 2.67E+00 1.09E-01 2.10E+01 1.99E-01 2.40E+01 2.40E+01 
 2.200E+01 2.73E-03 2.48E+00 9.81E-02 2.19E+01 2.14E-01 2.47E+01 2.47E+01 
 2.400E+01 2.30E-03 2.32E+00 8.91E-02 2.28E+01 2.27E-01 2.54E+01 2.54E+01 
 2.600E+01 1.96E-03 2.18E+00 8.17E-02 2.35E+01 2.39E-01 2.60E+01 2.60E+01 
 2.800E+01 1.69E-03 2.06E+00 7.53E-02 2.42E+01 2.50E-01 2.66E+01 2.66E+01 
 3.000E+01 1.47E-03 1.95E+00 6.99E-02 2.49E+01 2.61E-01 2.72E+01 2.72E+01 
 4.000E+01 8.27E-04 1.55E+00 5.14E-02 2.75E+01 3.03E-01 2.95E+01 2.95E+01 
 5.000E+01 5.29E-04 1.29E+00 4.06E-02 2.95E+01 3.35E-01 3.12E+01 3.12E+01 
 6.000E+01 3.68E-04 1.11E+00 3.36E-02 3.11E+01 3.60E-01 3.26E+01 3.26E+01 
 8.000E+01 2.07E-04 8.77E-01 2.49E-02 3.33E+01 3.98E-01 3.46E+01 3.46E+01 
 1.000E+02 1.32E-04 7.28E-01 1.98E-02 3.49E+01 4.25E-01 3.61E+01 3.61E+01 
 1.500E+02 5.88E-05 5.19E-01 1.31E-02 3.74E+01 4.69E-01 3.84E+01 3.84E+01 
 2.000E+02 3.31E-05 4.07E-01 9.77E-03 3.89E+01 4.97E-01 3.98E+01 3.98E+01 
 3.000E+02 1.47E-05 2.88E-01 6.48E-03 4.06E+01 5.30E-01 4.15E+01 4.15E+01 
 4.000E+02 8.27E-06 2.26E-01 4.85E-03 4.16E+01 5.50E-01 4.24E+01 4.24E+01 
 5.000E+02 5.29E-06 1.87E-01 3.88E-03 4.23E+01 5.63E-01 4.30E+01 4.30E+01 
 6.000E+02 3.68E-06 1.60E-01 3.23E-03 4.28E+01 5.73E-01 4.35E+01 4.35E+01 
 8.000E+02 2.07E-06 1.25E-01 2.42E-03 4.34E+01 5.87E-01 4.41E+01 4.41E+01 
 1.000E+03 1.32E-06 1.03E-01 1.93E-03 4.38E+01 5.96E-01 4.45E+01 4.45E+01 
 1.500E+03 5.88E-07 7.18E-02 1.29E-03 4.44E+01 6.10E-01 4.50E+01 4.50E+01 
 2.000E+03 3.31E-07 5.56E-02 9.66E-04 4.47E+01 6.17E-01 4.54E+01 4.54E+01 
 3.000E+03 1.47E-07 3.86E-02 6.44E-04 4.50E+01 6.26E-01 4.57E+01 4.57E+01 
 4.000E+03 8.27E-08 2.98E-02 4.83E-04 4.52E+01 6.31E-01 4.59E+01 4.59E+01 
 5.000E+03 5.29E-08 2.44E-02 3.86E-04 4.53E+01 6.34E-01 4.60E+01 4.60E+01 
 6.000E+03 3.67E-08 2.07E-02 3.22E-04 4.54E+01 6.36E-01 4.61E+01 4.61E+01 
 8.000E+03 2.07E-08 1.59E-02 2.41E-04 4.55E+01 6.39E-01 4.62E+01 4.62E+01 
 1.000E+04 1.32E-08 1.30E-02 1.93E-04 4.56E+01 6.40E-01 4.62E+01 4.62E+01 
 1.500E+04 5.88E-09 8.99E-03 1.29E-04 4.57E+01 6.43E-01 4.63E+01 4.63E+01 
 2.000E+04 3.31E-09 6.91E-03 9.64E-05 4.57E+01 6.44E-01 4.64E+01 4.64E+01 
 3.000E+04 1.47E-09 4.77E-03 6.43E-05 4.58E+01 6.46E-01 4.64E+01 4.64E+01 
 4.000E+04 8.27E-10 3.66E-03 4.82E-05 4.58E+01 6.46E-01 4.65E+01 4.65E+01 
 5.000E+04 5.29E-10 2.98E-03 3.86E-05 4.58E+01 6.47E-01 4.65E+01 4.65E+01 
 6.000E+04 3.68E-10 2.52E-03 3.22E-05 4.58E+01 6.47E-01 4.65E+01 4.65E+01 
 8.000E+04 2.07E-10 1.93E-03 2.41E-05 4.58E+01 6.48E-01 4.65E+01 4.65E+01 
 1.000E+05 1.32E-10 1.57E-03 1.93E-05 4.58E+01 6.48E-01 4.65E+01 4.65E+01