Xenon
 1.000E-03 1.84E+03 9.63E-01 2.05E+06 0.00E+00 0.00E+00 2.05E+06 2.05E+06 
 1.072E-03 1.83E+03 1.08E+00 1.77E+06 0.00E+00 0.00E+00 1.77E+06 1.77E+06 
 1.149E-03 1.82E+03 1.22E+00 1.53E+06 0.00E+00 0.00E+00 1.53E+06 1.53E+06 
 1.149E-03 1.82E+03 1.22E+00 1.60E+06 0.00E+00 0.00E+00 1.60E+06 1.60E+06 
 1.500E-03 1.74E+03 1.86E+00 8.89E+05 0.00E+00 0.00E+00 8.91E+05 8.89E+05 
 2.000E-03 1.63E+03 2.80E+00 4.54E+05 0.00E+00 0.00E+00 4.55E+05 4.54E+05 
 3.000E-03 1.41E+03 4.63E+00 1.68E+05 0.00E+00 0.00E+00 1.70E+05 1.68E+05 
 4.000E-03 1.23E+03 6.26E+00 8.13E+04 0.00E+00 0.00E+00 8.26E+04 8.13E+04 
 4.782E-03 1.11E+03 7.38E+00 5.14E+04 0.00E+00 0.00E+00 5.25E+04 5.14E+04 
 4.782E-03 1.11E+03 7.38E+00 1.50E+05 0.00E+00 0.00E+00 1.51E+05 1.50E+05 
 5.000E-03 1.08E+03 7.66E+00 1.38E+05 0.00E+00 0.00E+00 1.39E+05 1.38E+05 
 5.104E-03 1.06E+03 7.80E+00 1.31E+05 0.00E+00 0.00E+00 1.32E+05 1.31E+05 
 5.104E-03 1.06E+03 7.80E+00 1.77E+05 0.00E+00 0.00E+00 1.78E+05 1.77E+05 
 5.275E-03 1.04E+03 8.02E+00 1.64E+05 0.00E+00 0.00E+00 1.65E+05 1.64E+05 
 5.453E-03 1.02E+03 8.23E+00 1.51E+05 0.00E+00 0.00E+00 1.52E+05 1.51E+05 
 5.453E-03 1.02E+03 8.23E+00 1.75E+05 0.00E+00 0.00E+00 1.76E+05 1.75E+05 
 6.000E-03 9.52E+02 8.88E+00 1.38E+05 0.00E+00 0.00E+00 1.39E+05 1.38E+05 
 8.000E-03 7.55E+02 1.10E+01 6.54E+04 0.00E+00 0.00E+00 6.61E+04 6.54E+04 
 1.000E-02 6.14E+02 1.28E+01 3.62E+04 0.00E+00 0.00E+00 3.69E+04 3.62E+04 
 1.500E-02 4.04E+02 1.62E+01 1.21E+04 0.00E+00 0.00E+00 1.25E+04 1.21E+04 
 2.000E-02 2.88E+02 1.85E+01 5.47E+03 0.00E+00 0.00E+00 5.78E+03 5.49E+03 
 3.000E-02 1.64E+02 2.12E+01 1.76E+03 0.00E+00 0.00E+00 1.95E+03 1.78E+03 
 3.456E-02 1.33E+02 2.20E+01 1.18E+03 0.00E+00 0.00E+00 1.34E+03 1.20E+03 
 3.456E-02 1.33E+02 2.20E+01 7.07E+03 0.00E+00 0.00E+00 7.23E+03 7.09E+03 
 4.000E-02 1.07E+02 2.26E+01 4.82E+03 0.00E+00 0.00E+00 4.95E+03 4.84E+03 
 5.000E-02 7.61E+01 2.34E+01 2.68E+03 0.00E+00 0.00E+00 2.77E+03 2.70E+03 
 6.000E-02 5.69E+01 2.38E+01 1.62E+03 0.00E+00 0.00E+00 1.71E+03 1.65E+03 
 8.000E-02 3.50E+01 2.39E+01 7.33E+02 0.00E+00 0.00E+00 7.92E+02 7.57E+02 
 1.000E-01 2.37E+01 2.36E+01 3.91E+02 0.00E+00 0.00E+00 4.38E+02 4.15E+02 
 1.500E-01 1.16E+01 2.22E+01 1.23E+02 0.00E+00 0.00E+00 1.57E+02 1.45E+02 
 2.000E-01 6.84E+00 2.08E+01 5.43E+01 0.00E+00 0.00E+00 8.20E+01 7.51E+01 
 3.000E-01 3.19E+00 1.85E+01 1.75E+01 0.00E+00 0.00E+00 3.92E+01 3.60E+01 
 4.000E-01 1.84E+00 1.68E+01 8.06E+00 0.00E+00 0.00E+00 2.67E+01 2.48E+01 
 5.000E-01 1.19E+00 1.54E+01 4.55E+00 0.00E+00 0.00E+00 2.11E+01 2.00E+01 
 6.000E-01 8.36E-01 1.43E+01 2.92E+00 0.00E+00 0.00E+00 1.81E+01 1.72E+01 
 8.000E-01 4.75E-01 1.26E+01 1.51E+00 0.00E+00 0.00E+00 1.46E+01 1.41E+01 
 1.000E+00 3.06E-01 1.14E+01 9.45E-01 0.00E+00 0.00E+00 1.26E+01 1.23E+01 
 1.022E+00 2.93E-01 1.12E+01 9.00E-01 0.00E+00 0.00E+00 1.24E+01 1.21E+01 
 1.250E+00 1.97E-01 1.02E+01 6.07E-01 4.17E-02 0.00E+00 1.10E+01 1.08E+01 
 1.500E+00 1.37E-01 9.25E+00 4.34E-01 1.93E-01 0.00E+00 1.00E+01 9.88E+00 
 2.000E+00 7.72E-02 7.90E+00 2.64E-01 6.48E-01 0.00E+00 8.89E+00 8.81E+00 
 2.044E+00 7.39E-02 7.80E+00 2.55E-01 6.92E-01 0.00E+00 8.83E+00 8.75E+00 
 3.000E+00 3.44E-02 6.22E+00 1.40E-01 1.63E+00 2.18E-03 8.02E+00 7.99E+00 
 4.000E+00 1.93E-02 5.19E+00 9.27E-02 2.49E+00 8.87E-03 7.80E+00 7.78E+00 
 5.000E+00 1.24E-02 4.48E+00 6.85E-02 3.23E+00 1.77E-02 7.81E+00 7.80E+00 
 6.000E+00 8.60E-03 3.96E+00 5.40E-02 3.87E+00 2.71E-02 7.92E+00 7.91E+00 
 7.000E+00 6.32E-03 3.56E+00 4.45E-02 4.44E+00 3.65E-02 8.09E+00 8.08E+00 
 8.000E+00 4.84E-03 3.24E+00 3.77E-02 4.95E+00 4.56E-02 8.28E+00 8.27E+00 
 9.000E+00 3.82E-03 2.98E+00 3.27E-02 5.41E+00 5.43E-02 8.48E+00 8.48E+00 
 1.000E+01 3.10E-03 2.76E+00 2.89E-02 5.84E+00 6.25E-02 8.69E+00 8.69E+00 
 1.100E+01 2.56E-03 2.58E+00 2.58E-02 6.23E+00 7.03E-02 8.90E+00 8.90E+00 
 1.200E+01 2.15E-03 2.42E+00 2.33E-02 6.59E+00 7.77E-02 9.11E+00 9.11E+00 
 1.300E+01 1.83E-03 2.28E+00 2.13E-02 6.93E+00 8.46E-02 9.31E+00 9.31E+00 
 1.400E+01 1.58E-03 2.15E+00 1.96E-02 7.24E+00 9.12E-02 9.51E+00 9.50E+00 
 1.500E+01 1.38E-03 2.04E+00 1.81E-02 7.53E+00 9.74E-02 9.69E+00 9.69E+00 
 1.600E+01 1.21E-03 1.95E+00 1.68E-02 7.80E+00 1.03E-01 9.86E+00 9.86E+00 
 1.800E+01 9.56E-04 1.78E+00 1.48E-02 8.28E+00 1.14E-01 1.02E+01 1.02E+01 
 2.000E+01 7.74E-04 1.64E+00 1.32E-02 8.72E+00 1.24E-01 1.05E+01 1.05E+01 
 2.200E+01 6.40E-04 1.52E+00 1.19E-02 9.11E+00 1.33E-01 1.08E+01 1.08E+01 
 2.400E+01 5.38E-04 1.42E+00 1.08E-02 9.48E+00 1.42E-01 1.11E+01 1.11E+01 
 2.600E+01 4.58E-04 1.34E+00 9.89E-03 9.80E+00 1.49E-01 1.13E+01 1.13E+01 
 2.800E+01 3.95E-04 1.26E+00 9.13E-03 1.01E+01 1.57E-01 1.15E+01 1.15E+01 
 3.000E+01 3.44E-04 1.20E+00 8.48E-03 1.04E+01 1.63E-01 1.17E+01 1.17E+01 
 4.000E+01 1.94E-04 9.49E-01 6.26E-03 1.15E+01 1.91E-01 1.26E+01 1.26E+01 
 5.000E+01 1.24E-04 7.92E-01 4.95E-03 1.23E+01 2.12E-01 1.33E+01 1.33E+01 
 6.000E+01 8.60E-05 6.83E-01 4.10E-03 1.30E+01 2.28E-01 1.39E+01 1.39E+01 
 8.000E+01 4.84E-05 5.39E-01 3.05E-03 1.39E+01 2.53E-01 1.47E+01 1.47E+01 
 1.000E+02 3.10E-05 4.47E-01 2.43E-03 1.46E+01 2.71E-01 1.54E+01 1.54E+01 
 1.500E+02 1.38E-05 3.18E-01 1.61E-03 1.57E+01 3.01E-01 1.63E+01 1.63E+01 
 2.000E+02 7.74E-06 2.50E-01 1.20E-03 1.64E+01 3.20E-01 1.69E+01 1.69E+01 
 3.000E+02 3.44E-06 1.77E-01 7.98E-04 1.71E+01 3.43E-01 1.76E+01 1.76E+01 
 4.000E+02 1.94E-06 1.39E-01 5.97E-04 1.75E+01 3.57E-01 1.80E+01 1.80E+01 
 5.000E+02 1.24E-06 1.15E-01 4.77E-04 1.78E+01 3.66E-01 1.83E+01 1.83E+01 
 6.000E+02 8.60E-07 9.82E-02 3.97E-04 1.80E+01 3.73E-01 1.85E+01 1.85E+01 
 8.000E+02 4.84E-07 7.67E-02 2.98E-04 1.83E+01 3.82E-01 1.88E+01 1.88E+01 
 1.000E+03 3.10E-07 6.31E-02 2.38E-04 1.85E+01 3.89E-01 1.89E+01 1.89E+01 
 1.500E+03 1.38E-07 4.41E-02 1.59E-04 1.88E+01 3.98E-01 1.92E+01 1.92E+01 
 2.000E+03 7.74E-08 3.41E-02 1.19E-04 1.89E+01 4.03E-01 1.93E+01 1.93E+01 
 3.000E+03 3.44E-08 2.37E-02 7.93E-05 1.90E+01 4.09E-01 1.95E+01 1.95E+01 
 4.000E+03 1.94E-08 1.83E-02 5.94E-05 1.91E+01 4.12E-01 1.96E+01 1.96E+01 
 5.000E+03 1.24E-08 1.50E-02 4.75E-05 1.92E+01 4.14E-01 1.96E+01 1.96E+01 
 6.000E+03 8.60E-09 1.27E-02 3.96E-05 1.92E+01 4.16E-01 1.96E+01 1.96E+01 
 8.000E+03 4.84E-09 9.78E-03 2.97E-05 1.92E+01 4.18E-01 1.97E+01 1.97E+01 
 1.000E+04 3.10E-09 7.98E-03 2.38E-05 1.93E+01 4.19E-01 1.97E+01 1.97E+01 
 1.500E+04 1.38E-09 5.52E-03 1.58E-05 1.93E+01 4.21E-01 1.97E+01 1.97E+01 
 2.000E+04 7.74E-10 4.24E-03 1.19E-05 1.93E+01 4.22E-01 1.98E+01 1.98E+01 
 3.000E+04 3.44E-10 2.92E-03 7.92E-06 1.94E+01 4.23E-01 1.98E+01 1.98E+01 
 4.000E+04 1.93E-10 2.25E-03 5.94E-06 1.94E+01 4.23E-01 1.98E+01 1.98E+01 
 5.000E+04 1.24E-10 1.83E-03 4.75E-06 1.94E+01 4.24E-01 1.98E+01 1.98E+01 
 6.000E+04 8.60E-11 1.55E-03 3.96E-06 1.94E+01 4.24E-01 1.98E+01 1.98E+01 
 8.000E+04 4.84E-11 1.18E-03 2.97E-06 1.94E+01 4.24E-01 1.98E+01 1.98E+01 
 1.000E+05 3.10E-11 9.64E-04 2.38E-06 1.94E+01 4.24E-01 1.98E+01 1.98E+01