
  91  10   1 ANTIMO       23-APR-82 18:55:03  HOWERTON DATA           
 0.5100E+02 0.6620E+04 0.1217E+03 0.5100E+02 0.0000E+00 0.4948E+25 0.0000E+00 0.0000E+00
 ENERGY(MEV) COH(M2/ATXE28) INCO.   PHOTO.EL. PAIR PROD.  ATT. (M2/KGXE-1) TRAN.  ABS.     E(TR)      E(ABS)
 0.1000E-02 0.1638E+04 0.1018E+01 0.2251E+07 0.0000E+00 0.1114E+05 0.1113E+05 0.1113E+05 0.9993E-03 0.9993E-03
 0.1250E-02 0.1587E+04 0.1447E+01 0.1273E+07 0.0000E+00 0.6303E+04 0.6293E+04 0.6293E+04 0.1248E-02 0.1248E-02
 0.1500E-02 0.1546E+04 0.1890E+01 0.7986E+06 0.0000E+00 0.3958E+04 0.3950E+04 0.3950E+04 0.1497E-02 0.1497E-02
 0.1750E-02 0.1493E+04 0.2332E+01 0.5385E+06 0.0000E+00 0.2671E+04 0.2663E+04 0.2663E+04 0.1745E-02 0.1745E-02
 0.2000E-02 0.1448E+04 0.2772E+01 0.3828E+06 0.0000E+00 0.1901E+04 0.1893E+04 0.1893E+04 0.1992E-02 0.1992E-02
 0.2500E-02 0.1342E+04 0.3622E+01 0.2164E+06 0.0000E+00 0.1077E+04 0.1071E+04 0.1071E+04 0.2485E-02 0.2485E-02
 0.3000E-02 0.1262E+04 0.4428E+01 0.1358E+06 0.0000E+00 0.6780E+03 0.6717E+03 0.6717E+03 0.2972E-02 0.2972E-02
 0.3500E-02 0.1172E+04 0.5178E+01 0.9159E+05 0.0000E+00 0.4589E+03 0.4531E+03 0.4531E+03 0.3456E-02 0.3456E-02
 0.4000E-02 0.1100E+04 0.5885E+01 0.6512E+05 0.0000E+00 0.3276E+03 0.3221E+03 0.3221E+03 0.3933E-02 0.3933E-02
 0.4131E-02 0.1079E+04 0.6062E+01 0.5997E+05 0.0000E+00 0.3020E+03 0.2967E+03 0.2967E+03 0.4058E-02 0.4058E-02
 0.4132E-02 0.1079E+04 0.6063E+01 0.1762E+06 0.0000E+00 0.8769E+03 0.8160E+03 0.8160E+03 0.3845E-02 0.3845E-02
 0.4380E-02 0.1042E+04 0.6390E+01 0.1528E+06 0.0000E+00 0.7610E+03 0.7104E+03 0.7104E+03 0.4089E-02 0.4089E-02
 0.4381E-02 0.1042E+04 0.6392E+01 0.2153E+06 0.0000E+00 0.1070E+04 0.1001E+04 0.1001E+04 0.4098E-02 0.4098E-02
 0.4500E-02 0.1025E+04 0.6546E+01 0.2015E+06 0.0000E+00 0.1002E+04 0.9385E+03 0.9385E+03 0.4215E-02 0.4215E-02
 0.4697E-02 0.9990E+03 0.6797E+01 0.1813E+06 0.0000E+00 0.9017E+03 0.8464E+03 0.8464E+03 0.4409E-02 0.4409E-02
 0.4698E-02 0.9989E+03 0.6799E+01 0.2101E+06 0.0000E+00 0.1044E+04 0.9809E+03 0.9809E+03 0.4414E-02 0.4414E-02
 0.5000E-02 0.9622E+03 0.7175E+01 0.1800E+06 0.0000E+00 0.8951E+03 0.8435E+03 0.8435E+03 0.4712E-02 0.4712E-02
 0.5500E-02 0.8989E+03 0.7771E+01 0.1415E+06 0.0000E+00 0.7044E+03 0.6665E+03 0.6665E+03 0.5204E-02 0.5204E-02
 0.6000E-02 0.8447E+03 0.8343E+01 0.1136E+06 0.0000E+00 0.5661E+03 0.5372E+03 0.5372E+03 0.5694E-02 0.5694E-02
 0.6500E-02 0.7898E+03 0.8894E+01 0.9233E+05 0.0000E+00 0.4607E+03 0.4382E+03 0.4382E+03 0.6183E-02 0.6183E-02
 0.7000E-02 0.7422E+03 0.9423E+01 0.7621E+05 0.0000E+00 0.3807E+03 0.3628E+03 0.3628E+03 0.6671E-02 0.6671E-02
 0.8000E-02 0.6636E+03 0.1043E+02 0.5393E+05 0.0000E+00 0.2701E+03 0.2580E+03 0.2580E+03 0.7641E-02 0.7641E-02
 0.1000E-01 0.5380E+03 0.1223E+02 0.2978E+05 0.0000E+00 0.1500E+03 0.1434E+03 0.1434E+03 0.9560E-02 0.9559E-02
 0.1250E-01 0.4270E+03 0.1411E+02 0.1612E+05 0.0000E+00 0.8193E+02 0.7806E+02 0.7803E+02 0.1191E-01 0.1191E-01
 0.1500E-01 0.3535E+03 0.1560E+02 0.9766E+04 0.0000E+00 0.5013E+02 0.4746E+02 0.4742E+02 0.1420E-01 0.1419E-01
 0.1750E-01 0.2928E+03 0.1680E+02 0.6296E+04 0.0000E+00 0.3268E+02 0.3068E+02 0.3065E+02 0.1643E-01 0.1641E-01
 0.2000E-01 0.2487E+03 0.1779E+02 0.4305E+04 0.0000E+00 0.2261E+02 0.2102E+02 0.2099E+02 0.1859E-01 0.1857E-01
 0.2500E-01 0.1811E+03 0.1932E+02 0.2231E+04 0.0000E+00 0.1203E+02 0.1093E+02 0.1091E+02 0.2271E-01 0.2267E-01
 0.3000E-01 0.1398E+03 0.2041E+02 0.1304E+04 0.0000E+00 0.7242E+01 0.6400E+01 0.6387E+01 0.2651E-01 0.2646E-01
 0.3049E-01 0.1364E+03 0.2050E+02 0.1242E+04 0.0000E+00 0.6920E+01 0.6096E+01 0.6084E+01 0.2686E-01 0.2681E-01
 0.3049E-01 0.1364E+03 0.2050E+02 0.7891E+04 0.0000E+00 0.3981E+02 0.1363E+02 0.1360E+02 0.1044E-01 0.1042E-01
 0.3500E-01 0.1111E+03 0.2121E+02 0.5631E+04 0.0000E+00 0.2851E+02 0.1206E+02 0.1204E+02 0.1481E-01 0.1478E-01
 0.4000E-01 0.9104E+02 0.2179E+02 0.4062E+04 0.0000E+00 0.2065E+02 0.1013E+02 0.1010E+02 0.1962E-01 0.1957E-01
 0.4500E-01 0.7576E+02 0.2222E+02 0.2988E+04 0.0000E+00 0.1527E+02 0.8273E+01 0.8248E+01 0.2438E-01 0.2431E-01
 0.5000E-01 0.6429E+02 0.2252E+02 0.2271E+04 0.0000E+00 0.1166E+02 0.6781E+01 0.6758E+01 0.2908E-01 0.2898E-01
 0.5500E-01 0.5502E+02 0.2273E+02 0.1754E+04 0.0000E+00 0.9059E+01 0.5554E+01 0.5533E+01 0.3372E-01 0.3359E-01
 0.6000E-01 0.4772E+02 0.2286E+02 0.1385E+04 0.0000E+00 0.7200E+01 0.4596E+01 0.4577E+01 0.3830E-01 0.3814E-01
 0.6500E-01 0.4159E+02 0.2287E+02 0.1106E+04 0.0000E+00 0.5790E+01 0.3812E+01 0.3796E+01 0.4280E-01 0.4261E-01
 0.7000E-01 0.3662E+02 0.2288E+02 0.8983E+03 0.0000E+00 0.4738E+01 0.3196E+01 0.3181E+01 0.4722E-01 0.4700E-01
 0.8000E-01 0.2911E+02 0.2289E+02 0.6174E+03 0.0000E+00 0.3311E+01 0.2310E+01 0.2298E+01 0.5582E-01 0.5552E-01
 0.1000E+00 0.1967E+02 0.2253E+02 0.3245E+03 0.0000E+00 0.1814E+01 0.1303E+01 0.1294E+01 0.7182E-01 0.7136E-01
 0.1250E+00 0.1318E+02 0.2177E+02 0.1689E+03 0.0000E+00 0.1008E+01 0.7208E+00 0.7152E+00 0.8938E-01 0.8869E-01
 0.1500E+00 0.9505E+01 0.2117E+02 0.9909E+02 0.0000E+00 0.6419E+00 0.4451E+00 0.4411E+00 0.1040E+00 0.1031E+00
 0.1750E+00 0.7158E+01 0.2043E+02 0.6319E+02 0.0000E+00 0.4490E+00 0.2981E+00 0.2952E+00 0.1162E+00 0.1151E+00
 0.2000E+00 0.5598E+01 0.1981E+02 0.4280E+02 0.0000E+00 0.3374E+00 0.2126E+00 0.2103E+00 0.1260E+00 0.1247E+00
 0.2500E+00 0.3668E+01 0.1854E+02 0.2268E+02 0.0000E+00 0.2220E+00 0.1264E+00 0.1248E+00 0.1423E+00 0.1406E+00
 0.3000E+00 0.2597E+01 0.1756E+02 0.1350E+02 0.0000E+00 0.1665E+00 0.8630E-01 0.8516E-01 0.1555E+00 0.1534E+00
 0.3500E+00 0.1929E+01 0.1664E+02 0.8885E+01 0.0000E+00 0.1358E+00 0.6584E-01 0.6492E-01 0.1697E+00 0.1673E+00
 0.4000E+00 0.1492E+01 0.1588E+02 0.6184E+01 0.0000E+00 0.1165E+00 0.5376E-01 0.5297E-01 0.1846E+00 0.1819E+00
 0.4500E+00 0.1186E+01 0.1517E+02 0.4564E+01 0.0000E+00 0.1035E+00 0.4639E-01 0.4567E-01 0.2017E+00 0.1986E+00
 0.5000E+00 0.9664E+00 0.1457E+02 0.3478E+01 0.0000E+00 0.9403E-01 0.4139E-01 0.4071E-01 0.2201E+00 0.2165E+00
 0.5500E+00 0.8020E+00 0.1401E+02 0.2755E+01 0.0000E+00 0.8688E-01 0.3797E-01 0.3732E-01 0.2404E+00 0.2363E+00
 0.6000E+00 0.6764E+00 0.1352E+02 0.2227E+01 0.0000E+00 0.8121E-01 0.3543E-01 0.3479E-01 0.2618E+00 0.2571E+00
 0.6500E+00 0.5778E+00 0.1305E+02 0.1857E+01 0.0000E+00 0.7659E-01 0.3357E-01 0.3293E-01 0.2849E+00 0.2795E+00
 0.7000E+00 0.4994E+00 0.1263E+02 0.1570E+01 0.0000E+00 0.7272E-01 0.3207E-01 0.3143E-01 0.3087E+00 0.3026E+00
 0.8000E+00 0.3839E+00 0.1191E+02 0.1160E+01 0.0000E+00 0.6656E-01 0.2982E-01 0.2917E-01 0.3584E+00 0.3506E+00
 0.1000E+01 0.2469E+00 0.1073E+02 0.7361E+00 0.0000E+00 0.5794E-01 0.2703E-01 0.2633E-01 0.4665E+00 0.4545E+00
 0.1022E+01 0.2364E+00 0.1062E+02 0.7072E+00 0.1000E-05 0.5719E-01 0.2680E-01 0.2610E-01 0.4789E+00 0.4664E+00
 0.1250E+01 0.1585E+00 0.9607E+01 0.4884E+00 0.2327E-02 0.5073E-01 0.2481E-01 0.2405E-01 0.6114E+00 0.5926E+00
 0.1500E+01 0.1103E+00 0.8738E+01 0.3493E+00 0.1581E+00 0.4628E-01 0.2339E-01 0.2256E-01 0.7581E+00 0.7313E+00
 0.1750E+01 0.8111E-01 0.8040E+01 0.2605E+00 0.3522E+00 0.4320E-01 0.2249E-01 0.2159E-01 0.9112E+00 0.8747E+00
 0.2000E+01 0.6215E-01 0.7463E+01 0.2058E+00 0.5497E+00 0.4096E-01 0.2198E-01 0.2099E-01 0.1073E+01 0.1025E+01
 0.2044E+01 0.5951E-01 0.7371E+01 0.1989E+00 0.5782E+00 0.4060E-01 0.2189E-01 0.2089E-01 0.1102E+01 0.1052E+01
 0.2500E+01 0.3982E-01 0.6558E+01 0.1459E+00 0.9671E+00 0.3814E-01 0.2163E-01 0.2047E-01 0.1418E+01 0.1341E+01
 0.3000E+01 0.2766E-01 0.5876E+01 0.1116E+00 0.1415E+01 0.3675E-01 0.2195E-01 0.2057E-01 0.1792E+01 0.1679E+01
 0.3500E+01 0.2033E-01 0.5338E+01 0.9021E-01 0.1810E+01 0.3591E-01 0.2247E-01 0.2086E-01 0.2190E+01 0.2033E+01
 0.4000E+01 0.1557E-01 0.4903E+01 0.7502E-01 0.2191E+01 0.3554E-01 0.2317E-01 0.2132E-01 0.2608E+01 0.2399E+01
 0.4500E+01 0.1230E-01 0.4541E+01 0.6351E-01 0.2558E+01 0.3549E-01 0.2398E-01 0.2186E-01 0.3041E+01 0.2772E+01
 0.5000E+01 0.9965E-02 0.4235E+01 0.5513E-01 0.2877E+01 0.3550E-01 0.2476E-01 0.2237E-01 0.3487E+01 0.3150E+01
 0.5500E+01 0.8235E-02 0.3972E+01 0.4893E-01 0.3122E+01 0.3537E-01 0.2532E-01 0.2268E-01 0.3938E+01 0.3526E+01
 0.6000E+01 0.6920E-02 0.3743E+01 0.4389E-01 0.3364E+01 0.3541E-01 0.2596E-01 0.2304E-01 0.4398E+01 0.3904E+01
 0.6500E+01 0.5897E-02 0.3542E+01 0.3970E-01 0.3603E+01 0.3557E-01 0.2662E-01 0.2343E-01 0.4865E+01 0.4282E+01
 0.7000E+01 0.5085E-02 0.3364E+01 0.3619E-01 0.3841E+01 0.3584E-01 0.2733E-01 0.2386E-01 0.5338E+01 0.4660E+01
 0.8000E+01 0.3894E-02 0.3062E+01 0.3062E-01 0.4308E+01 0.3663E-01 0.2885E-01 0.2477E-01 0.6301E+01 0.5411E+01
 0.1000E+02 0.2492E-02 0.2608E+01 0.2316E-01 0.5223E+01 0.3886E-01 0.3213E-01 0.2674E-01 0.8267E+01 0.6882E+01
 0.1250E+02 0.1595E-02 0.2213E+01 0.1823E-01 0.5966E+01 0.4055E-01 0.3484E-01 0.2798E-01 0.1074E+02 0.8624E+01
 0.1500E+02 0.1108E-02 0.1931E+01 0.1499E-01 0.6652E+01 0.4253E-01 0.3751E-01 0.2914E-01 0.1323E+02 0.1028E+02
 0.1750E+02 0.8138E-03 0.1717E+01 0.1270E-01 0.7326E+01 0.4480E-01 0.4029E-01 0.3032E-01 0.1574E+02 0.1184E+02
 0.2000E+02 0.6231E-03 0.1550E+01 0.1100E-01 0.7899E+01 0.4679E-01 0.4270E-01 0.3112E-01 0.1825E+02 0.1330E+02
 0.2500E+02 0.3988E-03 0.1303E+01 0.8659E-02 0.8775E+01 0.4989E-01 0.4642E-01 0.3182E-01 0.2326E+02 0.1595E+02
 0.3000E+02 0.2769E-03 0.1128E+01 0.7120E-02 0.9466E+01 0.5244E-01 0.4943E-01 0.3194E-01 0.2828E+02 0.1827E+02
 0.3500E+02 0.2034E-03 0.9979E+00 0.6034E-02 0.9992E+01 0.5439E-01 0.5173E-01 0.3155E-01 0.3329E+02 0.2030E+02
 0.4000E+02 0.1558E-03 0.8965E+00 0.5228E-02 0.1047E+02 0.5626E-01 0.5387E-01 0.3104E-01 0.3830E+02 0.2207E+02
 0.4500E+02 0.1231E-03 0.8152E+00 0.4607E-02 0.1095E+02 0.5822E-01 0.5605E-01 0.3055E-01 0.4332E+02 0.2361E+02
 0.5000E+02 0.9969E-04 0.7484E+00 0.4114E-02 0.1133E+02 0.5974E-01 0.5774E-01 0.2978E-01 0.4833E+02 0.2493E+02
 0.5500E+02 0.8238E-04 0.6923E+00 0.3714E-02 0.1159E+02 0.6080E-01 0.5895E-01 0.2876E-01 0.5333E+02 0.2601E+02
 0.6000E+02 0.6922E-04 0.6448E+00 0.3382E-02 0.1185E+02 0.6180E-01 0.6009E-01 0.2773E-01 0.5834E+02 0.2692E+02
 0.6500E+02 0.5898E-04 0.6036E+00 0.3104E-02 0.1208E+02 0.6276E-01 0.6116E-01 0.2669E-01 0.6334E+02 0.2764E+02
 0.7000E+02 0.5086E-04 0.5678E+00 0.2866E-02 0.1230E+02 0.6368E-01 0.6218E-01 0.2565E-01 0.6835E+02 0.2820E+02
 0.8000E+02 0.3894E-04 0.5085E+00 0.2483E-02 0.1271E+02 0.6542E-01 0.6408E-01 0.2354E-01 0.7836E+02 0.2878E+02
 0.1000E+03 0.2492E-04 0.4221E+00 0.1954E-02 0.1343E+02 0.6854E-01 0.6743E-01 0.1919E-01 0.9838E+02 0.2799E+02

