
  43  12   3 BAKELITE     06-JAN-82 10:50:01  HOWERTON, MOD. BY JRC   
 0.6200E+01 0.1400E+04 0.7577E+01 0.6201E+01 0.3179E+27 0.7948E+26 0.0000E+00 0.0000E+00
 ENERGY(MEV) COH(M2/ATXE28) INCO.   PHOTO.EL. PAIR PROD.  ATT. (M2/KGXE-1) TRAN.  ABS.     E(TR)      E(ABS)    S(AVG.)    SR(AVG.) 
 0.1000E-02 0.1396E+02 0.1779E+00 0.3113E+05 0.0000E+00 0.2475E+04 0.2474E+04 0.2474E+04 0.9996E-03 0.9996E-03 0.0000E+00 0.0000E+00
 0.1500E-02 0.1254E+02 0.3541E+00 0.1022E+05 0.0000E+00 0.8133E+03 0.8124E+03 0.8122E+03 0.1498E-02 0.1498E-02 0.0000E+00 0.0000E+00
 0.2000E-02 0.1100E+02 0.5454E+00 0.4475E+04 0.0000E+00 0.3566E+03 0.3556E+03 0.3557E+03 0.1995E-02 0.1995E-02 0.0000E+00 0.0000E+00
 0.3000E-02 0.8246E+01 0.9004E+00 0.1337E+04 0.0000E+00 0.1070E+03 0.1063E+03 0.1063E+03 0.2980E-02 0.2980E-02 0.0000E+00 0.0000E+00
 0.4000E-02 0.6251E+01 0.1179E+01 0.5525E+03 0.0000E+00 0.4450E+02 0.4391E+02 0.4391E+02 0.3947E-02 0.3947E-02 0.0000E+00 0.0000E+00
 0.5000E-02 0.4889E+01 0.1382E+01 0.2747E+03 0.0000E+00 0.2234E+02 0.2184E+02 0.2184E+02 0.4889E-02 0.4889E-02 0.0000E+00 0.0000E+00
 0.6000E-02 0.3955E+01 0.1530E+01 0.1540E+03 0.0000E+00 0.1267E+02 0.1224E+02 0.1224E+02 0.5795E-02 0.5795E-02 0.0000E+00 0.0000E+00
 0.8000E-02 0.2808E+01 0.1726E+01 0.6106E+02 0.0000E+00 0.5213E+01 0.4855E+01 0.4855E+01 0.7451E-02 0.7451E-02 0.0000E+00 0.0000E+00
 0.1000E-01 0.2146E+01 0.1854E+01 0.2954E+02 0.0000E+00 0.2666E+01 0.2351E+01 0.2351E+01 0.8818E-02 0.8818E-02 0.0000E+00 0.0000E+00
 0.1500E-01 0.1279E+01 0.2049E+01 0.7783E+01 0.0000E+00 0.8831E+00 0.6235E+00 0.6234E+00 0.1059E-01 0.1059E-01 0.1874E+02 0.1108E+01
 0.2000E-01 0.8457E+00 0.2148E+01 0.2998E+01 0.0000E+00 0.4763E+00 0.2449E+00 0.2448E+00 0.1028E-01 0.1028E-01 0.1621E+02 0.1106E+01
 0.3000E-01 0.4410E+00 0.2214E+01 0.7781E+00 0.0000E+00 0.2728E+00 0.7147E-01 0.7145E-01 0.7859E-02 0.7858E-02 0.1306E+02 0.1104E+01
 0.4000E-01 0.2687E+00 0.2205E+01 0.2990E+00 0.0000E+00 0.2204E+00 0.3593E-01 0.3593E-01 0.6522E-02 0.6521E-02 0.1101E+02 0.1102E+01
 0.5000E-01 0.1803E+00 0.2171E+01 0.1428E+00 0.0000E+00 0.1982E+00 0.2567E-01 0.2567E-01 0.6476E-02 0.6475E-02 0.9595E+01 0.1101E+01
 0.6000E-01 0.1291E+00 0.2128E+01 0.7824E-01 0.0000E+00 0.1856E+00 0.2241E-01 0.2240E-01 0.7243E-02 0.7242E-02 0.8924E+01 0.1101E+01
 0.8000E-01 0.7531E-01 0.2037E+01 0.3050E-01 0.0000E+00 0.1704E+00 0.2167E-01 0.2166E-01 0.1017E-01 0.1017E-01 0.1231E+02 0.1105E+01
 0.1000E+00 0.4913E-01 0.1950E+01 0.1480E-01 0.0000E+00 0.1601E+00 0.2277E-01 0.2278E-01 0.1423E-01 0.1423E-01 0.1319E+02 0.1105E+01
 0.1500E+00 0.2230E-01 0.1765E+01 0.4060E-02 0.0000E+00 0.1423E+00 0.2592E-01 0.2590E-01 0.2731E-01 0.2730E-01 0.1050E+02 0.1102E+01
 0.2000E+00 0.1264E-01 0.1621E+01 0.1655E-02 0.0000E+00 0.1299E+00 0.2809E-01 0.2807E-01 0.4324E-01 0.4322E-01 0.8171E+01 0.1100E+01
 0.3000E+00 0.5652E-02 0.1411E+01 0.4837E-03 0.0000E+00 0.1127E+00 0.3034E-01 0.3033E-01 0.8078E-01 0.8073E-01 0.5747E+01 0.1097E+01
 0.4000E+00 0.3186E-02 0.1266E+01 0.2080E-03 0.0000E+00 0.1009E+00 0.3119E-01 0.3117E-01 0.1237E+00 0.1236E+00 0.4576E+01 0.1095E+01
 0.5000E+00 0.2041E-02 0.1156E+01 0.1101E-03 0.0000E+00 0.9206E-01 0.3139E-01 0.3135E-01 0.1705E+00 0.1703E+00 0.3876E+01 0.1094E+01
 0.6000E+00 0.1418E-02 0.1070E+01 0.6631E-04 0.0000E+00 0.8515E-01 0.3128E-01 0.3123E-01 0.2204E+00 0.2201E+00 0.3437E+01 0.1092E+01
 0.6620E+00 0.1191E-02 0.1026E+01 0.5285E-04 0.0000E+00 0.8164E-01 0.3116E-01 0.3110E-01 0.2526E+00 0.2522E+00 0.3224E+01 0.1091E+01
 0.8000E+00 0.7983E-03 0.9400E+00 0.3058E-04 0.0000E+00 0.7479E-01 0.3055E-01 0.3049E-01 0.3268E+00 0.3261E+00 0.2909E+01 0.1088E+01
 0.1000E+01 0.5109E-03 0.8454E+00 0.1718E-04 0.0000E+00 0.6723E-01 0.2957E-01 0.2949E-01 0.4399E+00 0.4387E+00 0.2609E+01 0.1085E+01
 0.1250E+01 0.3270E-03 0.7560E+00 0.1162E-04 0.6710E-04 0.6011E-01 0.2828E-01 0.2818E-01 0.5880E+00 0.5860E+00 0.2384E+01 0.1080E+01
 0.1500E+01 0.2271E-03 0.6873E+00 0.8448E-05 0.1011E-02 0.5471E-01 0.2704E-01 0.2693E-01 0.7415E+00 0.7384E+00 0.2248E+01 0.1076E+01
 0.2000E+01 0.1277E-03 0.5864E+00 0.5106E-05 0.4140E-02 0.4694E-01 0.2490E-01 0.2476E-01 0.1061E+01 0.1055E+01 0.2091E+01 0.1069E+01
 0.3000E+01 0.5679E-04 0.4613E+00 0.2850E-05 0.1198E-01 0.3762E-01 0.2179E-01 0.2160E-01 0.1738E+01 0.1723E+01 0.1945E+01 0.1056E+01
 0.4000E+01 0.3194E-04 0.3848E+00 0.1973E-05 0.1982E-01 0.3216E-01 0.1974E-01 0.1950E-01 0.2455E+01 0.2425E+01 0.1892E+01 0.1045E+01
 0.5000E+01 0.2045E-04 0.3323E+00 0.1484E-05 0.2696E-01 0.2855E-01 0.1828E-01 0.1800E-01 0.3202E+01 0.3152E+01 0.1862E+01 0.1037E+01
 0.6000E+01 0.1420E-04 0.2937E+00 0.1203E-05 0.3231E-01 0.2591E-01 0.1717E-01 0.1684E-01 0.3975E+01 0.3900E+01 0.1846E+01 0.1029E+01
 0.8000E+01 0.7984E-05 0.2403E+00 0.8634E-06 0.4312E-01 0.2252E-01 0.1573E-01 0.1532E-01 0.5588E+01 0.5443E+01 0.1834E+01 0.1017E+01
 0.1000E+02 0.5111E-05 0.2046E+00 0.6676E-06 0.5410E-01 0.2056E-01 0.1498E-01 0.1448E-01 0.7283E+01 0.7042E+01 0.1837E+01 0.1008E+01
 0.1500E+02 0.2272E-05 0.1515E+00 0.4362E-06 0.7046E-01 0.1763E-01 0.1376E-01 0.1307E-01 0.1170E+02 0.1112E+02 0.1843E+01 0.9914E+00
 0.2000E+02 0.1278E-05 0.1215E+00 0.3226E-06 0.8509E-01 0.1642E-01 0.1343E-01 0.1255E-01 0.1636E+02 0.1529E+02 0.1853E+01 0.9796E+00
 0.3000E+02 0.5679E-06 0.8847E-01 0.2108E-06 0.1037E+00 0.1527E-01 0.1321E-01 0.1197E-01 0.2595E+02 0.2351E+02 0.1873E+01 0.9628E+00
 0.4000E+02 0.3195E-06 0.7033E-01 0.1558E-06 0.1159E+00 0.1480E-01 0.1322E-01 0.1164E-01 0.3574E+02 0.3146E+02 0.1890E+01 0.9512E+00
 0.5000E+02 0.2045E-06 0.5869E-01 0.1233E-06 0.1265E+00 0.1472E-01 0.1344E-01 0.1152E-01 0.4564E+02 0.3913E+02 0.1904E+01 0.9428E+00
 0.6000E+02 0.1414E-06 0.5057E-01 0.1018E-06 0.1334E+00 0.1463E-01 0.1354E-01 0.1131E-01 0.5556E+02 0.4640E+02 0.1916E+01 0.9361E+00
 0.8000E+02 0.7953E-07 0.3989E-01 0.7530E-07 0.1452E+00 0.1471E-01 0.1389E-01 0.1105E-01 0.7554E+02 0.6008E+02 0.1934E+01 0.9265E+00
 0.1000E+03 0.5091E-07 0.3311E-01 0.5958E-07 0.1551E+00 0.1495E-01 0.1428E-01 0.1085E-01 0.9551E+02 0.7255E+02 0.1949E+01 0.9196E+00

