
  83  12   1 BERILIUM     27-SEP-82 11:05:55  HOWERTON DATA           
 0.4000E+01 0.1848E+04 0.9012E+01 0.4000E+01 0.2673E+27 0.6682E+26 0.0000E+00 0.0000E+00
 ENERGY(MEV) COH(M2/ATXE28) INCO.   PHOTO.EL. PAIR PROD.  ATT. (M2/KGXE-1) TRAN.  ABS.     E(TR)      E(ABS)  SBAR     SRTOAIR      
 0.1000E-02 0.8935E+01 0.3135E+00 0.8477E+04 0.0000E+00 0.5671E+03 0.5665E+03 0.5665E+03 0.9989E-03 0.9989E-03 0.0000E+00 0.0000E+00
 0.1250E-02 0.8122E+01 0.4433E+00 0.4422E+04 0.0000E+00 0.2960E+03 0.2955E+03 0.2955E+03 0.1248E-02 0.1248E-02 0.0000E+00 0.0000E+00
 0.1500E-02 0.7513E+01 0.5688E+00 0.2598E+04 0.0000E+00 0.1741E+03 0.1735E+03 0.1735E+03 0.1495E-02 0.1495E-02 0.0000E+00 0.0000E+00
 0.1750E-02 0.6805E+01 0.6863E+00 0.1625E+04 0.0000E+00 0.1091E+03 0.1086E+03 0.1086E+03 0.1742E-02 0.1742E-02 0.0000E+00 0.0000E+00
 0.2000E-02 0.6246E+01 0.7925E+00 0.1082E+04 0.0000E+00 0.7277E+02 0.7230E+02 0.7230E+02 0.1987E-02 0.1987E-02 0.0000E+00 0.0000E+00
 0.2500E-02 0.5219E+01 0.9644E+00 0.5353E+03 0.0000E+00 0.3618E+02 0.3576E+02 0.3576E+02 0.2471E-02 0.2471E-02 0.0000E+00 0.0000E+00
 0.3000E-02 0.4507E+01 0.1102E+01 0.3012E+03 0.0000E+00 0.2050E+02 0.2012E+02 0.2012E+02 0.2945E-02 0.2945E-02 0.0000E+00 0.0000E+00
 0.3500E-02 0.3950E+01 0.1205E+01 0.1825E+03 0.0000E+00 0.1254E+02 0.1220E+02 0.1220E+02 0.3404E-02 0.3404E-02 0.0000E+00 0.0000E+00
 0.4000E-02 0.3523E+01 0.1293E+01 0.1182E+03 0.0000E+00 0.8220E+01 0.7899E+01 0.7899E+01 0.3844E-02 0.3844E-02 0.0000E+00 0.0000E+00
 0.4500E-02 0.3189E+01 0.1367E+01 0.8006E+02 0.0000E+00 0.5654E+01 0.5350E+01 0.5350E+01 0.4258E-02 0.4258E-02 0.0000E+00 0.0000E+00
 0.5000E-02 0.2918E+01 0.1434E+01 0.5650E+02 0.0000E+00 0.4066E+01 0.3777E+01 0.3776E+01 0.4644E-02 0.4644E-02 0.0000E+00 0.0000E+00
 0.5500E-02 0.2687E+01 0.1495E+01 0.4106E+02 0.0000E+00 0.3023E+01 0.2745E+01 0.2745E+01 0.4994E-02 0.4994E-02 0.0000E+00 0.0000E+00
 0.6000E-02 0.2493E+01 0.1552E+01 0.3068E+02 0.0000E+00 0.2320E+01 0.2051E+01 0.2051E+01 0.5305E-02 0.5305E-02 0.0000E+00 0.0000E+00
 0.6500E-02 0.2308E+01 0.1606E+01 0.2339E+02 0.0000E+00 0.1824E+01 0.1564E+01 0.1564E+01 0.5574E-02 0.5574E-02 0.0000E+00 0.0000E+00
 0.7000E-02 0.2150E+01 0.1656E+01 0.1819E+02 0.0000E+00 0.1470E+01 0.1217E+01 0.1217E+01 0.5797E-02 0.5797E-02 0.0000E+00 0.0000E+00
 0.8000E-02 0.1891E+01 0.1746E+01 0.1157E+02 0.0000E+00 0.1016E+01 0.7750E+00 0.7749E+00 0.6102E-02 0.6102E-02 0.0000E+00 0.0000E+00
 0.1000E-01 0.1468E+01 0.1895E+01 0.5389E+01 0.0000E+00 0.5848E+00 0.3628E+00 0.3627E+00 0.6203E-02 0.6203E-02 0.0000E+00 0.0000E+00
 0.1250E-01 0.1081E+01 0.2029E+01 0.2493E+01 0.0000E+00 0.3744E+00 0.1701E+00 0.1701E+00 0.5678E-02 0.5678E-02 0.6072E+01 0.3302E+00
 0.1500E-01 0.8418E+00 0.2119E+01 0.1328E+01 0.0000E+00 0.2866E+00 0.9305E-01 0.9305E-01 0.4870E-02 0.4870E-02 0.5587E+01 0.3294E+00
 0.1750E-01 0.6598E+00 0.2176E+01 0.7776E+00 0.0000E+00 0.2415E+00 0.5699E-01 0.5699E-01 0.4130E-02 0.4130E-02 0.5163E+01 0.3286E+00
 0.2000E-01 0.5342E+00 0.2215E+01 0.4891E+00 0.0000E+00 0.2164E+00 0.3843E-01 0.3843E-01 0.3552E-02 0.3552E-02 0.4815E+01 0.3280E+00
 0.2500E-01 0.3648E+00 0.2239E+01 0.2253E+00 0.0000E+00 0.1890E+00 0.2206E-01 0.2206E-01 0.2918E-02 0.2918E-02 0.4282E+01 0.3270E+00
 0.3000E-01 0.2671E+00 0.2258E+01 0.1196E+00 0.0000E+00 0.1767E+00 0.1621E-01 0.1621E-01 0.2752E-02 0.2752E-02 0.3864E+01 0.3262E+00
 0.3500E-01 0.2023E+00 0.2246E+01 0.7019E-01 0.0000E+00 0.1683E+00 0.1397E-01 0.1397E-01 0.2906E-02 0.2906E-02 0.3525E+01 0.3256E+00
 0.4000E-01 0.1590E+00 0.2236E+01 0.4424E-01 0.0000E+00 0.1630E+00 0.1326E-01 0.1326E-01 0.3254E-02 0.3254E-02 0.3249E+01 0.3250E+00
 0.4500E-01 0.1277E+00 0.2213E+01 0.2952E-01 0.0000E+00 0.1584E+00 0.1319E-01 0.1319E-01 0.3746E-02 0.3746E-02 0.3019E+01 0.3245E+00
 0.5000E-01 0.1050E+00 0.2193E+01 0.2055E-01 0.0000E+00 0.1550E+00 0.1347E-01 0.1347E-01 0.4344E-02 0.4344E-02 0.2825E+01 0.3240E+00
 0.5500E-01 0.8763E-01 0.2168E+01 0.1484E-01 0.0000E+00 0.1517E+00 0.1387E-01 0.1387E-01 0.5029E-02 0.5029E-02 0.2658E+01 0.3236E+00
 0.6000E-01 0.7428E-01 0.2145E+01 0.1103E-01 0.0000E+00 0.1490E+00 0.1437E-01 0.1437E-01 0.5788E-02 0.5788E-02 0.3174E+01 0.3257E+00
 0.6500E-01 0.6364E-01 0.2117E+01 0.8417E-02 0.0000E+00 0.1463E+00 0.1488E-01 0.1488E-01 0.6612E-02 0.6612E-02 0.4117E+01 0.3279E+00
 0.7000E-01 0.5516E-01 0.2092E+01 0.6553E-02 0.0000E+00 0.1439E+00 0.1541E-01 0.1541E-01 0.7494E-02 0.7494E-02 0.4749E+01 0.3287E+00
 0.8000E-01 0.4262E-01 0.2048E+01 0.4174E-02 0.0000E+00 0.1399E+00 0.1646E-01 0.1646E-01 0.9413E-02 0.9413E-02 0.4915E+01 0.3286E+00
 0.1000E+00 0.2754E-01 0.1957E+01 0.1985E-02 0.0000E+00 0.1327E+00 0.1830E-01 0.1830E-01 0.1379E-01 0.1379E-01 0.4382E+01 0.3274E+00
 0.1250E+00 0.1772E-01 0.1851E+01 0.9585E-03 0.0000E+00 0.1249E+00 0.2008E-01 0.2008E-01 0.2010E-01 0.2010E-01 0.3694E+01 0.3260E+00
 0.1500E+00 0.1236E-01 0.1768E+01 0.5288E-03 0.0000E+00 0.1190E+00 0.2156E-01 0.2156E-01 0.2718E-01 0.2718E-01 0.3151E+01 0.3249E+00
 0.1750E+00 0.9099E-02 0.1689E+01 0.3244E-03 0.0000E+00 0.1135E+00 0.2264E-01 0.2263E-01 0.3490E-01 0.3490E-01 0.2727E+01 0.3239E+00
 0.2000E+00 0.6978E-02 0.1623E+01 0.2125E-03 0.0000E+00 0.1089E+00 0.2352E-01 0.2352E-01 0.4320E-01 0.4320E-01 0.2411E+01 0.3232E+00
 0.2500E+00 0.4473E-02 0.1503E+01 0.1073E-03 0.0000E+00 0.1008E+00 0.2468E-01 0.2468E-01 0.6121E-01 0.6120E-01 0.1973E+01 0.3219E+00
 0.3000E+00 0.3110E-02 0.1413E+01 0.6142E-04 0.0000E+00 0.9460E-01 0.2549E-01 0.2548E-01 0.8082E-01 0.8081E-01 0.1680E+01 0.3209E+00
 0.3500E+00 0.2286E-02 0.1332E+01 0.3906E-04 0.0000E+00 0.8917E-01 0.2591E-01 0.2591E-01 0.1017E+00 0.1017E+00 0.1481E+01 0.3201E+00
 0.4000E+00 0.1751E-02 0.1266E+01 0.2639E-04 0.0000E+00 0.8473E-01 0.2622E-01 0.2622E-01 0.1238E+00 0.1238E+00 0.1333E+01 0.3194E+00
 0.4500E+00 0.1384E-02 0.1207E+01 0.1890E-04 0.0000E+00 0.8076E-01 0.2635E-01 0.2634E-01 0.1468E+00 0.1468E+00 0.1216E+01 0.3188E+00
 0.5000E+00 0.1121E-02 0.1157E+01 0.1402E-04 0.0000E+00 0.7736E-01 0.2640E-01 0.2639E-01 0.1706E+00 0.1706E+00 0.1127E+01 0.3182E+00
 0.5500E+00 0.9265E-03 0.1111E+01 0.1079E-04 0.0000E+00 0.7427E-01 0.2636E-01 0.2635E-01 0.1952E+00 0.1952E+00 0.1057E+01 0.3177E+00
 0.6000E+00 0.7786E-03 0.1070E+01 0.8501E-05 0.0000E+00 0.7156E-01 0.2629E-01 0.2628E-01 0.2204E+00 0.2203E+00 0.9977E+00 0.3173E+00
 0.6500E+00 0.6634E-03 0.1032E+01 0.6884E-05 0.0000E+00 0.6902E-01 0.2615E-01 0.2615E-01 0.2463E+00 0.2462E+00 0.9467E+00 0.3168E+00
 0.7000E+00 0.5721E-03 0.9984E+00 0.5662E-05 0.0000E+00 0.6676E-01 0.2600E-01 0.2599E-01 0.2726E+00 0.2725E+00 0.9084E+00 0.3164E+00
 0.8000E+00 0.4381E-03 0.9403E+00 0.3982E-05 0.0000E+00 0.6286E-01 0.2568E-01 0.2567E-01 0.3268E+00 0.3267E+00 0.8431E+00 0.3157E+00
 0.1000E+01 0.2804E-03 0.8454E+00 0.2275E-05 0.0000E+00 0.5651E-01 0.2486E-01 0.2485E-01 0.4400E+00 0.4398E+00 0.7557E+00 0.3144E+00
 0.1022E+01 0.2684E-03 0.8365E+00 0.2190E-05 0.1000E-05 0.5591E-01 0.2477E-01 0.2475E-01 0.4527E+00 0.4525E+00 0.7479E+00 0.3142E+00
 0.1250E+01 0.1795E-03 0.7560E+00 0.1540E-05 0.6043E-04 0.5054E-01 0.2377E-01 0.2376E-01 0.5880E+00 0.5877E+00 0.6905E+00 0.3129E+00
 0.1500E+01 0.1246E-03 0.6871E+00 0.1119E-05 0.6979E-03 0.4597E-01 0.2273E-01 0.2271E-01 0.7417E+00 0.7412E+00 0.6510E+00 0.3117E+00
 0.1750E+01 0.9156E-04 0.6319E+00 0.8465E-06 0.1735E-02 0.4235E-01 0.2177E-01 0.2175E-01 0.8995E+00 0.8987E+00 0.6232E+00 0.3106E+00
 0.2000E+01 0.7010E-04 0.5863E+00 0.6765E-06 0.2864E-02 0.3938E-01 0.2089E-01 0.2087E-01 0.1061E+01 0.1060E+01 0.6058E+00 0.3097E+00
 0.2044E+01 0.6712E-04 0.5791E+00 0.6544E-06 0.3030E-02 0.3890E-01 0.2074E-01 0.2072E-01 0.1090E+01 0.1089E+01 0.6030E+00 0.3095E+00
 0.2500E+01 0.4487E-04 0.5150E+00 0.4868E-06 0.5404E-02 0.3478E-01 0.1938E-01 0.1936E-01 0.1393E+01 0.1391E+01 0.5799E+00 0.3078E+00
 0.3000E+01 0.3116E-04 0.4613E+00 0.3785E-06 0.8343E-02 0.3138E-01 0.1816E-01 0.1813E-01 0.1736E+01 0.1733E+01 0.5646E+00 0.3063E+00
 0.3500E+01 0.2289E-04 0.4190E+00 0.3112E-06 0.1115E-01 0.2875E-01 0.1715E-01 0.1712E-01 0.2088E+01 0.2084E+01 0.5565E+00 0.3050E+00
 0.4000E+01 0.1753E-04 0.3848E+00 0.2626E-06 0.1393E-01 0.2664E-01 0.1630E-01 0.1626E-01 0.2447E+01 0.2442E+01 0.5498E+00 0.3037E+00
 0.4500E+01 0.1385E-04 0.3563E+00 0.2253E-06 0.1663E-01 0.2492E-01 0.1558E-01 0.1554E-01 0.2813E+01 0.2807E+01 0.5453E+00 0.3026E+00
 0.5000E+01 0.1122E-04 0.3323E+00 0.1978E-06 0.1906E-01 0.2348E-01 0.1496E-01 0.1492E-01 0.3185E+01 0.3177E+01 0.5419E+00 0.3015E+00
 0.5500E+01 0.9271E-05 0.3116E+00 0.1773E-06 0.2099E-01 0.2223E-01 0.1440E-01 0.1436E-01 0.3562E+01 0.3552E+01 0.5396E+00 0.3005E+00
 0.6000E+01 0.7790E-05 0.2937E+00 0.1604E-06 0.2293E-01 0.2116E-01 0.1391E-01 0.1387E-01 0.3945E+01 0.3933E+01 0.5379E+00 0.2996E+00
 0.6500E+01 0.6637E-05 0.2779E+00 0.1463E-06 0.2489E-01 0.2024E-01 0.1349E-01 0.1344E-01 0.4332E+01 0.4318E+01 0.5367E+00 0.2987E+00
 0.7000E+01 0.5723E-05 0.2640E+00 0.1344E-06 0.2686E-01 0.1943E-01 0.1311E-01 0.1307E-01 0.4724E+01 0.4707E+01 0.5359E+00 0.2979E+00
 0.8000E+01 0.4382E-05 0.2403E+00 0.1153E-06 0.3084E-01 0.1812E-01 0.1251E-01 0.1246E-01 0.5524E+01 0.5502E+01 0.5348E+00 0.2963E+00
 0.1000E+02 0.2804E-05 0.2046E+00 0.8919E-07 0.3897E-01 0.1628E-01 0.1169E-01 0.1163E-01 0.7178E+01 0.7142E+01 0.5360E+00 0.2937E+00
 0.1250E+02 0.1795E-05 0.1736E+00 0.7060E-07 0.4520E-01 0.1462E-01 0.1088E-01 0.1081E-01 0.9299E+01 0.9242E+01 0.5367E+00 0.2908E+00
 0.1500E+02 0.1246E-05 0.1514E+00 0.5832E-07 0.5105E-01 0.1353E-01 0.1036E-01 0.1029E-01 0.1149E+02 0.1141E+02 0.5378E+00 0.2884E+00
 0.1750E+02 0.9157E-06 0.1347E+00 0.4963E-07 0.5691E-01 0.1280E-01 0.1005E-01 0.9967E-02 0.1374E+02 0.1363E+02 0.5391E+00 0.2864E+00
 0.2000E+02 0.7011E-06 0.1216E+00 0.4315E-07 0.6194E-01 0.1226E-01 0.9826E-02 0.9736E-02 0.1603E+02 0.1588E+02 0.5404E+00 0.2846E+00
 0.2500E+02 0.4487E-06 0.1022E+00 0.3415E-07 0.6965E-01 0.1148E-01 0.9501E-02 0.9396E-02 0.2069E+02 0.2046E+02 0.5431E+00 0.2815E+00
 0.3000E+02 0.3116E-06 0.8849E-01 0.2822E-07 0.7589E-01 0.1098E-01 0.9311E-02 0.9192E-02 0.2544E+02 0.2512E+02 0.5455E+00 0.2789E+00
 0.3500E+02 0.2289E-06 0.7827E-01 0.2401E-07 0.8079E-01 0.1063E-01 0.9187E-02 0.9056E-02 0.3025E+02 0.2982E+02 0.5477E+00 0.2768E+00
 0.4000E+02 0.1753E-06 0.7032E-01 0.2088E-07 0.8529E-01 0.1040E-01 0.9126E-02 0.8981E-02 0.3510E+02 0.3454E+02 0.5498E+00 0.2749E+00
 0.4500E+02 0.1385E-06 0.6394E-01 0.1845E-07 0.8973E-01 0.1027E-01 0.9129E-02 0.8972E-02 0.4000E+02 0.3931E+02 0.5516E+00 0.2733E+00
 0.5000E+02 0.1122E-06 0.5870E-01 0.1652E-07 0.9340E-01 0.1016E-01 0.9128E-02 0.8959E-02 0.4492E+02 0.4409E+02 0.5532E+00 0.2719E+00
 0.5500E+02 0.9272E-07 0.5430E-01 0.1495E-07 0.9623E-01 0.1006E-01 0.9116E-02 0.8934E-02 0.4984E+02 0.4884E+02 0.5548E+00 0.2706E+00
 0.6000E+02 0.7790E-07 0.5057E-01 0.1365E-07 0.9890E-01 0.9988E-02 0.9119E-02 0.8925E-02 0.5478E+02 0.5361E+02 0.5562E+00 0.2695E+00
 0.6500E+02 0.6638E-07 0.4734E-01 0.1255E-07 0.1014E+00 0.9940E-02 0.9136E-02 0.8930E-02 0.5974E+02 0.5839E+02 0.5575E+00 0.2685E+00
 0.7000E+02 0.5723E-07 0.4453E-01 0.1162E-07 0.1038E+00 0.9912E-02 0.9162E-02 0.8944E-02 0.6470E+02 0.6316E+02 0.5588E+00 0.2676E+00
 0.8000E+02 0.4382E-07 0.3988E-01 0.1010E-07 0.1083E+00 0.9899E-02 0.9237E-02 0.8996E-02 0.7465E+02 0.7270E+02 0.5610E+00 0.2661E+00
 0.1000E+03 0.2805E-07 0.3310E-01 0.7995E-08 0.1162E+00 0.9973E-02 0.9437E-02 0.9123E-02 0.9463E+02 0.9148E+02 0.5654E+00 0.2639E+00

