
  98  10   1 CALIFO       23-APR-82 21:15:55  HOWERTON DATA           
 0.9800E+02 0.1000E+05 0.2490E+03 0.9800E+02 0.0000E+00 0.2419E+25 0.0000E+00 0.0000E+00
 ENERGY(MEV) COH(M2/ATXE28) INCO.   PHOTO.EL. PAIR PROD.  ATT. (M2/KGXE-1) TRAN.  ABS.     E(TR)      E(ABS)
 0.1000E-02 0.6104E+04 0.1704E+01 0.3285E+07 0.0000E+00 0.7959E+04 0.7944E+04 0.7944E+04 0.9981E-03 0.9981E-03
 0.1250E-02 0.5964E+04 0.2268E+01 0.2277E+07 0.0000E+00 0.5522E+04 0.5509E+04 0.5509E+04 0.1247E-02 0.1247E-02
 0.1500E-02 0.5852E+04 0.2841E+01 0.1688E+07 0.0000E+00 0.4097E+04 0.4083E+04 0.4083E+04 0.1495E-02 0.1495E-02
 0.1750E-02 0.5707E+04 0.3418E+01 0.1252E+07 0.0000E+00 0.3042E+04 0.3028E+04 0.3028E+04 0.1742E-02 0.1742E-02
 0.1822E-02 0.5670E+04 0.3584E+01 0.1158E+07 0.0000E+00 0.2814E+04 0.2800E+04 0.2800E+04 0.1813E-02 0.1813E-02
 0.1823E-02 0.5669E+04 0.3587E+01 0.1160E+07 0.0000E+00 0.2819E+04 0.2805E+04 0.2805E+04 0.1814E-02 0.1814E-02
 0.2500E-02 0.5272E+04 0.5137E+01 0.5558E+06 0.0000E+00 0.1357E+04 0.1344E+04 0.1344E+04 0.2476E-02 0.2476E-02
 0.3000E-02 0.5030E+04 0.6244E+01 0.3630E+06 0.0000E+00 0.8901E+03 0.8779E+03 0.8779E+03 0.2959E-02 0.2959E-02
 0.3500E-02 0.4736E+04 0.7312E+01 0.2530E+06 0.0000E+00 0.6233E+03 0.6119E+03 0.6119E+03 0.3436E-02 0.3436E-02
 0.4000E-02 0.4495E+04 0.8336E+01 0.1850E+06 0.0000E+00 0.4583E+03 0.4474E+03 0.4474E+03 0.3905E-02 0.3905E-02
 0.4254E-02 0.4358E+04 0.8842E+01 0.1620E+06 0.0000E+00 0.4024E+03 0.3918E+03 0.3918E+03 0.4142E-02 0.4142E-02
 0.4255E-02 0.4357E+04 0.8844E+01 0.5080E+06 0.0000E+00 0.1239E+04 0.1128E+04 0.1128E+04 0.3875E-02 0.3875E-02
 0.4502E-02 0.4235E+04 0.9323E+01 0.4540E+06 0.0000E+00 0.1108E+04 0.1013E+04 0.1013E+04 0.4117E-02 0.4117E-02
 0.4503E-02 0.4235E+04 0.9325E+01 0.5140E+06 0.0000E+00 0.1253E+04 0.1147E+04 0.1147E+04 0.4122E-02 0.4122E-02
 0.5000E-02 0.4017E+04 0.1026E+02 0.3690E+06 0.0000E+00 0.9022E+03 0.8306E+03 0.8306E+03 0.4603E-02 0.4603E-02
 0.5117E-02 0.3962E+04 0.1047E+02 0.3440E+06 0.0000E+00 0.8416E+03 0.7756E+03 0.7756E+03 0.4716E-02 0.4716E-02
 0.5118E-02 0.3962E+04 0.1047E+02 0.3950E+06 0.0000E+00 0.9649E+03 0.8906E+03 0.8906E+03 0.4724E-02 0.4724E-02
 0.5500E-02 0.3796E+04 0.1115E+02 0.3364E+06 0.0000E+00 0.8227E+03 0.7621E+03 0.7621E+03 0.5095E-02 0.5095E-02
 0.6000E-02 0.3604E+04 0.1201E+02 0.2770E+06 0.0000E+00 0.6787E+03 0.6312E+03 0.6312E+03 0.5580E-02 0.5580E-02
 0.6353E-02 0.3462E+04 0.1259E+02 0.2440E+06 0.0000E+00 0.5985E+03 0.5579E+03 0.5579E+03 0.5922E-02 0.5922E-02
 0.6354E-02 0.3462E+04 0.1259E+02 0.2910E+06 0.0000E+00 0.7122E+03 0.6653E+03 0.6653E+03 0.5936E-02 0.5936E-02
 0.6735E-02 0.3323E+04 0.1320E+02 0.2440E+06 0.0000E+00 0.5982E+03 0.5597E+03 0.5597E+03 0.6302E-02 0.6302E-02
 0.6736E-02 0.3322E+04 0.1321E+02 0.2700E+06 0.0000E+00 0.6611E+03 0.6194E+03 0.6194E+03 0.6311E-02 0.6311E-02
 0.8000E-02 0.2944E+04 0.1513E+02 0.1690E+06 0.0000E+00 0.4159E+03 0.3910E+03 0.3910E+03 0.7521E-02 0.7521E-02
 0.1000E-01 0.2448E+04 0.1790E+02 0.9330E+05 0.0000E+00 0.2316E+03 0.2178E+03 0.2178E+03 0.9405E-02 0.9404E-02
 0.1250E-01 0.1975E+04 0.2098E+02 0.5097E+05 0.0000E+00 0.1281E+03 0.1199E+03 0.1198E+03 0.1170E-01 0.1169E-01
 0.1500E-01 0.1657E+04 0.2356E+02 0.3110E+05 0.0000E+00 0.7928E+02 0.7347E+02 0.7339E+02 0.1390E-01 0.1388E-01
 0.1750E-01 0.1391E+04 0.2575E+02 0.2056E+05 0.0000E+00 0.5315E+02 0.4875E+02 0.4867E+02 0.1605E-01 0.1603E-01
 0.1993E-01 0.1201E+04 0.2757E+02 0.1450E+05 0.0000E+00 0.3804E+02 0.3445E+02 0.3439E+02 0.1805E-01 0.1802E-01
 0.1993E-01 0.1201E+04 0.2757E+02 0.3310E+05 0.0000E+00 0.8302E+02 0.4865E+02 0.4856E+02 0.1168E-01 0.1166E-01
 0.2500E-01 0.8887E+03 0.3058E+02 0.1952E+05 0.0000E+00 0.4944E+02 0.3245E+02 0.3237E+02 0.1641E-01 0.1637E-01
 0.2512E-01 0.8828E+03 0.3064E+02 0.1930E+05 0.0000E+00 0.4889E+02 0.3217E+02 0.3209E+02 0.1653E-01 0.1649E-01
 0.2513E-01 0.8827E+03 0.3064E+02 0.2660E+05 0.0000E+00 0.6654E+02 0.4430E+02 0.4418E+02 0.1673E-01 0.1669E-01
 0.2603E-01 0.8421E+03 0.3109E+02 0.2410E+05 0.0000E+00 0.6040E+02 0.4079E+02 0.4068E+02 0.1758E-01 0.1753E-01
 0.2603E-01 0.8421E+03 0.3109E+02 0.2820E+05 0.0000E+00 0.7031E+02 0.4773E+02 0.4760E+02 0.1767E-01 0.1762E-01
 0.3000E-01 0.6971E+03 0.3285E+02 0.1940E+05 0.0000E+00 0.4869E+02 0.3470E+02 0.3459E+02 0.2138E-01 0.2131E-01
 0.3500E-01 0.5604E+03 0.3465E+02 0.1306E+05 0.0000E+00 0.3303E+02 0.2454E+02 0.2444E+02 0.2600E-01 0.2590E-01
 0.4000E-01 0.4638E+03 0.3606E+02 0.9270E+04 0.0000E+00 0.2363E+02 0.1805E+02 0.1796E+02 0.3055E-01 0.3041E-01
 0.4500E-01 0.3889E+03 0.3717E+02 0.6818E+04 0.0000E+00 0.1752E+02 0.1363E+02 0.1356E+02 0.3501E-01 0.3483E-01
 0.5000E-01 0.3322E+03 0.3804E+02 0.5180E+04 0.0000E+00 0.1342E+02 0.1057E+02 0.1051E+02 0.3940E-01 0.3917E-01
 0.5500E-01 0.2857E+03 0.3871E+02 0.4034E+04 0.0000E+00 0.1054E+02 0.8378E+01 0.8325E+01 0.4372E-01 0.4344E-01
 0.6000E-01 0.2489E+03 0.3922E+02 0.3210E+04 0.0000E+00 0.8460E+01 0.6761E+01 0.6714E+01 0.4795E-01 0.4761E-01
 0.6500E-01 0.2179E+03 0.3948E+02 0.2598E+04 0.0000E+00 0.6905E+01 0.5538E+01 0.5496E+01 0.5213E-01 0.5173E-01
 0.7000E-01 0.1927E+03 0.3973E+02 0.2135E+04 0.0000E+00 0.5726E+01 0.4599E+01 0.4561E+01 0.5622E-01 0.5576E-01
 0.8000E-01 0.1543E+03 0.4017E+02 0.1500E+04 0.0000E+00 0.4098E+01 0.3286E+01 0.3255E+01 0.6414E-01 0.6354E-01
 0.1000E+00 0.1058E+03 0.4015E+02 0.8270E+03 0.0000E+00 0.2353E+01 0.1858E+01 0.1837E+01 0.7897E-01 0.7807E-01
 0.1250E+00 0.7143E+02 0.3932E+02 0.4373E+03 0.0000E+00 0.1326E+01 0.1008E+01 0.9943E+00 0.9505E-01 0.9373E-01
 0.1350E+00 0.6238E+02 0.3904E+02 0.3510E+03 0.0000E+00 0.1094E+01 0.8169E+00 0.8048E+00 0.1008E+00 0.9931E-01
 0.1350E+00 0.6237E+02 0.3904E+02 0.1510E+04 0.0000E+00 0.3897E+01 0.1099E+01 0.1082E+01 0.3806E-01 0.3749E-01
 0.1500E+00 0.5182E+02 0.3866E+02 0.1160E+04 0.0000E+00 0.3024E+01 0.1046E+01 0.1029E+01 0.5189E-01 0.5104E-01
 0.1750E+00 0.3919E+02 0.3756E+02 0.7852E+03 0.0000E+00 0.2085E+01 0.8871E+00 0.8706E+00 0.7446E-01 0.7307E-01
 0.2000E+00 0.3076E+02 0.3662E+02 0.5600E+03 0.0000E+00 0.1517E+01 0.7308E+00 0.7156E+00 0.9635E-01 0.9434E-01
 0.2500E+00 0.2044E+02 0.3453E+02 0.3186E+03 0.0000E+00 0.9036E+00 0.4991E+00 0.4869E+00 0.1381E+00 0.1347E+00
 0.3000E+00 0.1463E+02 0.3290E+02 0.2010E+03 0.0000E+00 0.6011E+00 0.3544E+00 0.3444E+00 0.1769E+00 0.1719E+00
 0.3500E+00 0.1098E+02 0.3129E+02 0.1390E+03 0.0000E+00 0.4384E+00 0.2675E+00 0.2592E+00 0.2136E+00 0.2069E+00
 0.4000E+00 0.8566E+01 0.2995E+02 0.1010E+03 0.0000E+00 0.3374E+00 0.2093E+00 0.2021E+00 0.2481E+00 0.2396E+00
 0.4500E+00 0.6858E+01 0.2869E+02 0.7673E+02 0.0000E+00 0.2715E+00 0.1695E+00 0.1633E+00 0.2810E+00 0.2706E+00
 0.5000E+00 0.5621E+01 0.2760E+02 0.6000E+02 0.0000E+00 0.2255E+00 0.1408E+00 0.1352E+00 0.3122E+00 0.2998E+00
 0.5500E+00 0.4688E+01 0.2658E+02 0.4860E+02 0.0000E+00 0.1932E+00 0.1205E+00 0.1155E+00 0.3431E+00 0.3287E+00
 0.6000E+00 0.3972E+01 0.2568E+02 0.4010E+02 0.0000E+00 0.1687E+00 0.1048E+00 0.1002E+00 0.3729E+00 0.3564E+00
 0.6500E+00 0.3406E+01 0.2481E+02 0.3372E+02 0.0000E+00 0.1498E+00 0.9271E-01 0.8843E-01 0.4023E+00 0.3837E+00
 0.7000E+00 0.2954E+01 0.2404E+02 0.2871E+02 0.0000E+00 0.1347E+00 0.8298E-01 0.7897E-01 0.4312E+00 0.4104E+00
 0.8000E+00 0.2285E+01 0.2271E+02 0.2150E+02 0.0000E+00 0.1125E+00 0.6857E-01 0.6500E-01 0.4876E+00 0.4622E+00
 0.1000E+01 0.1483E+01 0.2050E+02 0.1370E+02 0.0000E+00 0.8629E-01 0.5200E-01 0.4893E-01 0.6026E+00 0.5670E+00
 0.1022E+01 0.1421E+01 0.2028E+02 0.1316E+02 0.0000E+00 0.8431E-01 0.5078E-01 0.4775E-01 0.6156E+00 0.5788E+00
 0.1250E+01 0.9596E+00 0.1838E+02 0.9085E+01 0.9888E-04 0.6874E-01 0.4136E-01 0.3860E-01 0.7522E+00 0.7019E+00
 0.1500E+01 0.6713E+00 0.1673E+02 0.6550E+01 0.9162E+00 0.6015E-01 0.3568E-01 0.3305E-01 0.8897E+00 0.8242E+00
 0.1750E+01 0.4956E+00 0.1540E+02 0.4980E+01 0.1782E+01 0.5481E-01 0.3245E-01 0.2985E-01 0.1036E+01 0.9532E+00
 0.2000E+01 0.3808E+00 0.1431E+02 0.3970E+01 0.2660E+01 0.5155E-01 0.3072E-01 0.2808E-01 0.1192E+01 0.1089E+01
 0.2044E+01 0.3648E+00 0.1413E+02 0.3829E+01 0.2796E+01 0.5108E-01 0.3051E-01 0.2785E-01 0.1221E+01 0.1114E+01
 0.2500E+01 0.2449E+00 0.1258E+02 0.2778E+01 0.4291E+01 0.4811E-01 0.2960E-01 0.2670E-01 0.1538E+01 0.1387E+01
 0.3000E+01 0.1706E+00 0.1127E+02 0.2120E+01 0.5862E+01 0.4698E-01 0.3008E-01 0.2680E-01 0.1921E+01 0.1711E+01
 0.3500E+01 0.1255E+00 0.1025E+02 0.1725E+01 0.7110E+01 0.4645E-01 0.3096E-01 0.2723E-01 0.2333E+01 0.2052E+01
 0.4000E+01 0.9623E-01 0.9411E+01 0.1440E+01 0.8287E+01 0.4652E-01 0.3216E-01 0.2793E-01 0.2765E+01 0.2401E+01
 0.4500E+01 0.7610E-01 0.8717E+01 0.1223E+01 0.9426E+01 0.4702E-01 0.3356E-01 0.2879E-01 0.3212E+01 0.2756E+01
 0.5000E+01 0.6169E-01 0.8131E+01 0.1060E+01 0.1040E+02 0.4754E-01 0.3489E-01 0.2958E-01 0.3670E+01 0.3111E+01
 0.5500E+01 0.5101E-01 0.7627E+01 0.9337E+00 0.1117E+02 0.4783E-01 0.3596E-01 0.3012E-01 0.4135E+01 0.3463E+01
 0.6000E+01 0.4288E-01 0.7188E+01 0.8320E+00 0.1189E+02 0.4827E-01 0.3706E-01 0.3067E-01 0.4606E+01 0.3813E+01
 0.6500E+01 0.3655E-01 0.6803E+01 0.7476E+00 0.1259E+02 0.4880E-01 0.3816E-01 0.3123E-01 0.5083E+01 0.4160E+01
 0.7000E+01 0.3152E-01 0.6461E+01 0.6780E+00 0.1326E+02 0.4941E-01 0.3927E-01 0.3179E-01 0.5564E+01 0.4504E+01
 0.8000E+01 0.2414E-01 0.5882E+01 0.5700E+00 0.1452E+02 0.5078E-01 0.4149E-01 0.3286E-01 0.6537E+01 0.5177E+01
 0.1000E+02 0.1546E-01 0.5011E+01 0.4300E+00 0.1678E+02 0.5377E-01 0.4575E-01 0.3477E-01 0.8508E+01 0.6467E+01
 0.1250E+02 0.9897E-02 0.4252E+01 0.3243E+00 0.1920E+02 0.5752E-01 0.5062E-01 0.3658E-01 0.1100E+02 0.7950E+01
 0.1500E+02 0.6874E-02 0.3709E+01 0.2610E+00 0.2130E+02 0.6113E-01 0.5502E-01 0.3769E-01 0.1350E+02 0.9247E+01
 0.1750E+02 0.5050E-02 0.3299E+01 0.2202E+00 0.2315E+02 0.6452E-01 0.5899E-01 0.3815E-01 0.1600E+02 0.1035E+02
 0.2000E+02 0.3867E-02 0.2977E+01 0.1900E+00 0.2481E+02 0.6766E-01 0.6262E-01 0.3807E-01 0.1851E+02 0.1125E+02
 0.2500E+02 0.2475E-02 0.2503E+01 0.1482E+00 0.2770E+02 0.7342E-01 0.6910E-01 0.3656E-01 0.2353E+02 0.1245E+02
 0.3000E+02 0.1719E-02 0.2168E+01 0.1210E+00 0.3002E+02 0.7814E-01 0.7434E-01 0.3314E-01 0.2854E+02 0.1272E+02
 0.3500E+02 0.1263E-02 0.1917E+01 0.1020E+00 0.3187E+02 0.8197E-01 0.7857E-01 0.2831E-01 0.3355E+02 0.1209E+02
 0.4000E+02 0.9669E-03 0.1723E+01 0.8800E-01 0.3345E+02 0.8528E-01 0.8221E-01 0.2235E-01 0.3856E+02 0.1048E+02
 0.4500E+02 0.7639E-03 0.1566E+01 0.7741E-01 0.3486E+02 0.8829E-01 0.8548E-01 0.1558E-01 0.4357E+02 0.7942E+01
 0.5000E+02 0.6188E-03 0.1438E+01 0.6890E-01 0.3600E+02 0.9071E-01 0.8813E-01 0.7968E-02 0.4858E+02 0.4392E+01
 0.5500E+02 0.5114E-03 0.1330E+01 0.6188E-01 0.3685E+02 0.9248E-01 0.9009E-01-0.3066E-03 0.5358E+02-0.1824E+00
 0.6000E+02 0.4297E-03 0.1239E+01 0.5610E-01 0.3764E+02 0.9416E-01 0.9193E-01-0.9045E-02 0.5858E+02-0.5764E+01
 0.6500E+02 0.3662E-03 0.1160E+01 0.5138E-01 0.3838E+02 0.9576E-01 0.9368E-01-0.1815E-01 0.6359E+02-0.1232E+02
 0.7000E+02 0.3157E-03 0.1091E+01 0.4736E-01 0.3908E+02 0.9728E-01 0.9532E-01-0.2761E-01 0.6859E+02-0.1987E+02
 0.8000E+02 0.2418E-03 0.9771E+00 0.4090E-01 0.4038E+02 0.1001E+00 0.9835E-01-0.4765E-01 0.7860E+02-0.3808E+02
 0.1000E+03 0.1547E-03 0.8110E+00 0.3200E-01 0.4265E+02 0.1052E+00 0.1037E+00-0.9158E-01 0.9861E+02-0.8706E+02

