
  85  10   1 CHROMIUM     27-MAY-82 12:20:56  HOWERTON DATA           
 0.2400E+02 0.7190E+04 0.5200E+02 0.2400E+02 0.2779E+27 0.1158E+26 0.0000E+00 0.0000E+00
 ENERGY(MEV) COH(M2/ATXE28) INCO.   PHOTO.EL. PAIR PROD.  ATT. (M2/KGXE-1) TRAN.  ABS.     E(TR)      E(ABS)
 0.1000E-02 0.3573E+03 0.7391E+00 0.6757E+06 0.0000E+00 0.7830E+04 0.7826E+04 0.7826E+04 0.9995E-03 0.9995E-03
 0.1250E-02 0.3440E+03 0.1014E+01 0.3819E+06 0.0000E+00 0.4427E+04 0.4423E+04 0.4423E+04 0.1249E-02 0.1249E-02
 0.1500E-02 0.3334E+03 0.1290E+01 0.2396E+06 0.0000E+00 0.2779E+04 0.2775E+04 0.2775E+04 0.1498E-02 0.1498E-02
 0.1750E-02 0.3197E+03 0.1557E+01 0.1598E+06 0.0000E+00 0.1854E+04 0.1850E+04 0.1850E+04 0.1746E-02 0.1746E-02
 0.2000E-02 0.3082E+03 0.1823E+01 0.1125E+06 0.0000E+00 0.1307E+04 0.1304E+04 0.1304E+04 0.1995E-02 0.1995E-02
 0.2500E-02 0.2808E+03 0.2342E+01 0.6163E+05 0.0000E+00 0.7171E+03 0.7139E+03 0.7139E+03 0.2489E-02 0.2489E-02
 0.3000E-02 0.2603E+03 0.2842E+01 0.3769E+05 0.0000E+00 0.4396E+03 0.4365E+03 0.4365E+03 0.2979E-02 0.2979E-02
 0.3500E-02 0.2369E+03 0.3322E+01 0.2459E+05 0.0000E+00 0.2876E+03 0.2848E+03 0.2848E+03 0.3466E-02 0.3466E-02
 0.4000E-02 0.2183E+03 0.3779E+01 0.1699E+05 0.0000E+00 0.1993E+03 0.1967E+03 0.1967E+03 0.3948E-02 0.3948E-02
 0.4500E-02 0.1991E+03 0.4212E+01 0.1219E+05 0.0000E+00 0.1435E+03 0.1411E+03 0.1411E+03 0.4426E-02 0.4426E-02
 0.5000E-02 0.1834E+03 0.4623E+01 0.9055E+04 0.0000E+00 0.1071E+03 0.1049E+03 0.1049E+03 0.4898E-02 0.4898E-02
 0.5500E-02 0.1681E+03 0.5013E+01 0.6894E+04 0.0000E+00 0.8185E+02 0.7984E+02 0.7984E+02 0.5365E-02 0.5365E-02
 0.5988E-02 0.1556E+03 0.5371E+01 0.5405E+04 0.0000E+00 0.6447E+02 0.6261E+02 0.6261E+02 0.5815E-02 0.5815E-02
 0.5989E-02 0.1556E+03 0.5372E+01 0.4743E+05 0.0000E+00 0.5512E+03 0.4239E+03 0.4239E+03 0.4606E-02 0.4606E-02
 0.6000E-02 0.1553E+03 0.5380E+01 0.4720E+05 0.0000E+00 0.5485E+03 0.4221E+03 0.4221E+03 0.4617E-02 0.4617E-02
 0.6500E-02 0.1431E+03 0.5729E+01 0.3815E+05 0.0000E+00 0.4436E+03 0.3489E+03 0.3489E+03 0.5112E-02 0.5112E-02
 0.7000E-02 0.1327E+03 0.6057E+01 0.3132E+05 0.0000E+00 0.3644E+03 0.2919E+03 0.2919E+03 0.5607E-02 0.5607E-02
 0.8000E-02 0.1157E+03 0.6650E+01 0.2196E+05 0.0000E+00 0.2558E+03 0.2109E+03 0.2109E+03 0.6596E-02 0.6596E-02
 0.1000E-01 0.9066E+02 0.7629E+01 0.1193E+05 0.0000E+00 0.1393E+03 0.1193E+03 0.1193E+03 0.8562E-02 0.8562E-02
 0.1250E-01 0.7016E+02 0.8535E+01 0.6369E+04 0.0000E+00 0.7468E+02 0.6572E+02 0.6571E+02 0.1100E-01 0.1100E-01
 0.1500E-01 0.5690E+02 0.9234E+01 0.3814E+04 0.0000E+00 0.4494E+02 0.4015E+02 0.4014E+02 0.1340E-01 0.1340E-01
 0.1750E-01 0.4660E+02 0.9777E+01 0.2445E+04 0.0000E+00 0.2897E+02 0.2611E+02 0.2610E+02 0.1577E-01 0.1576E-01
 0.2000E-01 0.3919E+02 0.1021E+02 0.1663E+04 0.0000E+00 0.1983E+02 0.1795E+02 0.1794E+02 0.1810E-01 0.1809E-01
 0.2500E-01 0.2803E+02 0.1084E+02 0.8625E+03 0.0000E+00 0.1044E+02 0.9450E+01 0.9445E+01 0.2263E-01 0.2262E-01
 0.3000E-01 0.2131E+02 0.1124E+02 0.5044E+03 0.0000E+00 0.6219E+01 0.5583E+01 0.5578E+01 0.2693E-01 0.2691E-01
 0.3500E-01 0.1668E+02 0.1149E+02 0.3184E+03 0.0000E+00 0.4014E+01 0.3552E+01 0.3549E+01 0.3097E-01 0.3094E-01
 0.4000E-01 0.1350E+02 0.1164E+02 0.2138E+03 0.0000E+00 0.2767E+01 0.2401E+01 0.2399E+01 0.3471E-01 0.3468E-01
 0.4500E-01 0.1112E+02 0.1170E+02 0.1501E+03 0.0000E+00 0.2003E+01 0.1697E+01 0.1695E+01 0.3812E-01 0.3808E-01
 0.5000E-01 0.9349E+01 0.1176E+02 0.1094E+03 0.0000E+00 0.1512E+01 0.1245E+01 0.1243E+01 0.4116E-01 0.4111E-01
 0.5500E-01 0.7974E+01 0.1175E+02 0.8207E+02 0.0000E+00 0.1179E+01 0.9396E+00 0.9383E+00 0.4383E-01 0.4377E-01
 0.6000E-01 0.6896E+01 0.1174E+02 0.6313E+02 0.0000E+00 0.9470E+00 0.7279E+00 0.7269E+00 0.4612E-01 0.4605E-01
 0.6500E-01 0.6005E+01 0.1168E+02 0.4958E+02 0.0000E+00 0.7790E+00 0.5763E+00 0.5755E+00 0.4809E-01 0.4802E-01
 0.7000E-01 0.5283E+01 0.1162E+02 0.3964E+02 0.0000E+00 0.6549E+00 0.4652E+00 0.4644E+00 0.4972E-01 0.4964E-01
 0.8000E-01 0.4195E+01 0.1152E+02 0.2649E+02 0.0000E+00 0.4888E+00 0.3179E+00 0.3173E+00 0.5203E-01 0.5194E-01
 0.1000E+00 0.2814E+01 0.1119E+02 0.1352E+02 0.0000E+00 0.3188E+00 0.1730E+00 0.1727E+00 0.5427E-01 0.5416E-01
 0.1250E+00 0.1860E+01 0.1071E+02 0.6920E+01 0.0000E+00 0.2257E+00 0.9987E-01 0.9965E-01 0.5531E-01 0.5519E-01
 0.1500E+00 0.1326E+01 0.1032E+02 0.4004E+01 0.0000E+00 0.1813E+00 0.6819E-01 0.6804E-01 0.5642E-01 0.5629E-01
 0.1750E+00 0.9894E+00 0.9908E+01 0.2533E+01 0.0000E+00 0.1556E+00 0.5253E-01 0.5241E-01 0.5908E-01 0.5894E-01
 0.2000E+00 0.7678E+00 0.9561E+01 0.1704E+01 0.0000E+00 0.1394E+00 0.4399E-01 0.4388E-01 0.6311E-01 0.6296E-01
 0.2500E+00 0.4988E+00 0.8899E+01 0.8880E+00 0.0000E+00 0.1191E+00 0.3581E-01 0.3572E-01 0.7517E-01 0.7498E-01
 0.3000E+00 0.3507E+00 0.8391E+01 0.5214E+00 0.0000E+00 0.1073E+00 0.3249E-01 0.3240E-01 0.9083E-01 0.9058E-01
 0.3500E+00 0.2593E+00 0.7929E+01 0.3356E+00 0.0000E+00 0.9872E-01 0.3080E-01 0.3071E-01 0.1092E+00 0.1089E+00
 0.4000E+00 0.1996E+00 0.7549E+01 0.2291E+00 0.0000E+00 0.9239E-01 0.2989E-01 0.2979E-01 0.1294E+00 0.1290E+00
 0.4500E+00 0.1582E+00 0.7203E+01 0.1647E+00 0.0000E+00 0.8717E-01 0.2929E-01 0.2918E-01 0.1512E+00 0.1506E+00
 0.5000E+00 0.1285E+00 0.6908E+01 0.1226E+00 0.0000E+00 0.8291E-01 0.2885E-01 0.2873E-01 0.1740E+00 0.1733E+00
 0.5500E+00 0.1064E+00 0.6637E+01 0.9430E-01 0.0000E+00 0.7919E-01 0.2849E-01 0.2837E-01 0.1979E+00 0.1970E+00
 0.6000E+00 0.8954E-01 0.6398E+01 0.7421E-01 0.0000E+00 0.7600E-01 0.2820E-01 0.2806E-01 0.2226E+00 0.2215E+00
 0.6500E+00 0.7637E-01 0.6174E+01 0.5986E-01 0.0000E+00 0.7309E-01 0.2789E-01 0.2774E-01 0.2480E+00 0.2467E+00
 0.7000E+00 0.6591E-01 0.5974E+01 0.4905E-01 0.0000E+00 0.7052E-01 0.2760E-01 0.2745E-01 0.2740E+00 0.2725E+00
 0.8000E+00 0.5055E-01 0.5629E+01 0.3427E-01 0.0000E+00 0.6618E-01 0.2710E-01 0.2693E-01 0.3276E+00 0.3255E+00
 0.1000E+01 0.3240E-01 0.5064E+01 0.1916E-01 0.0000E+00 0.5925E-01 0.2608E-01 0.2587E-01 0.4401E+00 0.4367E+00
 0.1022E+01 0.3103E-01 0.5011E+01 0.1843E-01 0.1000E-05 0.5861E-01 0.2597E-01 0.2576E-01 0.4528E+00 0.4492E+00
 0.1250E+01 0.2076E-01 0.4531E+01 0.1285E-01 0.7046E-03 0.5287E-01 0.2487E-01 0.2463E-01 0.5880E+00 0.5823E+00
 0.1500E+01 0.1443E-01 0.4119E+01 0.9266E-02 0.2734E-01 0.4830E-01 0.2383E-01 0.2356E-01 0.7401E+00 0.7316E+00
 0.1750E+01 0.1060E-01 0.3789E+01 0.6962E-02 0.6611E-01 0.4485E-01 0.2298E-01 0.2267E-01 0.8968E+00 0.8847E+00
 0.2000E+01 0.8119E-02 0.3516E+01 0.5534E-02 0.1075E+00 0.4212E-01 0.2230E-01 0.2196E-01 0.1059E+01 0.1043E+01
 0.2044E+01 0.7773E-02 0.3473E+01 0.5352E-02 0.1136E+00 0.4169E-01 0.2219E-01 0.2184E-01 0.1088E+01 0.1071E+01
 0.2500E+01 0.5198E-02 0.3089E+01 0.3959E-02 0.1981E+00 0.3817E-01 0.2133E-01 0.2091E-01 0.1397E+01 0.1369E+01
 0.3000E+01 0.3611E-02 0.2767E+01 0.3057E-02 0.2993E+00 0.3559E-01 0.2083E-01 0.2033E-01 0.1756E+01 0.1714E+01
 0.3500E+01 0.2652E-02 0.2513E+01 0.2492E-02 0.3917E+00 0.3371E-01 0.2052E-01 0.1994E-01 0.2131E+01 0.2071E+01
 0.4000E+01 0.2031E-02 0.2308E+01 0.2088E-02 0.4815E+00 0.3236E-01 0.2040E-01 0.1973E-01 0.2522E+01 0.2439E+01
 0.4500E+01 0.1605E-02 0.2138E+01 0.1779E-02 0.5673E+00 0.3137E-01 0.2041E-01 0.1965E-01 0.2928E+01 0.2819E+01
 0.5000E+01 0.1300E-02 0.1993E+01 0.1553E-02 0.6433E+00 0.3057E-01 0.2045E-01 0.1959E-01 0.3344E+01 0.3205E+01
 0.5500E+01 0.1074E-02 0.1870E+01 0.1386E-02 0.7033E+00 0.2983E-01 0.2044E-01 0.1950E-01 0.3768E+01 0.3595E+01
 0.6000E+01 0.9027E-03 0.1762E+01 0.1249E-02 0.7630E+00 0.2927E-01 0.2049E-01 0.1946E-01 0.4200E+01 0.3988E+01
 0.6500E+01 0.7692E-03 0.1667E+01 0.1135E-02 0.8225E+00 0.2886E-01 0.2061E-01 0.1949E-01 0.4642E+01 0.4389E+01
 0.7000E+01 0.6632E-03 0.1583E+01 0.1038E-02 0.8817E+00 0.2857E-01 0.2078E-01 0.1956E-01 0.5091E+01 0.4792E+01
 0.8000E+01 0.5078E-03 0.1441E+01 0.8851E-03 0.9997E+00 0.2829E-01 0.2125E-01 0.1983E-01 0.6009E+01 0.5606E+01
 0.1000E+02 0.3250E-03 0.1228E+01 0.6777E-03 0.1234E+01 0.2852E-01 0.2256E-01 0.2069E-01 0.7909E+01 0.7256E+01
 0.1250E+02 0.2080E-03 0.1042E+01 0.5352E-03 0.1415E+01 0.2846E-01 0.2347E-01 0.2112E-01 0.1031E+02 0.9275E+01
 0.1500E+02 0.1445E-03 0.9086E+00 0.4413E-03 0.1582E+01 0.2885E-01 0.2454E-01 0.2167E-01 0.1276E+02 0.1127E+02
 0.1750E+02 0.1061E-03 0.8081E+00 0.3749E-03 0.1747E+01 0.2960E-01 0.2579E-01 0.2238E-01 0.1525E+02 0.1323E+02
 0.2000E+02 0.8126E-04 0.7293E+00 0.3255E-03 0.1888E+01 0.3031E-01 0.2688E-01 0.2292E-01 0.1774E+02 0.1512E+02
 0.2500E+02 0.5200E-04 0.6130E+00 0.2571E-03 0.2099E+01 0.3142E-01 0.2857E-01 0.2355E-01 0.2273E+02 0.1874E+02
 0.3000E+02 0.3611E-04 0.5309E+00 0.2120E-03 0.2267E+01 0.3241E-01 0.2996E-01 0.2393E-01 0.2773E+02 0.2215E+02
 0.3500E+02 0.2653E-04 0.4696E+00 0.1801E-03 0.2396E+01 0.3319E-01 0.3105E-01 0.2406E-01 0.3274E+02 0.2537E+02
 0.4000E+02 0.2031E-04 0.4219E+00 0.1564E-03 0.2514E+01 0.3401E-01 0.3210E-01 0.2416E-01 0.3775E+02 0.2841E+02
 0.4500E+02 0.1605E-04 0.3836E+00 0.1380E-03 0.2631E+01 0.3491E-01 0.3317E-01 0.2430E-01 0.4276E+02 0.3132E+02
 0.5000E+02 0.1300E-04 0.3522E+00 0.1235E-03 0.2724E+01 0.3563E-01 0.3404E-01 0.2428E-01 0.4777E+02 0.3408E+02
 0.5500E+02 0.1074E-04 0.3258E+00 0.1116E-03 0.2792E+01 0.3612E-01 0.3466E-01 0.2410E-01 0.5278E+02 0.3669E+02
 0.6000E+02 0.9027E-05 0.3034E+00 0.1018E-03 0.2856E+01 0.3660E-01 0.3525E-01 0.2392E-01 0.5779E+02 0.3921E+02
 0.6500E+02 0.7692E-05 0.2840E+00 0.9354E-04 0.2917E+01 0.3707E-01 0.3581E-01 0.2374E-01 0.6279E+02 0.4162E+02
 0.7000E+02 0.6632E-05 0.2672E+00 0.8649E-04 0.2974E+01 0.3754E-01 0.3636E-01 0.2357E-01 0.6780E+02 0.4394E+02
 0.8000E+02 0.5078E-05 0.2393E+00 0.7510E-04 0.3079E+01 0.3843E-01 0.3738E-01 0.2322E-01 0.7782E+02 0.4833E+02
 0.1000E+03 0.3250E-05 0.1986E+00 0.5931E-04 0.3264E+01 0.4010E-01 0.3924E-01 0.2253E-01 0.9785E+02 0.5619E+02

