
  99  10   1 EUROPI       23-APR-82 19:23:07  HOWERTON DATA           
 0.6300E+02 0.5245E+04 0.1520E+03 0.6300E+02 0.0000E+00 0.3962E+25 0.0000E+00 0.0000E+00
 ENERGY(MEV) COH(M2/ATXE28) INCO.   PHOTO.EL. PAIR PROD.  ATT. (M2/KGXE-1) TRAN.  ABS.     E(TR)      E(ABS)
 0.1000E-02 0.2491E+04 0.1469E+01 0.7169E+06 0.0000E+00 0.2851E+04 0.2841E+04 0.2841E+04 0.9965E-03 0.9965E-03
 0.1127E-02 0.2453E+04 0.1705E+01 0.5232E+06 0.0000E+00 0.2083E+04 0.2074E+04 0.2074E+04 0.1122E-02 0.1122E-02
 0.1128E-02 0.2452E+04 0.1707E+01 0.2106E+07 0.0000E+00 0.8356E+04 0.8349E+04 0.8348E+04 0.1127E-02 0.1127E-02
 0.1157E-02 0.2444E+04 0.1761E+01 0.1970E+07 0.0000E+00 0.7817E+04 0.7810E+04 0.7810E+04 0.1156E-02 0.1156E-02
 0.1158E-02 0.2444E+04 0.1763E+01 0.2904E+07 0.0000E+00 0.1152E+05 0.1151E+05 0.1151E+05 0.1157E-02 0.1157E-02
 0.1250E-02 0.2420E+04 0.1935E+01 0.2374E+07 0.0000E+00 0.9418E+04 0.9410E+04 0.9410E+04 0.1249E-02 0.1249E-02
 0.1480E-02 0.2368E+04 0.2364E+01 0.1521E+07 0.0000E+00 0.6037E+04 0.6029E+04 0.6028E+04 0.1478E-02 0.1478E-02
 0.1481E-02 0.2368E+04 0.2366E+01 0.1995E+07 0.0000E+00 0.7916E+04 0.7905E+04 0.7905E+04 0.1479E-02 0.1479E-02
 0.1612E-02 0.2331E+04 0.2607E+01 0.1595E+07 0.0000E+00 0.6330E+04 0.6322E+04 0.6322E+04 0.1610E-02 0.1610E-02
 0.1613E-02 0.2331E+04 0.2609E+01 0.1773E+07 0.0000E+00 0.7036E+04 0.7027E+04 0.7027E+04 0.1611E-02 0.1611E-02
 0.1750E-02 0.2294E+04 0.2860E+01 0.1430E+07 0.0000E+00 0.5678E+04 0.5668E+04 0.5668E+04 0.1747E-02 0.1747E-02
 0.1799E-02 0.2281E+04 0.2950E+01 0.1330E+07 0.0000E+00 0.5280E+04 0.5271E+04 0.5271E+04 0.1796E-02 0.1796E-02
 0.1800E-02 0.2281E+04 0.2951E+01 0.1408E+07 0.0000E+00 0.5589E+04 0.5580E+04 0.5579E+04 0.1797E-02 0.1797E-02
 0.2000E-02 0.2235E+04 0.3316E+01 0.1067E+07 0.0000E+00 0.4237E+04 0.4229E+04 0.4228E+04 0.1996E-02 0.1996E-02
 0.2500E-02 0.2091E+04 0.4225E+01 0.5926E+06 0.0000E+00 0.2357E+04 0.2349E+04 0.2348E+04 0.2491E-02 0.2491E-02
 0.3000E-02 0.1980E+04 0.5103E+01 0.3665E+06 0.0000E+00 0.1460E+04 0.1452E+04 0.1452E+04 0.2984E-02 0.2984E-02
 0.3500E-02 0.1849E+04 0.5951E+01 0.2441E+06 0.0000E+00 0.9748E+03 0.9676E+03 0.9674E+03 0.3474E-02 0.3474E-02
 0.4000E-02 0.1742E+04 0.6761E+01 0.1717E+06 0.0000E+00 0.6874E+03 0.6805E+03 0.6804E+03 0.3960E-02 0.3959E-02
 0.4500E-02 0.1629E+04 0.7539E+01 0.1259E+06 0.0000E+00 0.5054E+03 0.4989E+03 0.4988E+03 0.4442E-02 0.4441E-02
 0.5000E-02 0.1534E+04 0.8275E+01 0.9539E+05 0.0000E+00 0.3841E+03 0.3780E+03 0.3779E+03 0.4920E-02 0.4919E-02
 0.5500E-02 0.1440E+04 0.8971E+01 0.7420E+05 0.0000E+00 0.2998E+03 0.2941E+03 0.2940E+03 0.5395E-02 0.5394E-02
 0.6000E-02 0.1359E+04 0.9631E+01 0.5900E+05 0.0000E+00 0.2392E+03 0.2338E+03 0.2337E+03 0.5864E-02 0.5863E-02
 0.6500E-02 0.1275E+04 0.1025E+02 0.4778E+05 0.0000E+00 0.1944E+03 0.1893E+03 0.1893E+03 0.6330E-02 0.6328E-02
 0.6976E-02 0.1206E+04 0.1081E+02 0.3966E+05 0.0000E+00 0.1620E+03 0.1572E+03 0.1571E+03 0.6768E-02 0.6766E-02
 0.6977E-02 0.1206E+04 0.1081E+02 0.1080E+06 0.0000E+00 0.4328E+03 0.3737E+03 0.3736E+03 0.6024E-02 0.6023E-02
 0.7617E-02 0.1125E+04 0.1154E+02 0.8553E+05 0.0000E+00 0.3435E+03 0.2996E+03 0.2995E+03 0.6643E-02 0.6641E-02
 0.7618E-02 0.1125E+04 0.1154E+02 0.1205E+06 0.0000E+00 0.4820E+03 0.4220E+03 0.4219E+03 0.6670E-02 0.6668E-02
 0.8000E-02 0.1082E+04 0.1195E+02 0.1058E+06 0.0000E+00 0.4236E+03 0.3729E+03 0.3728E+03 0.7042E-02 0.7040E-02
 0.8051E-02 0.1076E+04 0.1200E+02 0.1040E+06 0.0000E+00 0.4165E+03 0.3668E+03 0.3667E+03 0.7091E-02 0.7089E-02
 0.8052E-02 0.1076E+04 0.1200E+02 0.1206E+06 0.0000E+00 0.4822E+03 0.4253E+03 0.4252E+03 0.7102E-02 0.7100E-02
 0.1000E-01 0.8784E+03 0.1391E+02 0.6755E+05 0.0000E+00 0.2712E+03 0.2440E+03 0.2436E+03 0.8996E-02 0.8983E-02
 0.1250E-01 0.6901E+03 0.1603E+02 0.3694E+05 0.0000E+00 0.1492E+03 0.1361E+03 0.1358E+03 0.1140E-01 0.1138E-01
 0.1500E-01 0.5666E+03 0.1782E+02 0.2256E+05 0.0000E+00 0.9172E+02 0.8414E+02 0.8396E+02 0.1376E-01 0.1373E-01
 0.1750E-01 0.4725E+03 0.1937E+02 0.1480E+05 0.0000E+00 0.6059E+02 0.5567E+02 0.5554E+02 0.1608E-01 0.1604E-01
 0.2000E-01 0.4037E+03 0.2066E+02 0.1027E+05 0.0000E+00 0.4238E+02 0.3890E+02 0.3880E+02 0.1836E-01 0.1831E-01
 0.2500E-01 0.2992E+03 0.2265E+02 0.5540E+04 0.0000E+00 0.2323E+02 0.2119E+02 0.2112E+02 0.2280E-01 0.2273E-01
 0.3000E-01 0.2343E+03 0.2408E+02 0.3346E+04 0.0000E+00 0.1428E+02 0.1287E+02 0.1282E+02 0.2704E-01 0.2694E-01
 0.3500E-01 0.1864E+03 0.2512E+02 0.2174E+04 0.0000E+00 0.9452E+01 0.8401E+01 0.8367E+01 0.3111E-01 0.3098E-01
 0.4000E-01 0.1528E+03 0.2588E+02 0.1496E+04 0.0000E+00 0.6637E+01 0.5806E+01 0.5779E+01 0.3499E-01 0.3483E-01
 0.4500E-01 0.1270E+03 0.2644E+02 0.1073E+04 0.0000E+00 0.4862E+01 0.4179E+01 0.4158E+01 0.3868E-01 0.3848E-01
 0.4852E-01 0.1129E+03 0.2675E+02 0.8682E+03 0.0000E+00 0.3994E+01 0.3387E+01 0.3369E+01 0.4115E-01 0.4093E-01
 0.4852E-01 0.1129E+03 0.2675E+02 0.4943E+04 0.0000E+00 0.2014E+02 0.6123E+01 0.6089E+01 0.1475E-01 0.1467E-01
 0.5000E-01 0.1077E+03 0.2686E+02 0.4573E+04 0.0000E+00 0.1866E+02 0.6038E+01 0.6005E+01 0.1618E-01 0.1609E-01
 0.5500E-01 0.9253E+02 0.2716E+02 0.3558E+04 0.0000E+00 0.1458E+02 0.5556E+01 0.5523E+01 0.2096E-01 0.2083E-01
 0.6000E-01 0.8057E+02 0.2737E+02 0.2830E+04 0.0000E+00 0.1164E+02 0.4986E+01 0.4954E+01 0.2570E-01 0.2553E-01
 0.6500E-01 0.7048E+02 0.2743E+02 0.2279E+04 0.0000E+00 0.9421E+01 0.4406E+01 0.4376E+01 0.3040E-01 0.3019E-01
 0.7000E-01 0.6227E+02 0.2749E+02 0.1865E+04 0.0000E+00 0.7748E+01 0.3881E+01 0.3852E+01 0.3506E-01 0.3480E-01
 0.8000E-01 0.4982E+02 0.2760E+02 0.1300E+04 0.0000E+00 0.5459E+01 0.3017E+01 0.2993E+01 0.4421E-01 0.4386E-01
 0.1000E+00 0.3378E+02 0.2729E+02 0.7020E+03 0.0000E+00 0.3024E+01 0.1869E+01 0.1852E+01 0.6182E-01 0.6124E-01
 0.1250E+00 0.2265E+02 0.2646E+02 0.3765E+03 0.0000E+00 0.1687E+01 0.1112E+01 0.1099E+01 0.8238E-01 0.8146E-01
 0.1500E+00 0.1634E+02 0.2580E+02 0.2263E+03 0.0000E+00 0.1064E+01 0.7171E+00 0.7078E+00 0.1011E+00 0.9979E-01
 0.1750E+00 0.1235E+02 0.2494E+02 0.1473E+03 0.0000E+00 0.7317E+00 0.4930E+00 0.4858E+00 0.1179E+00 0.1162E+00
 0.2000E+00 0.9691E+01 0.2422E+02 0.1016E+03 0.0000E+00 0.5370E+00 0.3571E+00 0.3514E+00 0.1330E+00 0.1309E+00
 0.2500E+00 0.6382E+01 0.2271E+02 0.5530E+02 0.0000E+00 0.3345E+00 0.2126E+00 0.2087E+00 0.1589E+00 0.1560E+00
 0.3000E+00 0.4537E+01 0.2155E+02 0.3364E+02 0.0000E+00 0.2367E+00 0.1421E+00 0.1391E+00 0.1801E+00 0.1763E+00
 0.3500E+00 0.3378E+01 0.2044E+02 0.2245E+02 0.0000E+00 0.1833E+00 0.1045E+00 0.1022E+00 0.1996E+00 0.1951E+00
 0.4000E+00 0.2617E+01 0.1952E+02 0.1581E+02 0.0000E+00 0.1504E+00 0.8182E-01 0.7982E-01 0.2176E+00 0.2123E+00
 0.4500E+00 0.2084E+01 0.1867E+02 0.1176E+02 0.0000E+00 0.1288E+00 0.6763E-01 0.6588E-01 0.2363E+00 0.2302E+00
 0.5000E+00 0.1700E+01 0.1793E+02 0.9019E+01 0.0000E+00 0.1135E+00 0.5793E-01 0.5635E-01 0.2552E+00 0.2482E+00
 0.5500E+00 0.1412E+01 0.1725E+02 0.7165E+01 0.0000E+00 0.1024E+00 0.5127E-01 0.4980E-01 0.2754E+00 0.2675E+00
 0.6000E+00 0.1192E+01 0.1665E+02 0.5808E+01 0.0000E+00 0.9372E-01 0.4625E-01 0.4486E-01 0.2961E+00 0.2872E+00
 0.6500E+00 0.1019E+01 0.1608E+02 0.4842E+01 0.0000E+00 0.8695E-01 0.4259E-01 0.4125E-01 0.3184E+00 0.3084E+00
 0.7000E+00 0.8814E+00 0.1557E+02 0.4091E+01 0.0000E+00 0.8140E-01 0.3970E-01 0.3840E-01 0.3414E+00 0.3302E+00
 0.8000E+00 0.6785E+00 0.1469E+02 0.3020E+01 0.0000E+00 0.7287E-01 0.3544E-01 0.3418E-01 0.3891E+00 0.3753E+00
 0.1000E+01 0.4371E+00 0.1324E+02 0.1891E+01 0.0000E+00 0.6168E-01 0.3046E-01 0.2921E-01 0.4938E+00 0.4735E+00
 0.1022E+01 0.4187E+00 0.1310E+02 0.1816E+01 0.1000E-05 0.6077E-01 0.3009E-01 0.2883E-01 0.5060E+00 0.4849E+00
 0.1250E+01 0.2811E+00 0.1186E+02 0.1251E+01 0.3395E-02 0.5307E-01 0.2703E-01 0.2573E-01 0.6366E+00 0.6061E+00
 0.1500E+01 0.1957E+00 0.1079E+02 0.8929E+00 0.2742E+00 0.4815E-01 0.2502E-01 0.2368E-01 0.7795E+00 0.7378E+00
 0.1750E+01 0.1440E+00 0.9925E+01 0.6653E+00 0.5899E+00 0.4488E-01 0.2384E-01 0.2245E-01 0.9297E+00 0.8755E+00
 0.2000E+01 0.1104E+00 0.9214E+01 0.5243E+00 0.9023E+00 0.4261E-01 0.2322E-01 0.2177E-01 0.1090E+01 0.1022E+01
 0.2044E+01 0.1057E+00 0.9101E+01 0.5060E+00 0.9469E+00 0.4224E-01 0.2312E-01 0.2166E-01 0.1119E+01 0.1048E+01
 0.2500E+01 0.7075E-01 0.8098E+01 0.3678E+00 0.1546E+01 0.3996E-01 0.2297E-01 0.2138E-01 0.1437E+01 0.1337E+01
 0.3000E+01 0.4918E-01 0.7256E+01 0.2795E+00 0.2223E+01 0.3887E-01 0.2353E-01 0.2180E-01 0.1816E+01 0.1683E+01
 0.3500E+01 0.3614E-01 0.6593E+01 0.2250E+00 0.2809E+01 0.3829E-01 0.2429E-01 0.2242E-01 0.2220E+01 0.2049E+01
 0.4000E+01 0.2768E-01 0.6055E+01 0.1864E+00 0.3368E+01 0.3819E-01 0.2524E-01 0.2323E-01 0.2644E+01 0.2433E+01
 0.4500E+01 0.2188E-01 0.5608E+01 0.1572E+00 0.3903E+01 0.3840E-01 0.2633E-01 0.2417E-01 0.3085E+01 0.2832E+01
 0.5000E+01 0.1772E-01 0.5230E+01 0.1361E+00 0.4365E+01 0.3863E-01 0.2732E-01 0.2501E-01 0.3536E+01 0.3237E+01
 0.5500E+01 0.1465E-01 0.4905E+01 0.1206E+00 0.4719E+01 0.3868E-01 0.2808E-01 0.2563E-01 0.3993E+01 0.3645E+01
 0.6000E+01 0.1231E-01 0.4623E+01 0.1080E+00 0.5068E+01 0.3888E-01 0.2889E-01 0.2630E-01 0.4459E+01 0.4058E+01
 0.6500E+01 0.1049E-01 0.4375E+01 0.9751E-01 0.5412E+01 0.3922E-01 0.2975E-01 0.2701E-01 0.4931E+01 0.4476E+01
 0.7000E+01 0.9046E-02 0.4155E+01 0.8875E-01 0.5752E+01 0.3965E-01 0.3064E-01 0.2774E-01 0.5409E+01 0.4898E+01
 0.8000E+01 0.6927E-02 0.3782E+01 0.7490E-01 0.6419E+01 0.4075E-01 0.3249E-01 0.2926E-01 0.6378E+01 0.5744E+01
 0.1000E+02 0.4432E-02 0.3222E+01 0.5641E-01 0.7714E+01 0.4358E-01 0.3640E-01 0.3246E-01 0.8352E+01 0.7448E+01
 0.1250E+02 0.2837E-02 0.2734E+01 0.4438E-01 0.8796E+01 0.4588E-01 0.3975E-01 0.3503E-01 0.1083E+02 0.9543E+01
 0.1500E+02 0.1971E-02 0.2385E+01 0.3648E-01 0.9792E+01 0.4841E-01 0.4302E-01 0.3749E-01 0.1333E+02 0.1162E+02
 0.1750E+02 0.1448E-02 0.2121E+01 0.3091E-01 0.1077E+02 0.5121E-01 0.4635E-01 0.3998E-01 0.1584E+02 0.1366E+02
 0.2000E+02 0.1109E-02 0.1914E+01 0.2678E-01 0.1160E+02 0.5367E-01 0.4924E-01 0.4202E-01 0.1835E+02 0.1566E+02
 0.2500E+02 0.7093E-03 0.1609E+01 0.2107E-01 0.1290E+02 0.5759E-01 0.5384E-01 0.4504E-01 0.2337E+02 0.1955E+02
 0.3000E+02 0.4926E-03 0.1394E+01 0.1732E-01 0.1392E+02 0.6077E-01 0.5749E-01 0.4722E-01 0.2838E+02 0.2331E+02
 0.3500E+02 0.3619E-03 0.1233E+01 0.1467E-01 0.1469E+02 0.6317E-01 0.6026E-01 0.4870E-01 0.3339E+02 0.2698E+02
 0.4000E+02 0.2771E-03 0.1107E+01 0.1271E-01 0.1540E+02 0.6545E-01 0.6283E-01 0.5000E-01 0.3840E+02 0.3056E+02
 0.4500E+02 0.2190E-03 0.1007E+01 0.1120E-01 0.1610E+02 0.6782E-01 0.6544E-01 0.5137E-01 0.4342E+02 0.3409E+02
 0.5000E+02 0.1774E-03 0.9244E+00 0.1000E-01 0.1665E+02 0.6968E-01 0.6749E-01 0.5232E-01 0.4843E+02 0.3755E+02
 0.5500E+02 0.1466E-03 0.8552E+00 0.9027E-02 0.1704E+02 0.7096E-01 0.6893E-01 0.5279E-01 0.5343E+02 0.4092E+02
 0.6000E+02 0.1231E-03 0.7965E+00 0.8221E-02 0.1741E+02 0.7219E-01 0.7031E-01 0.5326E-01 0.5844E+02 0.4426E+02
 0.6500E+02 0.1049E-03 0.7456E+00 0.7543E-02 0.1776E+02 0.7336E-01 0.7160E-01 0.5368E-01 0.6344E+02 0.4756E+02
 0.7000E+02 0.9046E-04 0.7013E+00 0.6966E-02 0.1808E+02 0.7448E-01 0.7283E-01 0.5407E-01 0.6845E+02 0.5082E+02
 0.8000E+02 0.6926E-04 0.6282E+00 0.6035E-02 0.1869E+02 0.7658E-01 0.7511E-01 0.5478E-01 0.7846E+02 0.5723E+02
 0.1000E+03 0.4433E-04 0.5214E+00 0.4748E-02 0.1975E+02 0.8033E-01 0.7910E-01 0.5595E-01 0.9847E+02 0.6965E+02

