
  43  12   5 FAT          28-MAY-82 12:09:16  HOWERTON, MOD. BY JRC   
 0.3106E+01 0.9160E+03 0.5598E+01 0.3106E+01 0.3342E+27 0.1076E+27 0.0000E+00 0.0000E+00
 ENERGY(MEV) COH(M2/ATXE28) INCO.   PHOTO.EL. PAIR PROD.  ATT. (M2/KGXE-1) TRAN.  ABS.     E(TR)      E(ABS)    S(AVG.)    SR(AVG.) 
 0.1000E-02 0.1050E+02 0.1452E+00 0.2503E+05 0.0000E+00 0.2693E+04 0.2692E+04 0.2692E+04 0.9997E-03 0.9997E-03 0.0000E+00 0.0000E+00
 0.1500E-02 0.9499E+01 0.2894E+00 0.8316E+04 0.0000E+00 0.8957E+03 0.8948E+03 0.8951E+03 0.1499E-02 0.1499E-02 0.0000E+00 0.0000E+00
 0.2000E-02 0.8396E+01 0.4454E+00 0.3672E+04 0.0000E+00 0.3959E+03 0.3949E+03 0.3949E+03 0.1995E-02 0.1995E-02 0.0000E+00 0.0000E+00
 0.3000E-02 0.6373E+01 0.7317E+00 0.1117E+04 0.0000E+00 0.1209E+03 0.1201E+03 0.1201E+03 0.2980E-02 0.2980E-02 0.0000E+00 0.0000E+00
 0.4000E-02 0.4863E+01 0.9525E+00 0.4654E+03 0.0000E+00 0.5069E+02 0.5004E+02 0.5004E+02 0.3949E-02 0.3949E-02 0.0000E+00 0.0000E+00
 0.5000E-02 0.3808E+01 0.1113E+01 0.2329E+03 0.0000E+00 0.2559E+02 0.2505E+02 0.2506E+02 0.4896E-02 0.4896E-02 0.0000E+00 0.0000E+00
 0.6000E-02 0.3073E+01 0.1228E+01 0.1312E+03 0.0000E+00 0.1458E+02 0.1411E+02 0.1412E+02 0.5809E-02 0.5809E-02 0.0000E+00 0.0000E+00
 0.8000E-02 0.2164E+01 0.1379E+01 0.5245E+02 0.0000E+00 0.6022E+01 0.5642E+01 0.5643E+01 0.7496E-02 0.7496E-02 0.0000E+00 0.0000E+00
 0.1000E-01 0.1640E+01 0.1475E+01 0.2552E+02 0.0000E+00 0.3081E+01 0.2749E+01 0.2749E+01 0.8921E-02 0.8921E-02 0.0000E+00 0.0000E+00
 0.1500E-01 0.9679E+00 0.1614E+01 0.6793E+01 0.0000E+00 0.1009E+01 0.7359E+00 0.7358E+00 0.1094E-01 0.1094E-01 0.2013E+02 0.1190E+01
 0.2000E-01 0.6406E+00 0.1683E+01 0.2635E+01 0.0000E+00 0.5333E+00 0.2903E+00 0.2903E+00 0.1089E-01 0.1089E-01 0.1739E+02 0.1187E+01
 0.3000E-01 0.3351E+00 0.1726E+01 0.6894E+00 0.0000E+00 0.2959E+00 0.8428E-01 0.8428E-01 0.8546E-02 0.8544E-02 0.1400E+02 0.1183E+01
 0.4000E-01 0.2047E+00 0.1716E+01 0.2664E+00 0.0000E+00 0.2353E+00 0.4143E-01 0.4143E-01 0.7044E-02 0.7043E-02 0.1180E+02 0.1181E+01
 0.5000E-01 0.1375E+00 0.1689E+01 0.1277E+00 0.0000E+00 0.2102E+00 0.2879E-01 0.2879E-01 0.6849E-02 0.6848E-02 0.1027E+02 0.1179E+01
 0.6000E-01 0.9858E-01 0.1654E+01 0.7016E-01 0.0000E+00 0.1961E+00 0.2456E-01 0.2456E-01 0.7514E-02 0.7513E-02 0.9499E+01 0.1179E+01
 0.8000E-01 0.5758E-01 0.1583E+01 0.2747E-01 0.0000E+00 0.1794E+00 0.2317E-01 0.2316E-01 0.1033E-01 0.1033E-01 0.1276E+02 0.1184E+01
 0.1000E+00 0.3761E-01 0.1515E+01 0.1336E-01 0.0000E+00 0.1684E+00 0.2414E-01 0.2413E-01 0.1433E-01 0.1433E-01 0.1388E+02 0.1184E+01
 0.1500E+00 0.1710E-01 0.1371E+01 0.3679E-02 0.0000E+00 0.1497E+00 0.2730E-01 0.2730E-01 0.2736E-01 0.2735E-01 0.1121E+02 0.1181E+01
 0.2000E+00 0.9704E-02 0.1259E+01 0.1502E-02 0.0000E+00 0.1366E+00 0.2955E-01 0.2954E-01 0.4326E-01 0.4324E-01 0.8733E+01 0.1177E+01
 0.3000E+00 0.4341E-02 0.1096E+01 0.4396E-03 0.0000E+00 0.1184E+00 0.3190E-01 0.3187E-01 0.8080E-01 0.8075E-01 0.6139E+01 0.1173E+01
 0.4000E+00 0.2447E-02 0.9831E+00 0.1891E-03 0.0000E+00 0.1060E+00 0.3279E-01 0.3275E-01 0.1237E+00 0.1236E+00 0.4886E+01 0.1170E+01
 0.5000E+00 0.1568E-02 0.8979E+00 0.1000E-03 0.0000E+00 0.9676E-01 0.3300E-01 0.3296E-01 0.1705E+00 0.1703E+00 0.4138E+01 0.1168E+01
 0.6000E+00 0.1090E-02 0.8309E+00 0.6021E-04 0.0000E+00 0.8950E-01 0.3288E-01 0.3283E-01 0.2204E+00 0.2201E+00 0.3669E+01 0.1166E+01
 0.6620E+00 0.9147E-03 0.7967E+00 0.4797E-04 0.0000E+00 0.8581E-01 0.3275E-01 0.3270E-01 0.2527E+00 0.2523E+00 0.3441E+01 0.1165E+01
 0.8000E+00 0.6133E-03 0.7300E+00 0.2772E-04 0.0000E+00 0.7861E-01 0.3211E-01 0.3205E-01 0.3268E+00 0.3261E+00 0.3105E+01 0.1162E+01
 0.1000E+01 0.3925E-03 0.6565E+00 0.1554E-04 0.0000E+00 0.7066E-01 0.3108E-01 0.3100E-01 0.4399E+00 0.4388E+00 0.2785E+01 0.1158E+01
 0.1250E+01 0.2513E-03 0.5871E+00 0.1051E-04 0.5055E-04 0.6318E-01 0.2972E-01 0.2962E-01 0.5880E+00 0.5861E+00 0.2546E+01 0.1154E+01
 0.1500E+01 0.1745E-03 0.5337E+00 0.7637E-05 0.7561E-03 0.5750E-01 0.2842E-01 0.2831E-01 0.7415E+00 0.7385E+00 0.2400E+01 0.1149E+01
 0.2000E+01 0.9815E-04 0.4554E+00 0.4614E-05 0.3095E-02 0.4932E-01 0.2617E-01 0.2602E-01 0.1061E+01 0.1055E+01 0.2233E+01 0.1142E+01
 0.3000E+01 0.4364E-04 0.3582E+00 0.2573E-05 0.8955E-02 0.3950E-01 0.2288E-01 0.2269E-01 0.1738E+01 0.1723E+01 0.2078E+01 0.1128E+01
 0.4000E+01 0.2455E-04 0.2988E+00 0.1782E-05 0.1483E-01 0.3374E-01 0.2070E-01 0.2046E-01 0.2454E+01 0.2426E+01 0.2020E+01 0.1117E+01
 0.5000E+01 0.1571E-04 0.2580E+00 0.1339E-05 0.2018E-01 0.2993E-01 0.1915E-01 0.1887E-01 0.3200E+01 0.3153E+01 0.1989E+01 0.1107E+01
 0.6000E+01 0.1091E-04 0.2281E+00 0.1085E-05 0.2419E-01 0.2714E-01 0.1796E-01 0.1764E-01 0.3971E+01 0.3899E+01 0.1971E+01 0.1099E+01
 0.8000E+01 0.6135E-05 0.1866E+00 0.7786E-06 0.3231E-01 0.2355E-01 0.1643E-01 0.1602E-01 0.5581E+01 0.5442E+01 0.1957E+01 0.1086E+01
 0.1000E+02 0.3927E-05 0.1589E+00 0.6017E-06 0.4055E-01 0.2145E-01 0.1560E-01 0.1510E-01 0.7271E+01 0.7040E+01 0.1960E+01 0.1076E+01
 0.1500E+02 0.1745E-05 0.1176E+00 0.3931E-06 0.5282E-01 0.1833E-01 0.1427E-01 0.1359E-01 0.1168E+02 0.1112E+02 0.1966E+01 0.1057E+01
 0.2000E+02 0.9819E-06 0.9439E-01 0.2907E-06 0.6382E-01 0.1702E-01 0.1389E-01 0.1301E-01 0.1632E+02 0.1529E+02 0.1976E+01 0.1044E+01
 0.3000E+02 0.4364E-06 0.6871E-01 0.1899E-06 0.7777E-01 0.1576E-01 0.1360E-01 0.1236E-01 0.2589E+02 0.2353E+02 0.1996E+01 0.1026E+01
 0.4000E+02 0.2455E-06 0.5461E-01 0.1404E-06 0.8698E-01 0.1523E-01 0.1358E-01 0.1200E-01 0.3567E+02 0.3153E+02 0.2013E+01 0.1013E+01
 0.5000E+02 0.1571E-06 0.4558E-01 0.1111E-06 0.9494E-01 0.1512E-01 0.1378E-01 0.1187E-01 0.4557E+02 0.3925E+02 0.2028E+01 0.1004E+01
 0.6000E+02 0.1083E-06 0.3927E-01 0.9172E-07 0.1002E+00 0.1500E-01 0.1387E-01 0.1165E-01 0.5548E+02 0.4658E+02 0.2040E+01 0.9963E+00
 0.8000E+02 0.6090E-07 0.3097E-01 0.6782E-07 0.1090E+00 0.1506E-01 0.1420E-01 0.1137E-01 0.7544E+02 0.6040E+02 0.2059E+01 0.9858E+00
 0.1000E+03 0.3898E-07 0.2571E-01 0.5365E-07 0.1165E+00 0.1529E-01 0.1459E-01 0.1117E-01 0.9542E+02 0.7304E+02 0.2075E+01 0.9783E+00

