
  43  12   3 LUCITE       06-JAN-82 11:00:09  HOWERTON, MOD. BY JRC   
 0.6460E+01 0.1180E+04 0.6674E+01 0.6462E+01 0.3248E+27 0.9022E+26 0.0000E+00 0.0000E+00
 ENERGY(MEV) COH(M2/ATXE28) INCO.   PHOTO.EL. PAIR PROD.  ATT. (M2/KGXE-1) TRAN.  ABS.     E(TR)      E(ABS)    S(AVG.)    SR(AVG.) 
 0.1000E-02 0.1282E+02 0.1594E+00 0.3089E+05 0.0000E+00 0.2788E+04 0.2787E+04 0.2787E+04 0.9997E-03 0.9997E-03 0.0000E+00 0.0000E+00
 0.1500E-02 0.1160E+02 0.3183E+00 0.1027E+05 0.0000E+00 0.9275E+03 0.9266E+03 0.9269E+03 0.1499E-02 0.1499E-02 0.0000E+00 0.0000E+00
 0.2000E-02 0.1026E+02 0.4914E+00 0.4534E+04 0.0000E+00 0.4100E+03 0.4090E+03 0.4090E+03 0.1995E-02 0.1995E-02 0.0000E+00 0.0000E+00
 0.3000E-02 0.7795E+01 0.8131E+00 0.1371E+04 0.0000E+00 0.1244E+03 0.1237E+03 0.1237E+03 0.2982E-02 0.2982E-02 0.0000E+00 0.0000E+00
 0.4000E-02 0.5953E+01 0.1066E+01 0.5708E+03 0.0000E+00 0.5213E+02 0.5149E+02 0.5149E+02 0.3951E-02 0.3951E-02 0.0000E+00 0.0000E+00
 0.5000E-02 0.4664E+01 0.1251E+01 0.2855E+03 0.0000E+00 0.2629E+02 0.2576E+02 0.2576E+02 0.4899E-02 0.4899E-02 0.0000E+00 0.0000E+00
 0.6000E-02 0.3766E+01 0.1386E+01 0.1608E+03 0.0000E+00 0.1497E+02 0.1451E+02 0.1451E+02 0.5815E-02 0.5815E-02 0.0000E+00 0.0000E+00
 0.8000E-02 0.2653E+01 0.1566E+01 0.6420E+02 0.0000E+00 0.6172E+01 0.5794E+01 0.5794E+01 0.7510E-02 0.7510E-02 0.0000E+00 0.0000E+00
 0.1000E-01 0.2012E+01 0.1681E+01 0.3122E+02 0.0000E+00 0.3151E+01 0.2820E+01 0.2821E+01 0.8952E-02 0.8952E-02 0.0000E+00 0.0000E+00
 0.1500E-01 0.1188E+01 0.1850E+01 0.8300E+01 0.0000E+00 0.1023E+01 0.7539E+00 0.7535E+00 0.1105E-01 0.1105E-01 0.1929E+02 0.1140E+01
 0.2000E-01 0.7869E+00 0.1935E+01 0.3217E+01 0.0000E+00 0.5358E+00 0.2969E+00 0.2968E+00 0.1108E-01 0.1108E-01 0.1667E+02 0.1138E+01
 0.3000E-01 0.4119E+00 0.1992E+01 0.8408E+00 0.0000E+00 0.2927E+00 0.8568E-01 0.8567E-01 0.8782E-02 0.8780E-02 0.1343E+02 0.1135E+01
 0.4000E-01 0.2516E+00 0.1984E+01 0.3246E+00 0.0000E+00 0.2310E+00 0.4170E-01 0.4170E-01 0.7223E-02 0.7222E-02 0.1132E+02 0.1134E+01
 0.5000E-01 0.1690E+00 0.1953E+01 0.1555E+00 0.0000E+00 0.2055E+00 0.2866E-01 0.2866E-01 0.6974E-02 0.6973E-02 0.9865E+01 0.1132E+01
 0.6000E-01 0.1212E+00 0.1915E+01 0.8543E-01 0.0000E+00 0.1914E+00 0.2424E-01 0.2424E-01 0.7600E-02 0.7599E-02 0.9109E+01 0.1132E+01
 0.8000E-01 0.7078E-01 0.1833E+01 0.3342E-01 0.0000E+00 0.1748E+00 0.2267E-01 0.2266E-01 0.1037E-01 0.1037E-01 0.1212E+02 0.1136E+01
 0.1000E+00 0.4624E-01 0.1755E+01 0.1625E-01 0.0000E+00 0.1639E+00 0.2353E-01 0.2352E-01 0.1435E-01 0.1435E-01 0.1324E+02 0.1136E+01
 0.1500E+00 0.2102E-01 0.1588E+01 0.4472E-02 0.0000E+00 0.1456E+00 0.2656E-01 0.2655E-01 0.2736E-01 0.2735E-01 0.1075E+02 0.1133E+01
 0.2000E+00 0.1193E-01 0.1459E+01 0.1825E-02 0.0000E+00 0.1328E+00 0.2873E-01 0.2871E-01 0.4326E-01 0.4324E-01 0.8388E+01 0.1131E+01
 0.3000E+00 0.5336E-02 0.1270E+01 0.5340E-03 0.0000E+00 0.1152E+00 0.3101E-01 0.3100E-01 0.8079E-01 0.8074E-01 0.5903E+01 0.1128E+01
 0.4000E+00 0.3008E-02 0.1139E+01 0.2296E-03 0.0000E+00 0.1031E+00 0.3188E-01 0.3185E-01 0.1237E+00 0.1236E+00 0.4700E+01 0.1125E+01
 0.5000E+00 0.1927E-02 0.1041E+01 0.1214E-03 0.0000E+00 0.9407E-01 0.3208E-01 0.3204E-01 0.1705E+00 0.1703E+00 0.3981E+01 0.1123E+01
 0.6000E+00 0.1339E-02 0.9629E+00 0.7309E-04 0.0000E+00 0.8700E-01 0.3196E-01 0.3191E-01 0.2204E+00 0.2201E+00 0.3530E+01 0.1122E+01
 0.6620E+00 0.1124E-02 0.9233E+00 0.5823E-04 0.0000E+00 0.8341E-01 0.3183E-01 0.3177E-01 0.2526E+00 0.2522E+00 0.3312E+01 0.1120E+01
 0.8000E+00 0.7539E-03 0.8461E+00 0.3364E-04 0.0000E+00 0.7642E-01 0.3122E-01 0.3115E-01 0.3268E+00 0.3261E+00 0.2988E+01 0.1118E+01
 0.1000E+01 0.4824E-03 0.7609E+00 0.1886E-04 0.0000E+00 0.6869E-01 0.3022E-01 0.3013E-01 0.4399E+00 0.4387E+00 0.2680E+01 0.1114E+01
 0.1250E+01 0.3089E-03 0.6804E+00 0.1276E-04 0.6016E-04 0.6141E-01 0.2889E-01 0.2879E-01 0.5880E+00 0.5859E+00 0.2450E+01 0.1110E+01
 0.1500E+01 0.2145E-03 0.6185E+00 0.9270E-05 0.9223E-03 0.5590E-01 0.2763E-01 0.2751E-01 0.7414E+00 0.7382E+00 0.2310E+01 0.1106E+01
 0.2000E+01 0.1206E-03 0.5278E+00 0.5600E-05 0.3775E-02 0.4796E-01 0.2545E-01 0.2530E-01 0.1061E+01 0.1055E+01 0.2149E+01 0.1099E+01
 0.3000E+01 0.5363E-04 0.4151E+00 0.3124E-05 0.1092E-01 0.3845E-01 0.2227E-01 0.2208E-01 0.1738E+01 0.1722E+01 0.2000E+01 0.1085E+01
 0.4000E+01 0.3017E-04 0.3463E+00 0.2163E-05 0.1805E-01 0.3288E-01 0.2018E-01 0.1993E-01 0.2455E+01 0.2425E+01 0.1945E+01 0.1075E+01
 0.5000E+01 0.1931E-04 0.2991E+00 0.1626E-05 0.2455E-01 0.2920E-01 0.1870E-01 0.1841E-01 0.3203E+01 0.3153E+01 0.1915E+01 0.1066E+01
 0.6000E+01 0.1341E-04 0.2643E+00 0.1318E-05 0.2942E-01 0.2651E-01 0.1756E-01 0.1723E-01 0.3976E+01 0.3900E+01 0.1899E+01 0.1058E+01
 0.8000E+01 0.7541E-05 0.2162E+00 0.9455E-06 0.3926E-01 0.2305E-01 0.1611E-01 0.1569E-01 0.5591E+01 0.5445E+01 0.1885E+01 0.1046E+01
 0.1000E+02 0.4827E-05 0.1841E+00 0.7308E-06 0.4924E-01 0.2106E-01 0.1534E-01 0.1484E-01 0.7287E+01 0.7044E+01 0.1889E+01 0.1037E+01
 0.1500E+02 0.2145E-05 0.1363E+00 0.4774E-06 0.6410E-01 0.1808E-01 0.1412E-01 0.1341E-01 0.1171E+02 0.1112E+02 0.1895E+01 0.1019E+01
 0.2000E+02 0.1207E-05 0.1094E+00 0.3530E-06 0.7740E-01 0.1685E-01 0.1379E-01 0.1288E-01 0.1637E+02 0.1529E+02 0.1904E+01 0.1007E+01
 0.3000E+02 0.5363E-06 0.7963E-01 0.2307E-06 0.9427E-01 0.1569E-01 0.1358E-01 0.1230E-01 0.2597E+02 0.2351E+02 0.1924E+01 0.9892E+00
 0.4000E+02 0.3017E-06 0.6329E-01 0.1705E-06 0.1054E+00 0.1522E-01 0.1360E-01 0.1197E-01 0.3576E+02 0.3146E+02 0.1941E+01 0.9770E+00
 0.5000E+02 0.1931E-06 0.5282E-01 0.1349E-06 0.1150E+00 0.1514E-01 0.1383E-01 0.1184E-01 0.4567E+02 0.3912E+02 0.1955E+01 0.9682E+00
 0.6000E+02 0.1334E-06 0.4551E-01 0.1114E-06 0.1213E+00 0.1505E-01 0.1395E-01 0.1163E-01 0.5559E+02 0.4637E+02 0.1967E+01 0.9612E+00
 0.8000E+02 0.7503E-07 0.3590E-01 0.8239E-07 0.1320E+00 0.1515E-01 0.1431E-01 0.1136E-01 0.7555E+02 0.6001E+02 0.1986E+01 0.9511E+00
 0.1000E+03 0.4802E-07 0.2980E-01 0.6518E-07 0.1410E+00 0.1540E-01 0.1472E-01 0.1116E-01 0.9555E+02 0.7246E+02 0.2000E+01 0.9439E+00

