
  8  2   0 PCJIDC   Breast infiltrating ductal carcinoma tissue based on Paul Johns PMB 1987, assumes attenuation is all from photoelectric
 0.000E+00 1.044E+03 0.000E+00 0.0000E+00 0.0000E+00 1.0000E+00 0.0000E+00
 ENERGY(MEV) COH(M2/ATXE28) INCO.   PHOTO.EL. PAIR PROD.  ATT. (M2/KGXE-1) TRAN.  ABS.     E(TR)      E(ABS)    S(AVG.)    SR(AVG.) 
 18.000E-03 0.0000E+00 0.0000E+00 0.5580E+01 0.0000E+00 1.0393E+00 0.0000E+00 0.0000E+00 0.0000E+00 0.0000E+00 0.0000E+00 0.0000E+00
 20.000E-03 0.0000E+00 0.0000E+00 0.4560E+01 0.0000E+00 0.8084E+00 0.0000E+00 0.0000E+00 0.0000E+00 0.0000E+00 0.0000E+00 0.0000E+00
 25.000E-03 0.0000E+00 0.0000E+00 0.3220E+01 0.0000E+00 0.5067E+00 0.0000E+00 0.0000E+00 0.0000E+00 0.0000E+00 0.0000E+00 0.0000E+00
 30.000E-03 0.0000E+00 0.0000E+00 0.2640E+01 0.0000E+00 0.3755E+00 0.0000E+00 0.0000E+00 0.0000E+00 0.0000E+00 0.0000E+00 0.0000E+00
 40.000E-03 0.0000E+00 0.0000E+00 0.2150E+01 0.0000E+00 0.2692E+00 0.0000E+00 0.0000E+00 0.0000E+00 0.0000E+00 0.0000E+00 0.0000E+00
 50.000E-03 0.0000E+00 0.0000E+00 0.1940E+01 0.0000E+00 0.2280E+00 0.0000E+00 0.0000E+00 0.0000E+00 0.0000E+00 0.0000E+00 0.0000E+00
 80.000E-03 0.0000E+00 0.0000E+00 0.1670E+01 0.0000E+00 0.1839E+00 0.0000E+00 0.0000E+00 0.0000E+00 0.0000E+00 0.0000E+00 0.0000E+00
 110.00E-03 0.0000E+00 0.0000E+00 0.1520E+01 0.0000E+00 0.1657E+00 0.0000E+00 0.0000E+00 0.0000E+00 0.0000E+00 0.0000E+00 0.0000E+00
