
  43  12   2 POLYSTYRENE  06-JAN-82 11:02:35  HOWERTON, MOD. BY JRC   
 0.5690E+01 0.1044E+04 0.6510E+01 0.5691E+01 0.3238E+27 0.9251E+26 0.0000E+00 0.0000E+00
 ENERGY(MEV) COH(M2/ATXE28) INCO.   PHOTO.EL. PAIR PROD.  ATT. (M2/KGXE-1) TRAN.  ABS.     E(TR)      E(ABS)    S(AVG.)    SR(AVG.) 
 0.1000E-02 0.1108E+02 0.1685E+00 0.2192E+05 0.0000E+00 0.2028E+04 0.2027E+04 0.2027E+04 0.9995E-03 0.9995E-03 0.0000E+00 0.0000E+00
 0.1500E-02 0.9854E+01 0.3336E+00 0.7066E+04 0.0000E+00 0.6546E+03 0.6538E+03 0.6537E+03 0.1498E-02 0.1498E-02 0.0000E+00 0.0000E+00
 0.2000E-02 0.8552E+01 0.5107E+00 0.3055E+04 0.0000E+00 0.2834E+03 0.2825E+03 0.2825E+03 0.1994E-02 0.1994E-02 0.0000E+00 0.0000E+00
 0.3000E-02 0.6288E+01 0.8331E+00 0.8966E+03 0.0000E+00 0.8361E+02 0.8294E+02 0.8294E+02 0.2976E-02 0.2976E-02 0.0000E+00 0.0000E+00
 0.4000E-02 0.4716E+01 0.1079E+01 0.3659E+03 0.0000E+00 0.3438E+02 0.3385E+02 0.3384E+02 0.3937E-02 0.3937E-02 0.0000E+00 0.0000E+00
 0.5000E-02 0.3676E+01 0.1255E+01 0.1802E+03 0.0000E+00 0.1713E+02 0.1667E+02 0.1667E+02 0.4867E-02 0.4867E-02 0.0000E+00 0.0000E+00
 0.6000E-02 0.2978E+01 0.1379E+01 0.1002E+03 0.0000E+00 0.9672E+01 0.9273E+01 0.9274E+01 0.5753E-02 0.5753E-02 0.0000E+00 0.0000E+00
 0.8000E-02 0.2133E+01 0.1544E+01 0.3927E+02 0.0000E+00 0.3973E+01 0.3636E+01 0.3635E+01 0.7320E-02 0.7320E-02 0.0000E+00 0.0000E+00
 0.1000E-01 0.1644E+01 0.1652E+01 0.1883E+02 0.0000E+00 0.2048E+01 0.1745E+01 0.1746E+01 0.8524E-02 0.8524E-02 0.0000E+00 0.0000E+00
 0.1500E-01 0.9887E+00 0.1816E+01 0.4886E+01 0.0000E+00 0.7115E+00 0.4571E+00 0.4570E+00 0.9636E-02 0.9635E-02 0.1934E+02 0.1143E+01
 0.2000E-01 0.6526E+00 0.1899E+01 0.1863E+01 0.0000E+00 0.4084E+00 0.1791E+00 0.1791E+00 0.8771E-02 0.8770E-02 0.1671E+02 0.1141E+01
 0.3000E-01 0.3385E+00 0.1950E+01 0.4770E+00 0.0000E+00 0.2558E+00 0.5398E-01 0.5397E-01 0.6331E-02 0.6330E-02 0.1346E+02 0.1138E+01
 0.4000E-01 0.2055E+00 0.1938E+01 0.1817E+00 0.0000E+00 0.2151E+00 0.2923E-01 0.2923E-01 0.5436E-02 0.5435E-02 0.1135E+02 0.1136E+01
 0.5000E-01 0.1377E+00 0.1906E+01 0.8626E-01 0.0000E+00 0.1970E+00 0.2259E-01 0.2258E-01 0.5732E-02 0.5731E-02 0.9883E+01 0.1134E+01
 0.6000E-01 0.9849E-01 0.1867E+01 0.4706E-01 0.0000E+00 0.1861E+00 0.2085E-01 0.2084E-01 0.6721E-02 0.6720E-02 0.9355E+01 0.1134E+01
 0.8000E-01 0.5731E-01 0.1785E+01 0.1823E-01 0.0000E+00 0.1722E+00 0.2129E-01 0.2129E-01 0.9892E-02 0.9891E-02 0.1375E+02 0.1140E+01
 0.1000E+00 0.3732E-01 0.1708E+01 0.8806E-02 0.0000E+00 0.1623E+00 0.2282E-01 0.2282E-01 0.1406E-01 0.1406E-01 0.1412E+02 0.1139E+01
 0.1500E+00 0.1690E-01 0.1545E+01 0.2402E-02 0.0000E+00 0.1447E+00 0.2629E-01 0.2628E-01 0.2725E-01 0.2724E-01 0.1089E+02 0.1136E+01
 0.2000E+00 0.9573E-02 0.1419E+01 0.9766E-03 0.0000E+00 0.1322E+00 0.2856E-01 0.2855E-01 0.4321E-01 0.4319E-01 0.8428E+01 0.1133E+01
 0.3000E+00 0.4276E-02 0.1235E+01 0.2849E-03 0.0000E+00 0.1147E+00 0.3089E-01 0.3087E-01 0.8079E-01 0.8074E-01 0.5915E+01 0.1129E+01
 0.4000E+00 0.2409E-02 0.1108E+01 0.1226E-03 0.0000E+00 0.1027E+00 0.3176E-01 0.3173E-01 0.1237E+00 0.1236E+00 0.4707E+01 0.1127E+01
 0.5000E+00 0.1543E-02 0.1012E+01 0.6495E-04 0.0000E+00 0.9374E-01 0.3197E-01 0.3193E-01 0.1705E+00 0.1703E+00 0.3987E+01 0.1125E+01
 0.6000E+00 0.1072E-02 0.9363E+00 0.3919E-04 0.0000E+00 0.8671E-01 0.3186E-01 0.3181E-01 0.2204E+00 0.2201E+00 0.3536E+01 0.1123E+01
 0.6620E+00 0.9004E-03 0.8978E+00 0.3126E-04 0.0000E+00 0.8314E-01 0.3173E-01 0.3169E-01 0.2527E+00 0.2523E+00 0.3317E+01 0.1122E+01
 0.8000E+00 0.6036E-03 0.8225E+00 0.1814E-04 0.0000E+00 0.7617E-01 0.3112E-01 0.3106E-01 0.3268E+00 0.3262E+00 0.2994E+01 0.1120E+01
 0.1000E+01 0.3863E-03 0.7397E+00 0.1023E-04 0.0000E+00 0.6846E-01 0.3012E-01 0.3004E-01 0.4399E+00 0.4388E+00 0.2686E+01 0.1117E+01
 0.1250E+01 0.2472E-03 0.6615E+00 0.6925E-05 0.5674E-04 0.6122E-01 0.2880E-01 0.2871E-01 0.5881E+00 0.5862E+00 0.2455E+01 0.1112E+01
 0.1500E+01 0.1717E-03 0.6014E+00 0.5035E-05 0.8082E-03 0.5571E-01 0.2754E-01 0.2743E-01 0.7415E+00 0.7387E+00 0.2314E+01 0.1108E+01
 0.2000E+01 0.9658E-04 0.5130E+00 0.3045E-05 0.3312E-02 0.4778E-01 0.2535E-01 0.2521E-01 0.1061E+01 0.1055E+01 0.2152E+01 0.1100E+01
 0.3000E+01 0.4294E-04 0.4036E+00 0.1701E-05 0.9596E-02 0.3823E-01 0.2214E-01 0.2195E-01 0.1737E+01 0.1723E+01 0.2002E+01 0.1087E+01
 0.4000E+01 0.2415E-04 0.3367E+00 0.1179E-05 0.1591E-01 0.3263E-01 0.2001E-01 0.1979E-01 0.2453E+01 0.2426E+01 0.1946E+01 0.1075E+01
 0.5000E+01 0.1546E-04 0.2907E+00 0.8865E-06 0.2167E-01 0.2890E-01 0.1848E-01 0.1821E-01 0.3197E+01 0.3151E+01 0.1914E+01 0.1066E+01
 0.6000E+01 0.1073E-04 0.2570E+00 0.7190E-06 0.2600E-01 0.2618E-01 0.1731E-01 0.1701E-01 0.3967E+01 0.3898E+01 0.1898E+01 0.1058E+01
 0.8000E+01 0.6036E-05 0.2102E+00 0.5165E-06 0.3476E-01 0.2266E-01 0.1578E-01 0.1540E-01 0.5571E+01 0.5436E+01 0.1884E+01 0.1045E+01
 0.1000E+02 0.3864E-05 0.1790E+00 0.3996E-06 0.4368E-01 0.2060E-01 0.1495E-01 0.1449E-01 0.7256E+01 0.7032E+01 0.1887E+01 0.1036E+01
 0.1500E+02 0.1717E-05 0.1325E+00 0.2612E-06 0.5696E-01 0.1752E-01 0.1361E-01 0.1297E-01 0.1165E+02 0.1111E+02 0.1893E+01 0.1018E+01
 0.2000E+02 0.9663E-06 0.1063E+00 0.1932E-06 0.6887E-01 0.1621E-01 0.1319E-01 0.1238E-01 0.1628E+02 0.1528E+02 0.1904E+01 0.1006E+01
 0.3000E+02 0.4294E-06 0.7741E-01 0.1263E-06 0.8400E-01 0.1493E-01 0.1285E-01 0.1171E-01 0.2582E+02 0.2352E+02 0.1925E+01 0.9886E+00
 0.4000E+02 0.2415E-06 0.6154E-01 0.9335E-07 0.9396E-01 0.1438E-01 0.1279E-01 0.1134E-01 0.3558E+02 0.3155E+02 0.1942E+01 0.9768E+00
 0.5000E+02 0.1546E-06 0.5136E-01 0.7385E-07 0.1026E+00 0.1424E-01 0.1295E-01 0.1120E-01 0.4547E+02 0.3931E+02 0.1957E+01 0.9683E+00
 0.6000E+02 0.1067E-06 0.4425E-01 0.6100E-07 0.1083E+00 0.1411E-01 0.1302E-01 0.1098E-01 0.5537E+02 0.4669E+02 0.1969E+01 0.9614E+00
 0.8000E+02 0.6000E-07 0.3490E-01 0.4512E-07 0.1179E+00 0.1414E-01 0.1332E-01 0.1072E-01 0.7534E+02 0.6065E+02 0.1989E+01 0.9517E+00
 0.1000E+03 0.3841E-07 0.2897E-01 0.3570E-07 0.1260E+00 0.1433E-01 0.1366E-01 0.1052E-01 0.9529E+02 0.7340E+02 0.2004E+01 0.9446E+00

