
  43  12   2 POLYETHYLEN  06-JAN-82 11:02:20  HOWERTON, MOD. BY JRC   
 0.5440E+01 0.9200E+03 0.4676E+01 0.5440E+01 0.3435E+27 0.1288E+27 0.0000E+00 0.0000E+00
 ENERGY(MEV) COH(M2/ATXE28) INCO.   PHOTO.EL. PAIR PROD.  ATT. (M2/KGXE-1) TRAN.  ABS.     E(TR)      E(ABS)    S(AVG.)    SR(AVG.) 
 0.1000E-02 0.7577E+01 0.1405E+00 0.1461E+05 0.0000E+00 0.1883E+04 0.1882E+04 0.1882E+04 0.9995E-03 0.9995E-03 0.0000E+00 0.0000E+00
 0.1500E-02 0.6736E+01 0.2775E+00 0.4712E+04 0.0000E+00 0.6078E+03 0.6069E+03 0.6070E+03 0.1498E-02 0.1498E-02 0.0000E+00 0.0000E+00
 0.2000E-02 0.5839E+01 0.4233E+00 0.2037E+04 0.0000E+00 0.2631E+03 0.2623E+03 0.2623E+03 0.1994E-02 0.1994E-02 0.0000E+00 0.0000E+00
 0.3000E-02 0.4284E+01 0.6831E+00 0.5979E+03 0.0000E+00 0.7764E+02 0.7699E+02 0.7699E+02 0.2975E-02 0.2975E-02 0.0000E+00 0.0000E+00
 0.4000E-02 0.3206E+01 0.8755E+00 0.2440E+03 0.0000E+00 0.3194E+02 0.3142E+02 0.3141E+02 0.3934E-02 0.3934E-02 0.0000E+00 0.0000E+00
 0.5000E-02 0.2495E+01 0.1010E+01 0.1201E+03 0.0000E+00 0.1593E+02 0.1548E+02 0.1548E+02 0.4859E-02 0.4859E-02 0.0000E+00 0.0000E+00
 0.6000E-02 0.2019E+01 0.1103E+01 0.6682E+02 0.0000E+00 0.9006E+01 0.8608E+01 0.8608E+01 0.5735E-02 0.5735E-02 0.3947E+02 0.1266E+01
 0.8000E-02 0.1442E+01 0.1224E+01 0.2619E+02 0.0000E+00 0.3716E+01 0.3375E+01 0.3376E+01 0.7267E-02 0.7267E-02 0.3466E+02 0.1261E+01
 0.1000E-01 0.1110E+01 0.1301E+01 0.1256E+02 0.0000E+00 0.1928E+01 0.1621E+01 0.1620E+01 0.8405E-02 0.8405E-02 0.3104E+02 0.1258E+01
 0.1500E-01 0.6656E+00 0.1414E+01 0.3257E+01 0.0000E+00 0.6874E+00 0.4250E+00 0.4250E+00 0.9274E-02 0.9273E-02 0.2511E+02 0.1252E+01
 0.2000E-01 0.4388E+00 0.1469E+01 0.1242E+01 0.0000E+00 0.4056E+00 0.1672E+00 0.1672E+00 0.8245E-02 0.8244E-02 0.2113E+02 0.1248E+01
 0.3000E-01 0.2273E+00 0.1497E+01 0.3180E+00 0.0000E+00 0.2631E+00 0.5144E-01 0.5145E-01 0.5867E-02 0.5866E-02 0.1638E+02 0.1243E+01
 0.4000E-01 0.1380E+00 0.1484E+01 0.1212E+00 0.0000E+00 0.2245E+00 0.2879E-01 0.2879E-01 0.5131E-02 0.5130E-02 0.1364E+02 0.1239E+01
 0.5000E-01 0.9239E-01 0.1457E+01 0.5751E-01 0.0000E+00 0.2070E+00 0.2291E-01 0.2291E-01 0.5535E-02 0.5535E-02 0.1487E+02 0.1244E+01
 0.6000E-01 0.6609E-01 0.1426E+01 0.3138E-01 0.0000E+00 0.1962E+00 0.2155E-01 0.2154E-01 0.6589E-02 0.6589E-02 0.1812E+02 0.1250E+01
 0.8000E-01 0.3845E-01 0.1362E+01 0.1216E-01 0.0000E+00 0.1820E+00 0.2236E-01 0.2236E-01 0.9828E-02 0.9827E-02 0.2077E+02 0.1250E+01
 0.1000E+00 0.2503E-01 0.1303E+01 0.5871E-02 0.0000E+00 0.1718E+00 0.2410E-01 0.2410E-01 0.1403E-01 0.1403E-01 0.1896E+02 0.1247E+01
 0.1500E+00 0.1133E-01 0.1178E+01 0.1602E-02 0.0000E+00 0.1534E+00 0.2786E-01 0.2786E-01 0.2725E-01 0.2724E-01 0.1337E+02 0.1240E+01
 0.2000E+00 0.6420E-02 0.1081E+01 0.6511E-03 0.0000E+00 0.1401E+00 0.3029E-01 0.3027E-01 0.4322E-01 0.4321E-01 0.9988E+01 0.1234E+01
 0.3000E+00 0.2868E-02 0.9413E+00 0.1900E-03 0.0000E+00 0.1216E+00 0.3276E-01 0.3273E-01 0.8080E-01 0.8076E-01 0.6746E+01 0.1227E+01
 0.4000E+00 0.1616E-02 0.8442E+00 0.8171E-04 0.0000E+00 0.1089E+00 0.3369E-01 0.3365E-01 0.1237E+00 0.1236E+00 0.5253E+01 0.1223E+01
 0.5000E+00 0.1035E-02 0.7709E+00 0.4331E-04 0.0000E+00 0.9943E-01 0.3391E-01 0.3387E-01 0.1705E+00 0.1703E+00 0.4421E+01 0.1219E+01
 0.6000E+00 0.7192E-03 0.7134E+00 0.2613E-04 0.0000E+00 0.9197E-01 0.3379E-01 0.3374E-01 0.2204E+00 0.2201E+00 0.3908E+01 0.1217E+01
 0.6620E+00 0.6039E-03 0.6841E+00 0.2084E-04 0.0000E+00 0.8818E-01 0.3366E-01 0.3361E-01 0.2527E+00 0.2524E+00 0.3655E+01 0.1215E+01
 0.8000E+00 0.4048E-03 0.6267E+00 0.1209E-04 0.0000E+00 0.8079E-01 0.3301E-01 0.3295E-01 0.3268E+00 0.3262E+00 0.3266E+01 0.1211E+01
 0.1000E+01 0.2590E-03 0.5636E+00 0.6821E-05 0.0000E+00 0.7262E-01 0.3195E-01 0.3188E-01 0.4399E+00 0.4389E+00 0.2928E+01 0.1207E+01
 0.1250E+01 0.1658E-03 0.5040E+00 0.4617E-05 0.4098E-04 0.6493E-01 0.3055E-01 0.3046E-01 0.5881E+00 0.5864E+00 0.2664E+01 0.1201E+01
 0.1500E+01 0.1152E-03 0.4582E+00 0.3357E-05 0.5533E-03 0.5909E-01 0.2921E-01 0.2911E-01 0.7416E+00 0.7391E+00 0.2510E+01 0.1196E+01
 0.2000E+01 0.6477E-04 0.3909E+00 0.2030E-05 0.2267E-02 0.5065E-01 0.2687E-01 0.2674E-01 0.1061E+01 0.1056E+01 0.2324E+01 0.1186E+01
 0.3000E+01 0.2880E-04 0.3075E+00 0.1134E-05 0.6581E-02 0.4046E-01 0.2342E-01 0.2326E-01 0.1737E+01 0.1725E+01 0.2158E+01 0.1169E+01
 0.4000E+01 0.1620E-04 0.2565E+00 0.7857E-06 0.1094E-01 0.3445E-01 0.2111E-01 0.2090E-01 0.2450E+01 0.2427E+01 0.2089E+01 0.1156E+01
 0.5000E+01 0.1037E-04 0.2215E+00 0.5910E-06 0.1493E-01 0.3045E-01 0.1944E-01 0.1921E-01 0.3192E+01 0.3154E+01 0.2060E+01 0.1145E+01
 0.6000E+01 0.7199E-05 0.1958E+00 0.4793E-06 0.1792E-01 0.2753E-01 0.1816E-01 0.1790E-01 0.3958E+01 0.3901E+01 0.2041E+01 0.1136E+01
 0.8000E+01 0.4048E-05 0.1602E+00 0.3443E-06 0.2401E-01 0.2372E-01 0.1646E-01 0.1615E-01 0.5552E+01 0.5446E+01 0.2025E+01 0.1121E+01
 0.1000E+02 0.2591E-05 0.1364E+00 0.2664E-06 0.3022E-01 0.2146E-01 0.1550E-01 0.1513E-01 0.7224E+01 0.7051E+01 0.2021E+01 0.1109E+01
 0.1500E+02 0.1152E-05 0.1010E+00 0.1741E-06 0.3948E-01 0.1808E-01 0.1396E-01 0.1346E-01 0.1158E+02 0.1116E+02 0.2026E+01 0.1089E+01
 0.2000E+02 0.6480E-06 0.8103E-01 0.1288E-06 0.4779E-01 0.1659E-01 0.1342E-01 0.1279E-01 0.1618E+02 0.1541E+02 0.2035E+01 0.1075E+01
 0.3000E+02 0.2880E-06 0.5898E-01 0.8417E-07 0.5837E-01 0.1511E-01 0.1293E-01 0.1203E-01 0.2567E+02 0.2389E+02 0.2056E+01 0.1055E+01
 0.4000E+02 0.1620E-06 0.4689E-01 0.6223E-07 0.6534E-01 0.1445E-01 0.1279E-01 0.1163E-01 0.3539E+02 0.3220E+02 0.2074E+01 0.1042E+01
 0.5000E+02 0.1037E-06 0.3913E-01 0.4923E-07 0.7140E-01 0.1424E-01 0.1288E-01 0.1148E-01 0.4526E+02 0.4031E+02 0.2088E+01 0.1032E+01
 0.6000E+02 0.7113E-07 0.3371E-01 0.4067E-07 0.7538E-01 0.1405E-01 0.1292E-01 0.1125E-01 0.5514E+02 0.4805E+02 0.2101E+01 0.1024E+01
 0.8000E+02 0.4000E-07 0.2659E-01 0.3008E-07 0.8217E-01 0.1401E-01 0.1315E-01 0.1099E-01 0.7508E+02 0.6277E+02 0.2121E+01 0.1013E+01
 0.1000E+03 0.2561E-07 0.2207E-01 0.2380E-07 0.8788E-01 0.1416E-01 0.1345E-01 0.1081E-01 0.9502E+02 0.7631E+02 0.2136E+01 0.1006E+01

