
  98  10   1 THORIU       23-APR-82 20:47:34  HOWERTON DATA           
 0.9000E+02 0.1166E+05 0.2320E+03 0.9000E+02 0.0000E+00 0.2596E+25 0.0000E+00 0.0000E+00
 ENERGY(MEV) COH(M2/ATXE28) INCO.   PHOTO.EL. PAIR PROD.  ATT. (M2/KGXE-1) TRAN.  ABS.     E(TR)      E(ABS)
 0.1000E-02 0.5093E+04 0.1854E+01 0.2544E+07 0.0000E+00 0.6616E+04 0.6603E+04 0.6603E+04 0.9980E-03 0.9980E-03
 0.1250E-02 0.4951E+04 0.2451E+01 0.1661E+07 0.0000E+00 0.4323E+04 0.4309E+04 0.4309E+04 0.1246E-02 0.1246E-02
 0.1329E-02 0.4912E+04 0.2640E+01 0.1477E+07 0.0000E+00 0.3846E+04 0.3834E+04 0.3834E+04 0.1325E-02 0.1325E-02
 0.1330E-02 0.4912E+04 0.2642E+01 0.1510E+07 0.0000E+00 0.3932E+04 0.3920E+04 0.3920E+04 0.1326E-02 0.1326E-02
 0.1750E-02 0.4696E+04 0.3622E+01 0.8937E+06 0.0000E+00 0.2332E+04 0.2320E+04 0.2320E+04 0.1741E-02 0.1741E-02
 0.2000E-02 0.4578E+04 0.4195E+01 0.6923E+06 0.0000E+00 0.1809E+04 0.1797E+04 0.1797E+04 0.1987E-02 0.1987E-02
 0.2500E-02 0.4300E+04 0.5317E+01 0.4519E+06 0.0000E+00 0.1184E+04 0.1173E+04 0.1173E+04 0.2476E-02 0.2476E-02
 0.3000E-02 0.4085E+04 0.6402E+01 0.3189E+06 0.0000E+00 0.8383E+03 0.8277E+03 0.8277E+03 0.2962E-02 0.2962E-02
 0.3331E-02 0.3921E+04 0.7106E+01 0.2610E+06 0.0000E+00 0.6876E+03 0.6775E+03 0.6775E+03 0.3282E-02 0.3282E-02
 0.3332E-02 0.3920E+04 0.7108E+01 0.4992E+06 0.0000E+00 0.1306E+04 0.1226E+04 0.1226E+04 0.3128E-02 0.3128E-02
 0.3490E-02 0.3849E+04 0.7435E+01 0.4429E+06 0.0000E+00 0.1159E+04 0.1090E+04 0.1090E+04 0.3282E-02 0.3282E-02
 0.3491E-02 0.3849E+04 0.7437E+01 0.6025E+06 0.0000E+00 0.1574E+04 0.1483E+04 0.1483E+04 0.3290E-02 0.3290E-02
 0.4000E-02 0.3649E+04 0.8458E+01 0.4238E+06 0.0000E+00 0.1109E+04 0.1050E+04 0.1050E+04 0.3788E-02 0.3788E-02
 0.4045E-02 0.3629E+04 0.8547E+01 0.4117E+06 0.0000E+00 0.1078E+04 0.1021E+04 0.1021E+04 0.3831E-02 0.3831E-02
 0.4046E-02 0.3629E+04 0.8549E+01 0.5552E+06 0.0000E+00 0.1450E+04 0.1377E+04 0.1377E+04 0.3841E-02 0.3841E-02
 0.4500E-02 0.3447E+04 0.9415E+01 0.4217E+06 0.0000E+00 0.1103E+04 0.1050E+04 0.1050E+04 0.4285E-02 0.4285E-02
 0.4830E-02 0.3331E+04 0.1002E+02 0.3512E+06 0.0000E+00 0.9202E+03 0.8777E+03 0.8777E+03 0.4607E-02 0.4607E-02
 0.4831E-02 0.3331E+04 0.1002E+02 0.3998E+06 0.0000E+00 0.1046E+04 0.9988E+03 0.9988E+03 0.4613E-02 0.4613E-02
 0.5000E-02 0.3276E+04 0.1032E+02 0.3658E+06 0.0000E+00 0.9579E+03 0.9152E+03 0.9152E+03 0.4777E-02 0.4777E-02
 0.5181E-02 0.3211E+04 0.1063E+02 0.3336E+06 0.0000E+00 0.8742E+03 0.8359E+03 0.8359E+03 0.4954E-02 0.4954E-02
 0.5182E-02 0.3211E+04 0.1063E+02 0.3602E+06 0.0000E+00 0.9432E+03 0.9024E+03 0.9024E+03 0.4958E-02 0.4958E-02
 0.6000E-02 0.2956E+04 0.1197E+02 0.2466E+06 0.0000E+00 0.6477E+03 0.6208E+03 0.6208E+03 0.5751E-02 0.5751E-02
 0.6500E-02 0.2800E+04 0.1273E+02 0.2005E+06 0.0000E+00 0.5277E+03 0.5060E+03 0.5060E+03 0.6233E-02 0.6233E-02
 0.7000E-02 0.2663E+04 0.1346E+02 0.1655E+06 0.0000E+00 0.4366E+03 0.4186E+03 0.4186E+03 0.6712E-02 0.6712E-02
 0.8000E-02 0.2433E+04 0.1486E+02 0.1172E+06 0.0000E+00 0.3105E+03 0.2973E+03 0.2973E+03 0.7660E-02 0.7660E-02
 0.1000E-01 0.2028E+04 0.1741E+02 0.6581E+05 0.0000E+00 0.1761E+03 0.1677E+03 0.1677E+03 0.9524E-02 0.9523E-02
 0.1250E-01 0.1631E+04 0.2018E+02 0.3696E+05 0.0000E+00 0.1002E+03 0.9451E+02 0.9445E+02 0.1179E-01 0.1178E-01
 0.1500E-01 0.1364E+04 0.2249E+02 0.2307E+05 0.0000E+00 0.6347E+02 0.5915E+02 0.5909E+02 0.1398E-01 0.1396E-01
 0.1630E-01 0.1237E+04 0.2352E+02 0.1861E+05 0.0000E+00 0.5157E+02 0.4777E+02 0.4771E+02 0.1510E-01 0.1508E-01
 0.1630E-01 0.1237E+04 0.2352E+02 0.4443E+05 0.0000E+00 0.1186E+03 0.7473E+02 0.7463E+02 0.1027E-01 0.1026E-01
 0.1969E-01 0.9907E+03 0.2587E+02 0.2688E+05 0.0000E+00 0.7240E+02 0.4942E+02 0.4933E+02 0.1344E-01 0.1342E-01
 0.1969E-01 0.9906E+03 0.2587E+02 0.3790E+05 0.0000E+00 0.1010E+03 0.6971E+02 0.6958E+02 0.1359E-01 0.1356E-01
 0.2047E-01 0.9430E+03 0.2634E+02 0.3419E+05 0.0000E+00 0.9125E+02 0.6383E+02 0.6371E+02 0.1432E-01 0.1429E-01
 0.2047E-01 0.9430E+03 0.2634E+02 0.3966E+05 0.0000E+00 0.1054E+03 0.7404E+02 0.7390E+02 0.1438E-01 0.1435E-01
 0.2500E-01 0.7219E+03 0.2876E+02 0.2329E+05 0.0000E+00 0.6239E+02 0.4657E+02 0.4645E+02 0.1866E-01 0.1861E-01
 0.3000E-01 0.5658E+03 0.3086E+02 0.1433E+05 0.0000E+00 0.3874E+02 0.3009E+02 0.2999E+02 0.2330E-01 0.2322E-01
 0.3500E-01 0.4549E+03 0.3253E+02 0.9496E+04 0.0000E+00 0.2591E+02 0.2061E+02 0.2053E+02 0.2784E-01 0.2773E-01
 0.4000E-01 0.3766E+03 0.3383E+02 0.6649E+04 0.0000E+00 0.1832E+02 0.1478E+02 0.1472E+02 0.3228E-01 0.3213E-01
 0.4500E-01 0.3150E+03 0.3483E+02 0.4853E+04 0.0000E+00 0.1350E+02 0.1099E+02 0.1094E+02 0.3665E-01 0.3646E-01
 0.5000E-01 0.2684E+03 0.3560E+02 0.3662E+04 0.0000E+00 0.1029E+02 0.8419E+01 0.8370E+01 0.4091E-01 0.4067E-01
 0.5500E-01 0.2305E+03 0.3618E+02 0.2837E+04 0.0000E+00 0.8056E+01 0.6604E+01 0.6562E+01 0.4509E-01 0.4480E-01
 0.6000E-01 0.2006E+03 0.3662E+02 0.2248E+04 0.0000E+00 0.6450E+01 0.5286E+01 0.5249E+01 0.4917E-01 0.4883E-01
 0.6500E-01 0.1756E+03 0.3683E+02 0.1814E+04 0.0000E+00 0.5260E+01 0.4303E+01 0.4271E+01 0.5318E-01 0.5278E-01
 0.7000E-01 0.1553E+03 0.3703E+02 0.1487E+04 0.0000E+00 0.4359E+01 0.3554E+01 0.3525E+01 0.5708E-01 0.5661E-01
 0.8000E-01 0.1244E+03 0.3739E+02 0.1040E+04 0.0000E+00 0.3119E+01 0.2518E+01 0.2494E+01 0.6458E-01 0.6398E-01
 0.1000E+00 0.8525E+02 0.3733E+02 0.5714E+03 0.0000E+00 0.1801E+01 0.1412E+01 0.1396E+01 0.7842E-01 0.7753E-01
 0.1096E+00 0.7242E+02 0.3698E+02 0.4461E+03 0.0000E+00 0.1442E+01 0.1113E+01 0.1099E+01 0.8460E-01 0.8356E-01
 0.1096E+00 0.7241E+02 0.3698E+02 0.1959E+04 0.0000E+00 0.5368E+01 0.1526E+01 0.1507E+01 0.3116E-01 0.3077E-01
 0.1250E+00 0.5741E+02 0.3649E+02 0.1390E+04 0.0000E+00 0.3851E+01 0.1399E+01 0.1380E+01 0.4542E-01 0.4479E-01
 0.1500E+00 0.4157E+02 0.3582E+02 0.8624E+03 0.0000E+00 0.2439E+01 0.1106E+01 0.1088E+01 0.6802E-01 0.6690E-01
 0.1750E+00 0.3145E+02 0.3475E+02 0.5771E+03 0.0000E+00 0.1670E+01 0.8572E+00 0.8413E+00 0.8983E-01 0.8816E-01
 0.2000E+00 0.2470E+02 0.3385E+02 0.4075E+03 0.0000E+00 0.1210E+01 0.6703E+00 0.6564E+00 0.1108E+00 0.1085E+00
 0.2500E+00 0.1639E+02 0.3188E+02 0.2305E+03 0.0000E+00 0.7235E+00 0.4350E+00 0.4243E+00 0.1503E+00 0.1466E+00
 0.3000E+00 0.1173E+02 0.3035E+02 0.1447E+03 0.0000E+00 0.4848E+00 0.3011E+00 0.2926E+00 0.1863E+00 0.1811E+00
 0.3500E+00 0.8786E+01 0.2884E+02 0.9901E+02 0.0000E+00 0.3546E+00 0.2228E+00 0.2159E+00 0.2199E+00 0.2131E+00
 0.4000E+00 0.6842E+01 0.2760E+02 0.7128E+02 0.0000E+00 0.2744E+00 0.1720E+00 0.1662E+00 0.2508E+00 0.2423E+00
 0.4500E+00 0.5469E+01 0.2642E+02 0.5392E+02 0.0000E+00 0.2227E+00 0.1388E+00 0.1338E+00 0.2805E+00 0.2703E+00
 0.5000E+00 0.4477E+01 0.2541E+02 0.4201E+02 0.0000E+00 0.1866E+00 0.1152E+00 0.1107E+00 0.3086E+00 0.2966E+00
 0.5500E+00 0.3729E+01 0.2446E+02 0.3380E+02 0.0000E+00 0.1609E+00 0.9835E-01 0.9431E-01 0.3362E+00 0.3224E+00
 0.6000E+00 0.3156E+01 0.2363E+02 0.2772E+02 0.0000E+00 0.1415E+00 0.8561E-01 0.8191E-01 0.3630E+00 0.3473E+00
 0.6500E+00 0.2704E+01 0.2283E+02 0.2332E+02 0.0000E+00 0.1268E+00 0.7612E-01 0.7268E-01 0.3902E+00 0.3726E+00
 0.7000E+00 0.2343E+01 0.2212E+02 0.1988E+02 0.0000E+00 0.1151E+00 0.6858E-01 0.6535E-01 0.4171E+00 0.3975E+00
 0.8000E+00 0.1810E+01 0.2089E+02 0.1490E+02 0.0000E+00 0.9758E-01 0.5734E-01 0.5443E-01 0.4701E+00 0.4463E+00
 0.1000E+01 0.1172E+01 0.1884E+02 0.9524E+01 0.0000E+00 0.7666E-01 0.4451E-01 0.4195E-01 0.5806E+00 0.5472E+00
 0.1022E+01 0.1123E+01 0.1865E+02 0.9145E+01 0.1000E-05 0.7505E-01 0.4356E-01 0.4102E-01 0.5932E+00 0.5586E+00
 0.1250E+01 0.7570E+00 0.1689E+02 0.6280E+01 0.6582E-02 0.6212E-01 0.3605E-01 0.3370E-01 0.7255E+00 0.6781E+00
 0.1500E+01 0.5288E+00 0.1538E+02 0.4469E+01 0.7191E+00 0.5474E-01 0.3144E-01 0.2917E-01 0.8614E+00 0.7994E+00
 0.1750E+01 0.3899E+00 0.1415E+02 0.3325E+01 0.1456E+01 0.5015E-01 0.2880E-01 0.2655E-01 0.1005E+01 0.9264E+00
 0.2000E+01 0.2993E+00 0.1314E+02 0.2613E+01 0.2147E+01 0.4724E-01 0.2742E-01 0.2510E-01 0.1161E+01 0.1063E+01
 0.2044E+01 0.2867E+00 0.1298E+02 0.2520E+01 0.2242E+01 0.4680E-01 0.2725E-01 0.2491E-01 0.1190E+01 0.1088E+01
 0.2500E+01 0.1922E+00 0.1155E+02 0.1819E+01 0.3497E+01 0.4428E-01 0.2669E-01 0.2411E-01 0.1507E+01 0.1361E+01
 0.3000E+01 0.1338E+00 0.1036E+02 0.1370E+01 0.4847E+01 0.4336E-01 0.2730E-01 0.2435E-01 0.1889E+01 0.1685E+01
 0.3500E+01 0.9841E-01 0.9411E+01 0.1092E+01 0.5971E+01 0.4301E-01 0.2826E-01 0.2488E-01 0.2300E+01 0.2025E+01
 0.4000E+01 0.7541E-01 0.8644E+01 0.8970E+00 0.7008E+01 0.4315E-01 0.2946E-01 0.2561E-01 0.2731E+01 0.2374E+01
 0.4500E+01 0.5962E-01 0.8007E+01 0.7499E+00 0.7961E+01 0.4354E-01 0.3074E-01 0.2639E-01 0.3177E+01 0.2728E+01
 0.5000E+01 0.4831E-01 0.7468E+01 0.6457E+00 0.8777E+01 0.4396E-01 0.3196E-01 0.2711E-01 0.3635E+01 0.3083E+01
 0.5500E+01 0.3994E-01 0.7005E+01 0.5712E+00 0.9406E+01 0.4418E-01 0.3292E-01 0.2758E-01 0.4098E+01 0.3434E+01
 0.6000E+01 0.3357E-01 0.6602E+01 0.5107E+00 0.1002E+02 0.4455E-01 0.3392E-01 0.2809E-01 0.4569E+01 0.3784E+01
 0.6500E+01 0.2862E-01 0.6248E+01 0.4607E+00 0.1062E+02 0.4505E-01 0.3497E-01 0.2863E-01 0.5046E+01 0.4131E+01
 0.7000E+01 0.2468E-01 0.5935E+01 0.4188E+00 0.1121E+02 0.4564E-01 0.3604E-01 0.2918E-01 0.5527E+01 0.4475E+01
 0.8000E+01 0.1890E-01 0.5402E+01 0.3527E+00 0.1235E+02 0.4705E-01 0.3823E-01 0.3029E-01 0.6501E+01 0.5149E+01
 0.1000E+02 0.1210E-01 0.4602E+01 0.2647E+00 0.1454E+02 0.5039E-01 0.4272E-01 0.3248E-01 0.8478E+01 0.6446E+01
 0.1250E+02 0.7746E-02 0.3905E+01 0.2079E+00 0.1651E+02 0.5355E-01 0.4695E-01 0.3402E-01 0.1096E+02 0.7940E+01
 0.1500E+02 0.5379E-02 0.3406E+01 0.1707E+00 0.1832E+02 0.5684E-01 0.5100E-01 0.3525E-01 0.1346E+02 0.9303E+01
 0.1750E+02 0.3952E-02 0.3030E+01 0.1445E+00 0.2007E+02 0.6033E-01 0.5506E-01 0.3630E-01 0.1597E+02 0.1053E+02
 0.2000E+02 0.3026E-02 0.2734E+01 0.1251E+00 0.2159E+02 0.6345E-01 0.5863E-01 0.3681E-01 0.1848E+02 0.1160E+02
 0.2500E+02 0.1936E-02 0.2298E+01 0.9824E-01 0.2409E+02 0.6874E-01 0.6462E-01 0.3664E-01 0.2350E+02 0.1332E+02
 0.3000E+02 0.1345E-02 0.1991E+01 0.8066E-01 0.2604E+02 0.7295E-01 0.6933E-01 0.3516E-01 0.2851E+02 0.1446E+02
 0.3500E+02 0.9880E-03 0.1761E+01 0.6828E-01 0.2748E+02 0.7608E-01 0.7286E-01 0.3268E-01 0.3352E+02 0.1503E+02
 0.4000E+02 0.7564E-03 0.1582E+01 0.5910E-01 0.2880E+02 0.7902E-01 0.7612E-01 0.2971E-01 0.3853E+02 0.1504E+02
 0.4500E+02 0.5977E-03 0.1438E+01 0.5203E-01 0.3012E+02 0.8203E-01 0.7937E-01 0.2647E-01 0.4354E+02 0.1452E+02
 0.5000E+02 0.4841E-03 0.1321E+01 0.4643E-01 0.3115E+02 0.8440E-01 0.8195E-01 0.2268E-01 0.4855E+02 0.1343E+02
 0.5500E+02 0.4001E-03 0.1222E+01 0.4188E-01 0.3189E+02 0.8605E-01 0.8380E-01 0.1843E-01 0.5356E+02 0.1178E+02
 0.6000E+02 0.3362E-03 0.1138E+01 0.3812E-01 0.3258E+02 0.8762E-01 0.8552E-01 0.1400E-01 0.5856E+02 0.9585E+01
 0.6500E+02 0.2865E-03 0.1065E+01 0.3496E-01 0.3323E+02 0.8911E-01 0.8714E-01 0.9416E-02 0.6356E+02 0.6868E+01
 0.7000E+02 0.2470E-03 0.1002E+01 0.3227E-01 0.3385E+02 0.9053E-01 0.8868E-01 0.4685E-02 0.6857E+02 0.3623E+01
 0.8000E+02 0.1891E-03 0.8974E+00 0.2793E-01 0.3498E+02 0.9319E-01 0.9154E-01-0.5255E-02 0.7858E+02-0.4511E+01
 0.1000E+03 0.1210E-03 0.7448E+00 0.2194E-01 0.3696E+02 0.9792E-01 0.9654E-01-0.2676E-01 0.9859E+02-0.2733E+02

