
  58  12   1 TUNGSTEN     06-JAN-82 11:13:54  HOWERTON, MOD. BY JRC   
 0.7400E+02 0.1930E+05 0.1838E+03 0.7400E+02 0.2425E+27 0.3277E+25 0.0000E+00 0.0000E+00
 ENERGY(MEV) COH(M2/ATXE28) INCO.   PHOTO.EL. PAIR PROD.  ATT. (M2/KGXE-1) TRAN.  ABS.     E(TR)      E(ABS)                        
 0.1000E-02 0.3485E+04 0.1327E+01 0.1402E+07 0.0000E+00 0.4604E+04 0.4592E+04 0.4592E+04 0.9975E-03 0.9975E-03 0.0000E+00 0.0000E+00
 0.1808E-02 0.3226E+04 0.2869E+01 0.3537E+06 0.0000E+00 0.1169E+04 0.1159E+04 0.1159E+04 0.1792E-02 0.1792E-02 0.0000E+00 0.0000E+00
 0.1809E-02 0.3225E+04 0.2871E+01 0.1075E+07 0.0000E+00 0.3532E+04 0.3491E+04 0.3491E+04 0.1788E-02 0.1788E-02 0.0000E+00 0.0000E+00
 0.1870E-02 0.3207E+04 0.2983E+01 0.9857E+06 0.0000E+00 0.3239E+04 0.3203E+04 0.3202E+04 0.1849E-02 0.1849E-02 0.0000E+00 0.0000E+00
 0.1871E-02 0.3206E+04 0.2985E+01 0.1391E+07 0.0000E+00 0.4567E+04 0.4521E+04 0.4520E+04 0.1852E-02 0.1852E-02 0.0000E+00 0.0000E+00
 0.2280E-02 0.3059E+04 0.3727E+01 0.8311E+06 0.0000E+00 0.2732E+04 0.2704E+04 0.2704E+04 0.2257E-02 0.2257E-02 0.0000E+00 0.0000E+00
 0.2281E-02 0.3059E+04 0.3728E+01 0.1102E+07 0.0000E+00 0.3620E+04 0.3587E+04 0.3586E+04 0.2260E-02 0.2260E-02 0.0000E+00 0.0000E+00
 0.2574E-02 0.2961E+04 0.4252E+01 0.8044E+06 0.0000E+00 0.2645E+04 0.2619E+04 0.2619E+04 0.2549E-02 0.2549E-02 0.0000E+00 0.0000E+00
 0.2575E-02 0.2961E+04 0.4254E+01 0.9078E+06 0.0000E+00 0.2983E+04 0.2956E+04 0.2956E+04 0.2552E-02 0.2552E-02 0.0000E+00 0.0000E+00
 0.2817E-02 0.2890E+04 0.4682E+01 0.7183E+06 0.0000E+00 0.2362E+04 0.2340E+04 0.2340E+04 0.2791E-02 0.2791E-02 0.0000E+00 0.0000E+00
 0.2818E-02 0.2890E+04 0.4683E+01 0.7750E+06 0.0000E+00 0.2548E+04 0.2524E+04 0.2524E+04 0.2792E-02 0.2792E-02 0.0000E+00 0.0000E+00
 0.4000E-02 0.2538E+04 0.6707E+01 0.3110E+06 0.0000E+00 0.1027E+04 0.1015E+04 0.1015E+04 0.3953E-02 0.3952E-02 0.0000E+00 0.0000E+00
 0.5000E-02 0.2264E+04 0.8322E+01 0.1738E+06 0.0000E+00 0.5767E+03 0.5676E+03 0.5675E+03 0.4921E-02 0.4920E-02 0.0000E+00 0.0000E+00
 0.6000E-02 0.2026E+04 0.9838E+01 0.1081E+06 0.0000E+00 0.3608E+03 0.3532E+03 0.3531E+03 0.5874E-02 0.5872E-02 0.0000E+00 0.0000E+00
 0.7000E-02 0.1808E+04 0.1123E+02 0.7232E+05 0.0000E+00 0.2429E+03 0.2364E+03 0.2363E+03 0.6813E-02 0.6811E-02 0.0000E+00 0.0000E+00
 0.8000E-02 0.1638E+04 0.1251E+02 0.5106E+05 0.0000E+00 0.1727E+03 0.1670E+03 0.1669E+03 0.7735E-02 0.7732E-02 0.0000E+00 0.0000E+00
 0.1000E-01 0.1343E+04 0.1474E+02 0.2854E+05 0.0000E+00 0.9793E+02 0.9334E+02 0.9330E+02 0.9531E-02 0.9527E-02 0.0000E+00 0.0000E+00
 0.1020E-01 0.1314E+04 0.1495E+02 0.2708E+05 0.0000E+00 0.9306E+02 0.8860E+02 0.8840E+02 0.9711E-02 0.9689E-02 0.8833E+01 0.4508E+00
 0.1020E-01 0.1314E+04 0.1495E+02 0.7088E+05 0.0000E+00 0.2365E+03 0.1844E+03 0.1840E+03 0.7955E-02 0.7937E-02 0.8833E+01 0.4508E+00
 0.1154E-01 0.1150E+04 0.1624E+02 0.5156E+05 0.0000E+00 0.1727E+03 0.1382E+03 0.1378E+03 0.9232E-02 0.9209E-02 0.8562E+01 0.4536E+00
 0.1154E-01 0.1150E+04 0.1624E+02 0.7268E+05 0.0000E+00 0.2419E+03 0.1948E+03 0.1943E+03 0.9293E-02 0.9270E-02 0.8562E+01 0.4536E+00
 0.1210E-01 0.1093E+04 0.1674E+02 0.6433E+05 0.0000E+00 0.2144E+03 0.1741E+03 0.1737E+03 0.9828E-02 0.9802E-02 0.8446E+01 0.4548E+00
 0.1210E-01 0.1092E+04 0.1674E+02 0.7461E+05 0.0000E+00 0.2480E+03 0.2019E+03 0.2014E+03 0.9852E-02 0.9826E-02 0.8446E+01 0.4548E+00
 0.2000E-01 0.6068E+03 0.2238E+02 0.1981E+05 0.0000E+00 0.6695E+02 0.5808E+02 0.5785E+02 0.1735E-01 0.1728E-01 0.6964E+01 0.4731E+00
 0.3000E-01 0.3550E+03 0.2673E+02 0.6618E+04 0.0000E+00 0.2293E+02 0.2017E+02 0.2006E+02 0.2639E-01 0.2624E-01 0.5820E+01 0.4874E+00
 0.4000E-01 0.2331E+03 0.2913E+02 0.2996E+04 0.0000E+00 0.1067E+02 0.9304E+01 0.9239E+01 0.3488E-01 0.3463E-01 0.5037E+01 0.4977E+00
 0.5000E-01 0.1639E+03 0.3047E+02 0.1607E+04 0.0000E+00 0.5901E+01 0.5052E+01 0.5010E+01 0.4281E-01 0.4245E-01 0.4475E+01 0.5056E+00
 0.6952E-01 0.9593E+02 0.3143E+02 0.6319E+03 0.0000E+00 0.2487E+01 0.2019E+01 0.1997E+01 0.5645E-01 0.5583E-01 0.3741E+01 0.5167E+00
 0.6952E-01 0.9593E+02 0.3143E+02 0.3233E+04 0.0000E+00 0.1101E+02 0.3194E+01 0.3159E+01 0.2017E-01 0.1995E-01 0.3737E+01 0.5169E+00
 0.8000E-01 0.7603E+02 0.3167E+02 0.2267E+04 0.0000E+00 0.7779E+01 0.2925E+01 0.2889E+01 0.3008E-01 0.2971E-01 0.3458E+01 0.5215E+00
 0.1000E+00 0.5182E+02 0.3146E+02 0.1269E+04 0.0000E+00 0.4430E+01 0.2150E+01 0.2119E+01 0.4854E-01 0.4783E-01 0.3058E+01 0.5287E+00
 0.1500E+00 0.2507E+02 0.2994E+02 0.4265E+03 0.0000E+00 0.1577E+01 0.9627E+00 0.9435E+00 0.9157E-01 0.8974E-01 0.2481E+01 0.5406E+00
 0.2000E+00 0.1491E+02 0.2819E+02 0.1944E+03 0.0000E+00 0.7779E+00 0.5025E+00 0.4902E+00 0.1292E+00 0.1260E+00 0.2157E+01 0.5484E+00
 0.3000E+00 0.7025E+01 0.2517E+02 0.6492E+02 0.0000E+00 0.3181E+00 0.2010E+00 0.1946E+00 0.1896E+00 0.1835E+00 0.1832E+01 0.5576E+00
 0.4000E+00 0.4069E+01 0.2283E+02 0.3053E+02 0.0000E+00 0.1881E+00 0.1114E+00 0.1072E+00 0.2370E+00 0.2279E+00 0.1673E+01 0.5630E+00
 0.5000E+00 0.2650E+01 0.2099E+02 0.1740E+02 0.0000E+00 0.1344E+00 0.7529E-01 0.7204E-01 0.2801E+00 0.2680E+00 0.1580E+01 0.5668E+00
 0.6000E+00 0.1862E+01 0.1951E+02 0.1120E+02 0.0000E+00 0.1067E+00 0.5751E-01 0.5478E-01 0.3234E+00 0.3081E+00 0.1515E+01 0.5698E+00
 0.7000E+00 0.1379E+01 0.1825E+02 0.7900E+01 0.0000E+00 0.9016E-01 0.4762E-01 0.4517E-01 0.3697E+00 0.3507E+00 0.1461E+01 0.5725E+00
 0.8000E+00 0.1063E+01 0.1722E+02 0.5838E+01 0.0000E+00 0.7901E-01 0.4122E-01 0.3894E-01 0.4174E+00 0.3943E+00 0.1417E+01 0.5749E+00
 0.1000E+01 0.6858E+00 0.1553E+02 0.3678E+01 0.0000E+00 0.6515E-01 0.3400E-01 0.3185E-01 0.5218E+00 0.4888E+00 0.1343E+01 0.5793E+00
 0.1250E+01 0.4417E+00 0.1391E+02 0.2427E+01 0.4549E-02 0.5498E-01 0.2919E-01 0.2708E-01 0.6637E+00 0.6157E+00 0.1277E+01 0.5839E+00
 0.2000E+01 0.1738E+00 0.1082E+02 0.1011E+01 0.1325E+01 0.4365E-01 0.2420E-01 0.2193E-01 0.1109E+01 0.1005E+01 0.1192E+01 0.5914E+00
 0.3000E+01 0.7749E-01 0.8520E+01 0.5305E+00 0.3146E+01 0.4020E-01 0.2464E-01 0.2179E-01 0.1839E+01 0.1626E+01 0.1145E+01 0.5969E+00
 0.4000E+01 0.4364E-01 0.7110E+01 0.3508E+00 0.4681E+01 0.3992E-01 0.2671E-01 0.2313E-01 0.2676E+01 0.2317E+01 0.1123E+01 0.6005E+00
 0.5000E+01 0.2795E-01 0.6142E+01 0.2545E+00 0.5993E+01 0.4067E-01 0.2909E-01 0.2469E-01 0.3576E+01 0.3036E+01 0.1111E+01 0.6030E+00
 0.6000E+01 0.1941E-01 0.5430E+01 0.2011E+00 0.6913E+01 0.4115E-01 0.3090E-01 0.2573E-01 0.4506E+01 0.3751E+01 0.1106E+01 0.6048E+00
 0.7000E+01 0.1427E-01 0.4880E+01 0.1648E+00 0.7801E+01 0.4213E-01 0.3287E-01 0.2686E-01 0.5461E+01 0.4462E+01 0.1104E+01 0.6060E+00
 0.8000E+01 0.1093E-01 0.4442E+01 0.1387E+00 0.8664E+01 0.4342E-01 0.3492E-01 0.2800E-01 0.6433E+01 0.5159E+01 0.1104E+01 0.6070E+00
 0.1000E+02 0.6992E-02 0.3784E+01 0.1040E+00 0.1033E+02 0.4658E-01 0.3918E-01 0.3032E-01 0.8411E+01 0.6510E+01 0.1107E+01 0.6082E+00
 0.1500E+02 0.3109E-02 0.2801E+01 0.6721E-01 0.1307E+02 0.5221E-01 0.4664E-01 0.3336E-01 0.1340E+02 0.9583E+01 0.1121E+01 0.6093E+00
 0.2000E+02 0.1749E-02 0.2248E+01 0.4932E-01 0.1545E+02 0.5813E-01 0.5354E-01 0.3571E-01 0.1842E+02 0.1228E+02 0.1134E+01 0.6095E+00
 0.3000E+02 0.7770E-03 0.1637E+01 0.3188E-01 0.1856E+02 0.6628E-01 0.6286E-01 0.3699E-01 0.2845E+02 0.1674E+02 0.1155E+01 0.6087E+00
 0.4000E+02 0.4371E-03 0.1301E+01 0.2340E-01 0.2052E+02 0.7157E-01 0.6883E-01 0.3647E-01 0.3847E+02 0.2038E+02 0.1172E+01 0.6078E+00
 0.5000E+02 0.2798E-03 0.1086E+01 0.1840E-01 0.2219E+02 0.7629E-01 0.7399E-01 0.3585E-01 0.4849E+02 0.2350E+02 0.1186E+01 0.6070E+00
 0.6000E+02 0.1943E-03 0.9356E+00 0.1512E-01 0.2321E+02 0.7913E-01 0.7715E-01 0.3453E-01 0.5850E+02 0.2618E+02 0.1197E+01 0.6063E+00
 0.7000E+02 0.1427E-03 0.8238E+00 0.1281E-01 0.2410E+02 0.8170E-01 0.7996E-01 0.3333E-01 0.6851E+02 0.2856E+02 0.1206E+01 0.6057E+00
 0.8000E+02 0.1093E-03 0.7378E+00 0.1110E-01 0.2491E+02 0.8405E-01 0.8250E-01 0.3221E-01 0.7852E+02 0.3066E+02 0.1214E+01 0.6052E+00
 0.1000E+03 0.6993E-04 0.6124E+00 0.8729E-02 0.2632E+02 0.8824E-01 0.8694E-01 0.3022E-01 0.9853E+02 0.3425E+02 0.1226E+01 0.6044E+00

