
  43  12   2 WATER        06-JAN-82 11:14:06  HOWERTON, MOD. BY JRC   
 0.7410E+01 0.1000E+04 0.6005E+01 0.7411E+01 0.3343E+27 0.1003E+27 0.0000E+00 0.0000E+00
 ENERGY(MEV) COH(M2/ATXE28) INCO.   PHOTO.EL. PAIR PROD.  ATT. (M2/KGXE-1) TRAN.  ABS.     E(TR)      E(ABS)    S(AVG.)    SR(AVG.) 
 0.1000E-02 0.1368E+02 0.1319E+00 0.4071E+05 0.0000E+00 0.4083E+04 0.4082E+04 0.4082E+04 0.9998E-03 0.9998E-03 0.0000E+00 0.0000E+00
 0.1500E-02 0.1266E+02 0.2674E+00 0.1389E+05 0.0000E+00 0.1395E+04 0.1394E+04 0.1394E+04 0.1499E-02 0.1499E-02 0.0000E+00 0.0000E+00
 0.2000E-02 0.1146E+02 0.4187E+00 0.6244E+04 0.0000E+00 0.6274E+03 0.6261E+03 0.6261E+03 0.1996E-02 0.1996E-02 0.0000E+00 0.0000E+00
 0.3000E-02 0.9054E+01 0.7081E+00 0.1932E+04 0.0000E+00 0.1947E+03 0.1938E+03 0.1938E+03 0.2986E-02 0.2986E-02 0.0000E+00 0.0000E+00
 0.4000E-02 0.7055E+01 0.9439E+00 0.8171E+03 0.0000E+00 0.8274E+02 0.8193E+02 0.8193E+02 0.3961E-02 0.3961E-02 0.0000E+00 0.0000E+00
 0.5000E-02 0.5556E+01 0.1124E+01 0.4134E+03 0.0000E+00 0.4212E+02 0.4146E+02 0.4145E+02 0.4921E-02 0.4921E-02 0.0000E+00 0.0000E+00
 0.6000E-02 0.4467E+01 0.1259E+01 0.2349E+03 0.0000E+00 0.2413E+02 0.2355E+02 0.2355E+02 0.5857E-02 0.5857E-02 0.0000E+00 0.0000E+00
 0.8000E-02 0.3088E+01 0.1439E+01 0.9504E+02 0.0000E+00 0.9982E+01 0.9531E+01 0.9532E+01 0.7639E-02 0.7639E-02 0.0000E+00 0.0000E+00
 0.1000E-01 0.2295E+01 0.1549E+01 0.4667E+02 0.0000E+00 0.5066E+01 0.4684E+01 0.4684E+01 0.9246E-02 0.9246E-02 0.0000E+00 0.0000E+00
 0.1500E-01 0.1327E+01 0.1699E+01 0.1261E+02 0.0000E+00 0.1568E+01 0.1269E+01 0.1269E+01 0.1214E-01 0.1214E-01 0.1988E+02 0.1175E+01
 0.2000E-01 0.8815E+00 0.1774E+01 0.4937E+01 0.0000E+00 0.7613E+00 0.5019E+00 0.5016E+00 0.1318E-01 0.1318E-01 0.1718E+02 0.1173E+01
 0.3000E-01 0.4664E+00 0.1828E+01 0.1307E+01 0.0000E+00 0.3612E+00 0.1411E+00 0.1411E+00 0.1172E-01 0.1172E-01 0.1384E+02 0.1170E+01
 0.4000E-01 0.2870E+00 0.1825E+01 0.5087E+00 0.0000E+00 0.2629E+00 0.6373E-01 0.6372E-01 0.9698E-02 0.9696E-02 0.1167E+02 0.1168E+01
 0.5000E-01 0.1933E+00 0.1800E+01 0.2450E+00 0.0000E+00 0.2245E+00 0.3959E-01 0.3959E-01 0.8819E-02 0.8817E-02 0.1016E+02 0.1167E+01
 0.6000E-01 0.1390E+00 0.1767E+01 0.1351E+00 0.0000E+00 0.2046E+00 0.3054E-01 0.3053E-01 0.8955E-02 0.8953E-02 0.9254E+01 0.1166E+01
 0.8000E-01 0.8155E-01 0.1693E+01 0.5317E-01 0.0000E+00 0.1833E+00 0.2553E-01 0.2554E-01 0.1115E-01 0.1115E-01 0.1105E+02 0.1169E+01
 0.1000E+00 0.5347E-01 0.1622E+01 0.2594E-01 0.0000E+00 0.1706E+00 0.2530E-01 0.2530E-01 0.1483E-01 0.1483E-01 0.1255E+02 0.1170E+01
 0.1500E+00 0.2442E-01 0.1469E+01 0.7177E-02 0.0000E+00 0.1505E+00 0.2764E-01 0.2762E-01 0.2754E-01 0.2753E-01 0.1089E+02 0.1168E+01
 0.2000E+00 0.1388E-01 0.1350E+01 0.2936E-02 0.0000E+00 0.1370E+00 0.2969E-01 0.2967E-01 0.4333E-01 0.4331E-01 0.8600E+01 0.1165E+01
 0.3000E+00 0.6221E-02 0.1176E+01 0.8600E-03 0.0000E+00 0.1187E+00 0.3196E-01 0.3195E-01 0.8080E-01 0.8074E-01 0.6076E+01 0.1162E+01
 0.4000E+00 0.3509E-02 0.1055E+01 0.3697E-03 0.0000E+00 0.1061E+00 0.3284E-01 0.3278E-01 0.1237E+00 0.1236E+00 0.4841E+01 0.1159E+01
 0.5000E+00 0.2249E-02 0.9635E+00 0.1953E-03 0.0000E+00 0.9685E-01 0.3303E-01 0.3298E-01 0.1705E+00 0.1703E+00 0.4103E+01 0.1158E+01
 0.6000E+00 0.1563E-02 0.8914E+00 0.1174E-03 0.0000E+00 0.8957E-01 0.3289E-01 0.3283E-01 0.2203E+00 0.2199E+00 0.3641E+01 0.1156E+01
 0.6620E+00 0.1312E-02 0.8547E+00 0.9347E-04 0.0000E+00 0.8587E-01 0.3277E-01 0.3270E-01 0.2526E+00 0.2521E+00 0.3417E+01 0.1156E+01
 0.8000E+00 0.8798E-03 0.7834E+00 0.5387E-04 0.0000E+00 0.7865E-01 0.3213E-01 0.3205E-01 0.3268E+00 0.3260E+00 0.3087E+01 0.1154E+01
 0.1000E+01 0.5631E-03 0.7046E+00 0.3009E-04 0.0000E+00 0.7071E-01 0.3110E-01 0.3101E-01 0.4399E+00 0.4385E+00 0.2774E+01 0.1152E+01
 0.1250E+01 0.3606E-03 0.6300E+00 0.2035E-04 0.5742E-04 0.6321E-01 0.2973E-01 0.2961E-01 0.5879E+00 0.5856E+00 0.2539E+01 0.1149E+01
 0.1500E+01 0.2504E-03 0.5725E+00 0.1478E-04 0.9660E-03 0.5754E-01 0.2844E-01 0.2830E-01 0.7413E+00 0.7378E+00 0.2398E+01 0.1146E+01
 0.2000E+01 0.1408E-03 0.4887E+00 0.8927E-05 0.3949E-02 0.4940E-01 0.2621E-01 0.2604E-01 0.1061E+01 0.1054E+01 0.2235E+01 0.1141E+01
 0.3000E+01 0.6261E-04 0.3844E+00 0.4973E-05 0.1139E-01 0.3970E-01 0.2301E-01 0.2279E-01 0.1739E+01 0.1722E+01 0.2083E+01 0.1129E+01
 0.4000E+01 0.3523E-04 0.3206E+00 0.3443E-05 0.1878E-01 0.3404E-01 0.2092E-01 0.2064E-01 0.2458E+01 0.2425E+01 0.2027E+01 0.1119E+01
 0.5000E+01 0.2254E-04 0.2769E+00 0.2588E-05 0.2550E-01 0.3033E-01 0.1947E-01 0.1914E-01 0.3210E+01 0.3155E+01 0.1995E+01 0.1110E+01
 0.6000E+01 0.1565E-04 0.2448E+00 0.2096E-05 0.3052E-01 0.2760E-01 0.1834E-01 0.1795E-01 0.3986E+01 0.3903E+01 0.1977E+01 0.1102E+01
 0.8000E+01 0.8805E-05 0.2002E+00 0.1503E-05 0.4064E-01 0.2416E-01 0.1696E-01 0.1648E-01 0.5615E+01 0.5456E+01 0.1962E+01 0.1088E+01
 0.1000E+02 0.5634E-05 0.1705E+00 0.1161E-05 0.5084E-01 0.2220E-01 0.1627E-01 0.1568E-01 0.7327E+01 0.7063E+01 0.1964E+01 0.1078E+01
 0.1500E+02 0.2505E-05 0.1262E+00 0.7583E-06 0.6608E-01 0.1928E-01 0.1516E-01 0.1434E-01 0.1179E+02 0.1115E+02 0.1968E+01 0.1059E+01
 0.2000E+02 0.1409E-05 0.1013E+00 0.5607E-06 0.7966E-01 0.1815E-01 0.1496E-01 0.1391E-01 0.1649E+02 0.1533E+02 0.1976E+01 0.1045E+01
 0.3000E+02 0.6261E-06 0.7375E-01 0.3663E-06 0.9687E-01 0.1710E-01 0.1490E-01 0.1340E-01 0.2614E+02 0.2350E+02 0.1995E+01 0.1026E+01
 0.4000E+02 0.3523E-06 0.5859E-01 0.2708E-06 0.1082E+00 0.1674E-01 0.1505E-01 0.1312E-01 0.3596E+02 0.3135E+02 0.2011E+01 0.1013E+01
 0.5000E+02 0.2254E-06 0.4891E-01 0.2142E-06 0.1180E+00 0.1674E-01 0.1537E-01 0.1302E-01 0.4589E+02 0.3889E+02 0.2024E+01 0.1003E+01
 0.6000E+02 0.1557E-06 0.4213E-01 0.1769E-06 0.1244E+00 0.1670E-01 0.1554E-01 0.1280E-01 0.5583E+02 0.4601E+02 0.2035E+01 0.9956E+00
 0.8000E+02 0.8757E-07 0.3324E-01 0.1308E-06 0.1353E+00 0.1690E-01 0.1601E-01 0.1253E-01 0.7579E+02 0.5929E+02 0.2054E+01 0.9848E+00
 0.1000E+03 0.5603E-07 0.2759E-01 0.1034E-06 0.1443E+00 0.1724E-01 0.1652E-01 0.1231E-01 0.9584E+02 0.7140E+02 0.2068E+01 0.9770E+00

